attribute err Q37424394
attribute err Q37424394
not in dictionary 48262/7-7577 obec: Město Brno

not in dictionary 47935/7-7248 obec: Město Brno

not in dictionary 48005/7-7318 obec: Město Brno

not in dictionary 33704/2-1043 obec: Kutná Hora

not in dictionary 28417/2-1043 obec: Kutná Hora

not in dictionary 53817/1-1433 obec: Břevnov

not in dictionary 54268/1-1435 obec: Břevnov

not in dictionary 54269/1-1436 obec: Břevnov

not in dictionary 54042/1-1440 obec: Břevnov

not in dictionary 28454/2-3 obec: Kouřim

not in dictionary 53575/6-742 obec: Chrudim

not in dictionary 54214/6-743 obec: Chrudim

not in dictionary 53616/6-774 obec: Chrudim

not in dictionary 53398/6-761 obec: Chrudim

not in dictionary 11655/6-798 obec: Chrudim

not in dictionary 52397/6-775 obec: Chrudim

not in dictionary 52909/6-770 obec: Chrudim

not in dictionary 53679/6-766 obec: Chrudim

not in dictionary 53296/5-3323 obec: Svojkov

not in dictionary 31493/3-1451 obec: Svéraz

not in dictionary 41190/3-1249 obec: Krasetín

not in dictionary 24344/3-1254 obec: Horní Dvořiště

not in dictionary 19184/3-1257 obec: Český Heršlák

not in dictionary 27127/3-1458 obec: Světlík (okres Český Krumlov)

not in dictionary 49649/3-6164 obec: Větřní

not in dictionary 34401/5-3851 obec: Mezná (Hřensko)

not in dictionary 17699/5-3832 obec: Javory (Malšovice)

not in dictionary 26455/5-3923 obec: Kamenická Stráň

not in dictionary 13504/3-5577 obec:  Boršov nad Vltavou
  
not in dictionary 23120/3-72 obec:  Česká Lhota
  
not in dictionary 18371/3-74 obec:  Česká Lhota
  
not in dictionary 15184/3-75 obec:  Česká Lhota
  
not in dictionary 28476/3-270 obec:  Zbudov (Dívčice)
  
not in dictionary 35854/3-266 obec:  Zbudov (Dívčice)
  
not in dictionary 18160/3-267 obec:  Zbudov (Dívčice)
  
not in dictionary 34840/3-268 obec:  Zbudov (Dívčice)
  
not in dictionary 42250/3-269 obec:  Zbudov (Dívčice)
  
not in dictionary 20312/3-274 obec:  Doubravice (okres České Budějovice)
  
not in dictionary 34228/3-95 obec:  Dubné
  
not in dictionary 19407/3-97 obec:  Lhota (Dynín)
  
not in dictionary 16803/3-99 obec:  Hartmanice (okres České Budějovice)
  
not in dictionary 40621/3-98 obec:  Hartmanice (okres České Budějovice)
  
not in dictionary 46965/3-154 obec:  Hosty
  
not in dictionary 17112/3-159 obec:  Opatovice (Hrdějovice)
  
not in dictionary 24632/3-160 obec:  Opatovice (Hrdějovice)
  
not in dictionary 32223/3-157 obec:  Opatovice (Hrdějovice)
  
not in dictionary 27449/3-158 obec:  Opatovice (Hrdějovice)
  
not in dictionary 27487/3-232 obec:  Lipnice (Jílovice)
  
not in dictionary 19269/3-613 obec:  Zaliny
  
not in dictionary 31829/3-226 obec:  Libníč
  
not in dictionary 22842/3-5594 obec:  Kaliště u Lipí
  
not in dictionary 34095/3-244 obec:  Ločenice
  
not in dictionary 47353/3-281 obec:  Nesměň (Ločenice)
  
not in dictionary 37290/3-5472 obec:  Chlumec (Olešník)
  
not in dictionary 36566/3-525 obec:  Ostrolovský Újezd
  
not in dictionary 30102/3-346 obec:  Pištín
  
not in dictionary 20325/3-366 obec:  Plav
  
not in dictionary 22647/3-364 obec:  Plav
  
not in dictionary 42156/4-2142 obec:  Březí (Meclov)

not in dictionary 19549/4-2229 obec: Stráž (okres Domažlice)

not in dictionary 35171/7-3986 obec: Smrček (Býšovec)

not in dictionary 26862/7-4196 obec: Lísek

not in dictionary 21475/7-4994 obec: Meziříčko (okres Žďár nad Sázavou)

not in dictionary 17203/7-4372 obec: Čtyři Dvory (Prosetín)

not in dictionary 28851/7-4386 obec: Rosička (okres Žďár nad Sázavou)

not in dictionary 26611/7-4468 obec: Moravská Cikánka

not in dictionary 19944/7-4138 obec: Koníkov

not in dictionary 13898/7-4322 obec: Odranec

not in dictionary 19183/7-4324 obec: Odranec

not in dictionary 28229/7-4325 obec: Odranec

not in dictionary 32686/7-4601 obec: Věstín

not in dictionary 14311/7-6611 obec: Němčičky (okres Znojmo)

not in dictionary 37664/7-6678 obec: Prokopov

not in dictionary 48928/7-8328 obec: Trnové Pole

not in dictionary 17577/7-1829 obec: Biskupice (okres Zlín)

not in dictionary 31876/7-1832 obec: Biskupice (okres Zlín)

not in dictionary 101930 obec: Březůvky

not in dictionary 36352/7-1935 obec: Kaňovice (okres Zlín)

not in dictionary 22253/7-1932 obec: Kaňovice (okres Zlín)

not in dictionary 22726/7-1937 obec: Kaňovice (okres Zlín)

not in dictionary 68708/37-124611 obec: Otrokovice

not in dictionary 68711/37-124614 obec: Otrokovice

not in dictionary 68712/37-124615 obec: Otrokovice

not in dictionary 34067/7-2144 obec: Všemina

not in dictionary 44799/7-3755 obec: Podbřežice

not in dictionary 28826/7-3891 obec: Vážany nad Litavou

not in dictionary 36701/6-3914 obec: Chotěšiny

not in dictionary 10855/ obec: Orlov (Vračovice-Orlov)

not in dictionary 50525/6-5844 obec: Zámrsk

not in dictionary 34938/6-4175 obec: Žichlínek

not in dictionary 49844/6-6100 obec: Vysoké Mýto

not in dictionary 50816/6-6196 obec: Vysoké Mýto

not in dictionary 50661/6-6149 obec: Brteč

not in dictionary 47719/5-4770 obec: Žežice (Chuderov)

not in dictionary 51003/5-5837 obec: Velké Březno

not in dictionary 43336/5-208 obec: Luční Chvojno

not in dictionary 54534/5-2555 obec: Bílina (okres Teplice)

not in dictionary 54533/5-2548 obec: Bílina (okres Teplice)

not in dictionary 21773/2-3488 obec: Krchleby (okres Kutná Hora)

not in dictionary 54223/5-4373 obec: Kunratice (okres Liberec)

not in dictionary 36840/5-4395 obec: Mlýnice (Nová Ves)

not in dictionary 42423/5-2453 obec: Vetlá

not in dictionary 14260/4-4152 obec: Údolí (Srní)

not in dictionary 52302/2-1520 obec: Březno (okres Mladá Boleslav)

not in dictionary 32744/2-1580 obec: Jabkenice

not in dictionary 100675 obec: Vrátno

not in dictionary 34037/8-1360 obec: Dolní Benešov

not in dictionary 23509/8-2565 obec: Hrabství (Skřipov)

not in dictionary 22445/3-3054 obec: Jiřice (okres Pelhřimov)

not in dictionary 47368/3-3059 obec: Kaliště (okres Pelhřimov)

not in dictionary 27732/3-3106 obec: Křeč (okres Pelhřimov)

not in dictionary 26364/3-3180 obec: Olešná (okres Pelhřimov)

not in dictionary 29671/3-3320 obec: Útěchovice pod Stražištěm

not in dictionary 94790/6-3576 obec: Běluň (Brzice)

not in dictionary 10226/6-5782 obec: Starostín

not in dictionary 35375/8-2080 obec: Mošnov

not in dictionary 45643/3-2510 obec: Horosedly

not in dictionary 38618/3-2785 obec: Osletín

not in dictionary 53749/2-2351 obec: Zvole (okres Praha-západ)

not in dictionary 14910/3-3525 obec: Budkov (okres Prachatice)

not in dictionary 27874/3-3565 obec: Hracholusky (okres Prachatice)

not in dictionary 14091/3-3595 obec: Chroboly

not in dictionary 19824/3-3533 obec: České Žleby

not in dictionary 15611/3-3763 obec: Strážný

not in dictionary 40832/8-592 obec: Týn nad Bečvou

not in dictionary 35570/2-4180 obec: Kamenice (Klučenice)

not in dictionary 34988/2-4182 obec: Křešín (okres Příbram)

not in dictionary 15155/4-298 obec: Přešín
not in dictionary 16420/4-1199 obec: Nová Víska (Bezvěrov)

not in dictionary 29291/4-1184 obec: Čivice

not in dictionary 41539/4-1225 obec: Vlkýš

not in dictionary 15532/4-1202 obec: Doubrava (Nýřany)

not in dictionary 28449/4-1493 obec: Pernarec

not in dictionary 25876/4-2613 obec: Třímany

not in dictionary 31073/4-3568 obec: Liblín

not in dictionary 20435/6-2260 obec: Kamenice (Dobré)

not in dictionary 44384/ obec: Přepychy (okres Rychnov nad Kněžnou)

not in dictionary 34698/3-4055 obec: Netonice

not in dictionary 28979/3-5243 obec: Střelskohoštická Lhota

not in dictionary 40257/3-5245 obec: Švejcarova Lhota

not in dictionary 50328/ obec: Budislav (okres Svitavy)

not in dictionary 49775/ obec: Ostrý Kámen

not in dictionary 47735/6-3243 obec: Osík

not in dictionary 10029/ obec: Sedliště (okres Svitavy)

not in dictionary 11509/ obec: Vidlatá Seč

not in dictionary 49773/ obec: Vranová Lhota

not in dictionary 29032/3-5025 obec: Nové Dvory (Dolní Hořice)

not in dictionary 47580/3-5958 obec: Chotoviny

not in dictionary 31435/3-5786 obec: Chlístov (Nadějkov)

not in dictionary 15840/3-4960 obec: Planá nad Lužnicí

not in dictionary 20607/3-4994 obec: Rataje (okres Tábor)

not in dictionary 47583/3-5963 obec: Sudoměřice u Tábora

not in dictionary 15429/3-4887 obec: Vosná

not in dictionary 15602/4-2000 obec: Vrbice u Bezdružic

not in dictionary 53435/4-1812 obec: Mchov

not in dictionary 52938/4-1904 obec: Nové Sedliště

not in dictionary 30560/6-3470 obec: Doubravice (okres Trutnov)

not in dictionary 35669/6-3574 obec: Kohoutov (okres Trutnov)

not in dictionary 44764/6-5055 obec: Lanžov

not in dictionary 16357/7-2311 obec: Lužice (okres Hodonín)

not in dictionary 31433/7-2432 obec: Šardice

not in dictionary 101390 obec: Michnovka

not in dictionary 25264/6-663 obec: Nepolisy

not in dictionary 39972/6-677 obec: Obědovice

not in dictionary 11652/6-723 obec: Světí

not in dictionary 33410/4-4265 obec: Výhledy

not in dictionary 54129/5-860 obec: Vrskmaň

not in dictionary 39880/5-863 obec: Zaječice (Vrskmaň)

not in dictionary 32247/6-5004 obec: Hudeč

not in dictionary 38254/3-2256 obec: Studnice (Lodhéřov)

not in dictionary 21065/3-2103 obec: Ponědrážka

not in dictionary 37581/3-2255 obec: Studená (okres Jindřichův Hradec)

not in dictionary 36452/4-801 obec: Hájek (okres Karlovy Vary)

not in dictionary 25903/4-1036 obec: Stráž nad Ohří

not in dictionary 26623/4-938 obec: Luka (Verušičky)

not in dictionary 18646/7-4294 obec: Maršovice (Nové Město na Moravě)

not in dictionary 21275/7-4293 obec: Maršovice (Nové Město na Moravě)

not in dictionary 54190/7-4906 obec:  Staré Hory

not in dictionary 52598/7-4850 obec: Hruškové Dvory

not in dictionary 53564/7-4841 obec: Hosov

not in dictionary 52989/7-4843 obec: Hosov

not in dictionary 52683/7-5068 obec: Pístov (Jihlava)

not in dictionary 53120/7-5066 obec: Pístov (Jihlava)

not in dictionary 53432/7-5422 obec: Zborná

not in dictionary 38119/7-5113 obec: Polná

not in dictionary 16102/7-5289 obec: Telč

not in dictionary 15900/7-5242 obec: Studnice (Telč)

not in dictionary 21090/7-5363 obec: Třešť

not in dictionary 48913/7-8313 obec: Šatov

not in dictionary 20824/7-6777 obec: Šatov

not in dictionary 23653/6-6 obec: Havlíčkův Brod

not in dictionary 33596/8-1733 obec:  Olomouc
  
not in dictionary 24440/8-2965 obec:  Olomouc
  
not in dictionary 53026/7-3124 obec: Vnitřní Město (Třebíč)

not in dictionary 53415/7-3123 obec: Vnitřní Město (Třebíč)

not in dictionary 54115/7-3122 obec: Vnitřní Město (Třebíč)

not in dictionary 11697/7-3148 obec: Jejkov

not in dictionary 35268/7-3152 obec: Stařečka

not in dictionary 54182/7-3153 obec: Stařečka

not in dictionary 52739/8-1426 obec: Opava

not in dictionary 21851/8-1500 obec: Vávrovice

not in dictionary 53510/8-1394 obec: Jarkovice (Opava)

not in dictionary 89429/7-6030 obec: Kroměříž

not in dictionary 53591/2-945 obec: Čáslav

not in dictionary 20280/2-2808 obec: Čáslav

not in dictionary 54689/5-4935 obec: Liberec

not in dictionary 53458/5-4149 obec: Liberec

not in dictionary 53528/5-4150 obec: Liberec

not in dictionary 54655/5-4169 obec: Liberec

not in dictionary 52941/5-4168 obec: Liberec

not in dictionary 36619/5-4849 obec: Liberec

not in dictionary 22232/5-4321 obec: Chrastava

not in dictionary 32198/3-3194 obec: Pacov

not in dictionary 40871/3-2892 obec: Pelhřimov

not in dictionary 14981/3-3257 obec: Počátky

not in dictionary 53234/6-1549 obec: Broumov

not in dictionary 15555/6-1547 obec: Nové Město (Broumov)

not in dictionary 17691/6-1692 obec: Josefov (Jaroměř)

not in dictionary 18614/6-1593 obec: Dobrošov (Náchod)

not in dictionary 35451/3-1581 obec: Jindřichův Hradec

not in dictionary 34252/3-1599 obec: Jindřichův Hradec

not in dictionary 52855/3-1616 obec: Jindřichův Hradec

not in dictionary 22836/3-1701 obec: Jindřichův Hradec

not in dictionary 52392/3-1641 obec: Jindřichův Hradec

not in dictionary 53407/3-1639 obec: Jindřichův Hradec

not in dictionary 18301/3-1711 obec: Jindřichův Hradec

not in dictionary 47361/3-1695 obec: Jindřichův Hradec

not in dictionary 53249/3-1681 obec: Jindřichův Hradec

not in dictionary 25515/3-2025 obec: Maříž

not in dictionary 14410/3-4527 obec: Tábor

not in dictionary 47375/3-4528 obec: Tábor

not in dictionary 47376/3-4529 obec: Tábor

not in dictionary 47377/3-4530 obec: Tábor

not in dictionary 53802/1-1720 obec: Lhotka (Praha)

not in dictionary 54285/1-1897 obec: Motol

not in dictionary 41125/1-1900 obec: Radotín

not in dictionary 40847/1-1721 obec: Zličín

not in dictionary 54675/5-4835 obec: Česká Lípa

not in dictionary 54565/5-2783 obec: Česká Lípa

not in dictionary 54569/5-2818 obec: Dubice (Česká Lípa)

not in dictionary 54603/5-3123 obec: Manušice

not in dictionary 54577/5-2875 obec: Dobranov

not in dictionary 54578/5-2876 obec: Dobranov

not in dictionary 52980/3-2419 obec: Písek (město)

not in dictionary 35131/3-2430 obec: Písek (město)

not in dictionary 25808/4-4169 obec: Cheb

not in dictionary 53021/4-7 obec: Františkovy Lázně

not in dictionary 53220/4-10 obec: Horní Lomany

not in dictionary 52912/4-8 obec: Horní Lomany

not in dictionary 15916/5-496 obec: Kadaň

not in dictionary 25171/5-488 obec: Kadaň

not in dictionary 43760/5-734 obec: Kadaň

not in dictionary 46479/5-617 obec: Kadaň

not in dictionary 23056/4-2919 obec: Horažďovice

not in dictionary 44214/4-3212 obec: Otín (Klatovy)

not in dictionary 52483/4-3354 obec: Sušice

not in dictionary 52675/4-3367 obec: Sušice

not in dictionary 53660/4-3364 obec: Sušice

not in dictionary 53697/4-3365 obec: Sušice

not in dictionary 18425/4-3347 obec: Sušice

not in dictionary 53114/4-3351 obec: Sušice

not in dictionary 54200/4-3366 obec: Sušice

not in dictionary 52898/4-3372 obec: Sušice

not in dictionary 11628/4-3371 obec: Sušice

not in dictionary 54497/5-1916 obec: Litoměřice

not in dictionary 47090/5-1822 obec: Litoměřice

not in dictionary 14180/5-1824 obec: Litoměřice

not in dictionary 13527/5-5431 obec: Pokratice

not in dictionary 36944/8-1573 obec: Fulnek

not in dictionary 16662/8-1569 obec: Fulnek

not in dictionary 54125/8-2309 obec: Příbor (okres Nový Jičín)

not in dictionary 20993/8-2112 obec: Kotouč (Štramberk)

not in dictionary 45524/8-2110 obec: Kotouč (Štramberk)

not in dictionary 38208/8-2111 obec: Kotouč (Štramberk)

not in dictionary 15960/7-5836 obec: Prostějov

not in dictionary 16209/7-5840 obec: Prostějov

not in dictionary 54848/9-6 obec: Hranice (okres Přerov)

not in dictionary 53861/8-393 obec: Čekyně

not in dictionary 53354/4-2422 obec: Rokycany

not in dictionary 52524/4-2415 obec: Rokycany

not in dictionary 53654/4-2416 obec: Rokycany

not in dictionary 53261/4-2417 obec: Rokycany

not in dictionary 53187/4-2428 obec: Rokycany

not in dictionary 14131/6-3177 obec: Moravská Třebová

not in dictionary 53059/6-2954 obec: Svitavy

not in dictionary 53793/6-2930 obec: Svitavy

not in dictionary 11647/6-2941 obec: Svitavy

not in dictionary 53226/6-2940 obec: Svitavy

not in dictionary 44937/6-2932 obec: Svitavy

not in dictionary 31454/6-3478 obec: Dvůr Králové nad Labem

not in dictionary 52548/6-3414 obec: Horní Předměstí (Trutnov)

not in dictionary 53775/6-3417 obec: Dolní Staré Město

not in dictionary 25042/6-3416 obec: Horní Staré Město

not in dictionary 52731/6-3415 obec: Horní Staré Město

not in dictionary 52856/6-5108 obec: Poříčí (Trutnov)

not in dictionary 53667/6-5134 obec: Starý Rokytník

not in dictionary 52698/6-3422 obec: Volanov

not in dictionary 26712/6-4231 obec: Litomyšl

not in dictionary 27179/6-3120 obec: Litomyšl

not in dictionary 20860/6-3122 obec: Litomyšl

not in dictionary 54270/1-1451 obec: Bubeneč

not in dictionary 54271/1-1452 obec: Bubeneč

not in dictionary 54068/1-1464 obec: Bubeneč

not in dictionary 54069/1-1465 obec: Dejvice

not in dictionary 54272/1-1587 obec: Karlín

not in dictionary 53783/1-1381 obec: Smíchov

not in dictionary 53813/1-1908 obec: Smíchov

not in dictionary 53815/1-1908 obec: Smíchov

not in dictionary 53816/1-1909 obec: Smíchov

not in dictionary 11630/2-684 obec: Kladno

not in dictionary 36510/2-4050 obec: Kladno

not in dictionary 52962/2-475 obec: Vrapice

not in dictionary 10589/ obec: Ostrava

not in dictionary 53866/8-2386 obec: Ostrava

not in dictionary 32734/8-2751 obec: Ostrava

not in dictionary 19199/3-303 obec: Nové Hrady

not in dictionary 31112/3-324 obec: Údolí (Nové Hrady)

not in dictionary 37977/3-325 obec: Údolí (Nové Hrady)

not in dictionary 40007/3-201 obec: Koloděje nad Lužnicí

not in dictionary 52845/8-763 obec: Lázně Darkov

not in dictionary 54600/5-3093 obec: Lindava

not in dictionary 34439/6-913 obec: Luže

not in dictionary 54601/5-3116 obec: Lvová

not in dictionary 24205/7-3310 obec: Uherský Brod

not in dictionary 25091/7-3305 obec: Uherský Brod

not in dictionary 29525/7-3366 obec: Maršov (Uherský Brod)

not in dictionary 21490/7-3367 obec: Maršov (Uherský Brod)

not in dictionary 18049/7-3359 obec: Kunovice

not in dictionary 44988/7-1380 obec: Mikulov

not in dictionary 19321/4-2013 obec: Domažlice

not in dictionary 38009/4-4019 obec: Horšovský Týn

not in dictionary 15446/4-2375 obec: Horšovský Týn

not in dictionary 33720/4-4170 obec: Horšovský Týn

not in dictionary 37091/4-4170 obec: Horšovský Týn

not in dictionary 48667/7-7983 obec: Brno

not in dictionary 48695/7-8047 obec: Brno

not in dictionary 48668/7-7984 obec: Brno

not in dictionary 48606/7-7922 obec: Brno

not in dictionary 48563/7-7879 obec: Brno

not in dictionary 48687/7-8039 obec: Brno

not in dictionary 48634/7-7950 obec: Brno

not in dictionary 48644/7-7960 obec: Brno

not in dictionary 48528/7-7844 obec: Brno

not in dictionary 48531/7-7847 obec: Brno

not in dictionary 10612/7-8616 obec: Brno-Líšeň

not in dictionary 48663/7-7979 obec: Brno

not in dictionary 48665/7-7981 obec: Brno

not in dictionary 10612/7-8616 obec: Brno

not in dictionary 48366/7-7682 obec: Brno

not in dictionary 48361/7-7677 obec: Brno

not in dictionary 100225 obec: Vysočany

not in dictionary 54049/1-1630 obec: Vysočany

not in dictionary 54048/1-1544 obec: Troja

not in dictionary 53782/1-1354 obec: Hlubočepy

not in dictionary 54045/1-1625 obec: Libeň

not in dictionary 52211/1-2169 obec: Libeň

not in dictionary 54043/1-1364 obec: Jinonice

not in dictionary 54070/1-1641 obec: Hloubětín

not in dictionary 53801/1-1717 obec: Hloubětín

not in dictionary 44123/1-1522 obec: Střešovice

not in dictionary 41198/1-1949 obec: Ruzyně

not in dictionary 54636/5-3626 obec: Česká Kamenice

not in dictionary 17308/5-3617 obec: Horní Kamenice (Česká Kamenice)

not in dictionary 54652/5-4099 obec: Děčín

not in dictionary 54678/5-4846 obec: Nové Město (Děčín)

not in dictionary 53478/5-4085 obec: Staré Město (Děčín)

not in dictionary 53630/5-4087 obec: Podmokly (Děčín)

not in dictionary 54640/5-3789 obec: Krásný Studenec

not in dictionary 52650/5-3605 obec: Březiny (Děčín)

not in dictionary 54614/5-3262 obec: Sloup v Čechách

not in dictionary 89320/37-130201 obec: Lomnice (okres Brno-venkov)

not in dictionary 89321/37-130199 obec: Lomnice (okres Brno-venkov)

not in dictionary 19691/7-959 obec: Rosice (okres Brno-venkov)

not in dictionary 54175/2-2855 obec: Louňovice pod Blaníkem

not in dictionary 29724/2-1776 obec: Bojetice

not in dictionary 39225/2-3879 obec: Tupadly (okres Mělník)

not in dictionary 53395/2-112 obec: Martinice (Votice)

not in dictionary 35472/3-5274 obec: Hluboká nad Vltavou

not in dictionary 47343/1-1953 obec: Veleslavín

not in dictionary 22562/3-600 obec: Holašovice

not in dictionary 54185/5-4842 obec: Varnsdorf

not in dictionary 52559/5-4964 obec: Varnsdorf

not in dictionary 52859/5-4028 obec: Varnsdorf

not in dictionary 54098/5-4039 obec: Varnsdorf

not in dictionary 54646/5-3967 obec: Studánka (Varnsdorf)

not in dictionary 45864/3-5294 obec: Kamenný Újezd (okres České Budějovice)

not in dictionary 22860/3-5585 obec: Kosov (Kamenný Újezd)

not in dictionary 25786/3-5610 obec: Velechvín

not in dictionary 28902/3-143 obec: Horní Stropnice

not in dictionary 34356/3-135 obec: Bedřichov (Horní Stropnice)

not in dictionary 22745/3-438 obec: Svébohy

not in dictionary 45564/3-442 obec: Svébohy

not in dictionary 54322/5-385 obec: Starý Most

not in dictionary 54319/5-381 obec: Starý Most

not in dictionary 54318/5-380 obec: Starý Most

not in dictionary 54321/5-384 obec: Starý Most

not in dictionary 54320/5-382 obec: Starý Most

not in dictionary 54351/5-424 obec: Starý Most

not in dictionary 54350/5-423 obec: Starý Most

not in dictionary 54349/5-422 obec: Starý Most

not in dictionary 54353/5-426 obec: Starý Most

not in dictionary 54031/5-403 obec: Starý Most

not in dictionary 53967/5-5010 obec: Starý Most

not in dictionary 53886/5-5011 obec: Starý Most

not in dictionary 54335/5-408 obec: Starý Most

not in dictionary 54334/5-407 obec: Starý Most

not in dictionary 54333/5-402 obec: Starý Most

not in dictionary 54336/5-409 obec: Starý Most

not in dictionary 54337/5-410 obec: Starý Most

not in dictionary 54352/5-425 obec: Starý Most

not in dictionary 54633/5-3549 obec: Starý Most

not in dictionary 54332/5-395 obec: Starý Most

not in dictionary 54338/5-411 obec: Starý Most

not in dictionary 54323/5-386 obec: Starý Most

not in dictionary 54331/5-394 obec: Starý Most

not in dictionary 54324/5-387 obec: Starý Most

not in dictionary 54341/5-414 obec: Starý Most

not in dictionary 54327/5-390 obec: Starý Most

not in dictionary 54328/5-391 obec: Starý Most

not in dictionary 54340/5-413 obec: Starý Most

not in dictionary 54339/5-412 obec: Starý Most

not in dictionary 54325/5-388 obec: Starý Most

not in dictionary 54326/5-389 obec: Starý Most

not in dictionary 54342/5-415 obec: Starý Most

not in dictionary 54343/5-416 obec: Starý Most

not in dictionary 54344/5-417 obec: Starý Most

not in dictionary 54345/5-418 obec: Starý Most

not in dictionary 54346/5-419 obec: Starý Most

not in dictionary 54329/5-392 obec: Starý Most

not in dictionary 54347/5-420 obec: Starý Most

not in dictionary 54348/5-421 obec: Starý Most

not in dictionary 54330/5-393 obec: Starý Most

not in dictionary 54354/5-427 obec: Starý Most

not in dictionary 54355/5-428 obec: Starý Most

not in dictionary 54314/5-350 obec: Starý Most

not in dictionary 54312/5-348 obec:  Kopisty

not in dictionary 54313/5-349 obec:  Kopisty

not in dictionary 54310/5-346 obec:  Kopisty

not in dictionary 54311/5-347 obec:  Kopisty

not in dictionary 54681/5-4874 obec:  Kopisty

not in dictionary 54682/5-4874 obec:  Kopisty

not in dictionary 54683/5-4874 obec:  Kopisty

not in dictionary 54684/5-4874 obec:  Kopisty

not in dictionary 54685/5-4874 obec:  Kopisty

not in dictionary 54686/5-4874 obec:  Kopisty

not in dictionary 37070/7-4492 obec: Ubušín

not in dictionary 28734/7-4494 obec: Ubušín

not in dictionary 41413/7-4495 obec: Ubušín

not in dictionary 22316/7-4496 obec: Ubušín

not in dictionary 30266/6-5187 obec: Přelouč

not in dictionary 42335/5-270 obec: Zubrnice

not in dictionary 28419/3-5985 obec: Záboří (okres České Budějovice)

not in dictionary 36217/3-5569 obec: Lipanovice

not in dictionary 53586/6-4163 obec: Žamberk

not in dictionary 54627/5-3340 obec: Tuhaň (okres Česká Lípa)

not in dictionary 37944/8-2062 obec: Bílovec

not in dictionary 28605/7-2300 obec: Kyjov

not in dictionary 32644/7-2245 obec: Hrubá Vrbka

not in dictionary 36123/7-2246 obec: Hrubá Vrbka

not in dictionary 19599/7-2247 obec: Hrubá Vrbka

not in dictionary 22146/7-2248 obec: Hrubá Vrbka

not in dictionary 25495/7-2249 obec: Hrubá Vrbka

not in dictionary 22532/7-2250 obec: Hrubá Vrbka

not in dictionary 25853/7-2251 obec: Hrubá Vrbka

not in dictionary 18128/7-2252 obec: Hrubá Vrbka

not in dictionary 30501/7-2253 obec: Hrubá Vrbka

not in dictionary 25218/7-2254 obec: Hrubá Vrbka

not in dictionary 12396/7-8466 obec: Hrubá Vrbka

not in dictionary 32071/7-2256 obec: Hrubá Vrbka

not in dictionary 33242/7-2259 obec: Hrubá Vrbka

not in dictionary 38429/7-2260 obec: Hrubá Vrbka

not in dictionary 42023/7-2261 obec: Hrubá Vrbka

not in dictionary 53264/7-3924 obec: Vyškov

not in dictionary 12349/7-8506 obec: Slavkov u Brna

not in dictionary 48846/7-8245 obec: Miroslav (okres Znojmo)

not in dictionary 53668/7-2857 obec: Moravské Budějovice

not in dictionary 40322/8-1679 obec: Starý Jičín

not in dictionary 27760/4-1086 obec: Teplá

not in dictionary 33303/4-739 obec: Bohuslav (Teplá)

not in dictionary 18446/7-2047 obec: Polichno

not in dictionary 36690/7-8060 obec: Brumov (Brumov-Bylnice)

not in dictionary 35000/3-1757 obec: Blato (Nová Bystřice)

not in dictionary 15905/3-1860 obec: Dešná (okres Jindřichův Hradec)

not in dictionary 44652/3-1865 obec: Dešná (okres Jindřichův Hradec)

not in dictionary 17385/3-1874 obec: Plačovice

not in dictionary 18900/7-3979 obec: Bystřice nad Pernštejnem

not in dictionary 14144/7-4357 obec: Vítochov

not in dictionary 42564/5-2715 obec: Osek (okres Teplice)

not in dictionary 47685/5-3544 obec: Libkovice

not in dictionary 47686/5-3545 obec: Libkovice

not in dictionary 47687/5-3546 obec: Libkovice

not in dictionary 84966/36-4883 obec: Metličany

not in dictionary 32935/4-1181 obec: Číhaná (Úněšov)

not in dictionary 53153/8-2356 obec: Dolní Sklenov

not in dictionary 16032/5-651 obec: Vernéřov (Klášterec nad Ohří)

not in dictionary 41514/5-510 obec: Jirkov

not in dictionary 42278/4-3239 obec: Plánice

not in dictionary 48262/7-7577 obec: Město Brno

not in dictionary 47935/7-7248 obec: Město Brno

not in dictionary 48005/7-7318 obec: Město Brno

not in dictionary 45910/7-134 obec: Staré Brno

not in dictionary 48153/7-7467 obec: Staré Brno

not in dictionary 48705/7-8057 obec: Staré Brno

not in dictionary 48698/7-8050 obec: Staré Brno

not in dictionary 48703/7-8055 obec: Štýřice

not in dictionary 48702/7-8054 obec: Štýřice

not in dictionary 48074/7-7388 obec: Veveří (část Brna)

not in dictionary 103148 obec: Stránice

not in dictionary 48581/7-7897 obec: Zábrdovice

not in dictionary 41655/3-5568 obec: Lékařova Lhota

not in dictionary 32748/3-751 obec:  České Budějovice 1
  
not in dictionary 27972/6-2544 obec: Horní Branná

not in dictionary 25084/5-3874 obec: Rumburk

not in dictionary 54113/3-4180 obec: Křtětice

not in dictionary 11900/6-5537 obec: Rudník

not in dictionary 30287/7-6142 obec: Rymice

not in dictionary 12921/8-4010 obec: Havířov

not in dictionary 53101/8-796 obec: Havířov

not in dictionary 29509/4-484 obec: Šlovice (Dobřany)

not in dictionary 48792/7-8191 obec: Jaroslavice

not in dictionary 27787/7-6411 obec: Jevišovice

not in dictionary 49003/7-8413 obec: Slup

not in dictionary 28666/3-3849 obec: Vitějovice

not in dictionary 44850/3-5065 obec: Stará Vožice

not in dictionary 22428/3-4936 obec: Chocov

not in dictionary 86979/4-1328 obec: Mariánský Týnec

not in dictionary 22016/3-1201 obec: Klení

not in dictionary 41741/3-1263 obec: Horní Planá

not in dictionary 47523/3-5843 obec: Rozpoutí

not in dictionary 22204/3-1332 obec: Novosedly (Kájov)

not in dictionary 36474/4-1766 obec: Chodský Újezd

not in dictionary 45811/4-1818 obec: Nahý Újezdec

not in dictionary 23729/6-2309 obec: Kostelec nad Orlicí

not in dictionary 87649/6-2332 obec: Liberk

not in dictionary 11432/ obec: Křivice (Týniště nad Orlicí)

not in dictionary 46042/3-5980 obec: Dobřejovice (Hosín)

not in dictionary 15393/4-2842 obec: Dlouhá Ves (okres Klatovy)

not in dictionary 15266/4-2860 obec: Dolany (okres Klatovy)

not in dictionary 47043/4-3056 obec: Kokšín

not in dictionary 15341/3-4357 obec: Sedlice (okres Strakonice)

not in dictionary 15007/3-2714 obec: Březí (Kovářov)

not in dictionary 29237/3-6175 obec: Čestice (okres Strakonice)

not in dictionary 12641/4-4869 obec: Kraslice (okres Sokolov)

not in dictionary 23042/4-196 obec: Plzeň

not in dictionary 54062/4-4566 obec: Plzeň

not in dictionary 19101/4-4422 obec: Plzeň

not in dictionary 23042/4-196 obec: Plzeň

not in dictionary 54062/4-4566 obec: Plzeň

not in dictionary 19101/4-4422 obec: Plzeň

not in dictionary 33352/4-193 obec: Plzeň

not in dictionary 33352/4-193 obec: Plzeň

not in dictionary 16095/4-3989 obec: Křimice

not in dictionary 11258/8-3933 obec: Ostrava

not in dictionary 10590/8-3924 obec: Ostrava

not in dictionary 40796/7-6633 obec: Olbramovice (okres Znojmo)

not in dictionary 36545/7-4307 obec: Nové Veselí

not in dictionary 32130/7-4123 obec: Kadov (okres Žďár nad Sázavou)

not in dictionary 25572/7-4128 obec: Kadov (okres Žďár nad Sázavou)

not in dictionary 31214/7-4130 obec: Kadov (okres Žďár nad Sázavou)

not in dictionary 38096/7-4042 obec: Český Herálec

not in dictionary 46819/7-4049 obec: Český Herálec

not in dictionary 32464/7-4050 obec: Český Herálec

not in dictionary 17693/7-4060 obec: Kocanda (Herálec)

not in dictionary 42750/5-2317 obec: Strachaly

not in dictionary 21058/3-5278 obec: Žimutice

not in dictionary 28293/3-372 obec: Pořežany

not in dictionary 28190/3-620 obec: Božejov (Žár)

not in dictionary 39968/3-5283 obec: Všemyslice

not in dictionary 21630/3-5272 obec: Všemyslice

not in dictionary 37780/3-449 obec: Vitín

not in dictionary 34843/3-238 obec: Litoradlice

not in dictionary 31155/3-253 obec: Keblany

not in dictionary 39070/3-258 obec: Mohuřice

not in dictionary 24155/7-2617 obec: Dešov

not in dictionary 45229/3-3023 obec: Hořepník

not in dictionary 19952/3-3163 obec: Nová Cerekev

not in dictionary 27006/3-3380 obec: Žirovnice

not in dictionary 23054/7-3292 obec: Drslavice (okres Uherské Hradiště)

not in dictionary 35019/7-3295 obec: Drslavice (okres Uherské Hradiště)

not in dictionary 46030/7-3293 obec: Drslavice (okres Uherské Hradiště)

not in dictionary 14022/7-3300 obec: Drslavice (okres Uherské Hradiště)

not in dictionary 45283/7-3301 obec: Drslavice (okres Uherské Hradiště)

not in dictionary 26648/7-3302 obec: Drslavice (okres Uherské Hradiště)

not in dictionary 23500/7-3298 obec: Drslavice (okres Uherské Hradiště)

not in dictionary 22830/7-3297 obec: Drslavice (okres Uherské Hradiště)

not in dictionary 29524/7-3296 obec: Drslavice (okres Uherské Hradiště)

not in dictionary 45218/7-3437 obec: Strání

not in dictionary 12271/7-8453 obec: Zvonovice

not in dictionary 89389/37-4805 obec: Konice (Znojmo)

not in dictionary 28375/6-2979 obec: Banín

not in dictionary 32834/6-2998 obec: Borová (okres Svitavy)

not in dictionary 28530/6-3362 obec: Telecí

not in dictionary 31731/6-2107 obec: Komárov (Dolní Roveň)

not in dictionary 17608/6-2080 obec: Choltice

not in dictionary 52557/5-543 obec: Kalek

not in dictionary 20926/5-579 obec: Místo

not in dictionary 14229/5-656 obec: Místo

not in dictionary 47138/5-481 obec: Blahuňov

not in dictionary 33704/2-1043 obec: Kutná Hora

not in dictionary 28417/2-1043 obec: Kutná Hora

not in dictionary 53726/2-1062 obec: Kutná Hora

not in dictionary 34355/2-3305 obec: Kutná Hora

not in dictionary 16542/5-4020 obec: Valkeřice

not in dictionary 34557/3-432 obec: Sedlce

not in dictionary 53421/4-770 obec: Boží Dar

not in dictionary 45343/4-1139 obec: Zbraslav (Štědrá)

not in dictionary 18745/4-823 obec: Hroznětín

not in dictionary 23088/4-471 obec: Starý Plzenec

not in dictionary 22645/4-472 obec: Starý Plzenec

not in dictionary 47529/3-5850 obec: Stupná (Křemže)

not in dictionary 34380/3-2090 obec: Písečné (okres Jindřichův Hradec)

not in dictionary 26631/8-2249 obec: Olomouc

not in dictionary 50116/8-1712 obec: Olomouc

not in dictionary 10570/8-3124 obec: Olomouc

not in dictionary 45510/8-3001 obec: Opava

not in dictionary 52892/4-1211 obec: Hedčany (Kožlany)

not in dictionary 52510/4-1212 obec: Hedčany (Kožlany)

not in dictionary 53741/1-411 obec: Staré Město (Praha)

not in dictionary 45696/8-2233 obec: Olomouc

not in dictionary 53833/4-3154 obec: Nalžovy

not in dictionary 13959/7-2281 obec: Kněždub

not in dictionary 86961/37-41908 obec: Janův Dvůr

not in dictionary 36486/4-2250 obec: Újezd (okres Domažlice)

not in dictionary 33676/7-2662 obec: Chlum (okres Třebíč)

not in dictionary 53055/7-2818 obec: Krhov (okres Třebíč)

not in dictionary 21951/7-2974 obec: Police (okres Třebíč)

not in dictionary 28355/7-2987 obec: Přeckov

not in dictionary 28328/7-3013 obec: Radotice

not in dictionary 37804/7-3014 obec: Radotice

not in dictionary 37108/7-3016 obec: Radotice

not in dictionary 46070/7-3033 obec: Rokytnice nad Rokytnou

not in dictionary 27227/7-3034 obec: Rokytnice nad Rokytnou

not in dictionary 18098/7-3079 obec: Štěměchy

not in dictionary 100554 obec: Dlouhá Třebová

not in dictionary 10191/6-5811 obec: Horní Heřmanice (okres Ústí nad Orlicí)

not in dictionary 12644/6-6035 obec: Horní Třešňovec

not in dictionary 54073/1-1811 obec: Nové Město (Praha)

not in dictionary 54046/1-1067 obec: Nové Město (Praha)

not in dictionary 53769/1-1066 obec: Nové Město (Praha)

not in dictionary 54266/1-1187 obec: Nové Město (Praha)

not in dictionary 36013/5-4462 obec: Svijany

not in dictionary 41967/3-4230 obec: Mečichov

not in dictionary 23857/3-4231 obec: Mečichov

not in dictionary 47288/3-4232 obec: Mečichov

not in dictionary 33109/3-4233 obec: Mečichov

not in dictionary 23996/3-4234 obec: Mečichov

not in dictionary 23380/3-4270 obec: Nestanice

not in dictionary 41684/3-4498 obec: Závišín (Bělčice)

not in dictionary 36034/7-6843 obec: Tulešice

distance higher than 100 m Q913185 distance 0.405121187633
distance higher than 100 m Q38137199 distance 0.110253040201
distance higher than 100 m Q31145399 distance 1.13622374986
distance higher than 100 m Q38044527 distance 0.532342111217
distance higher than 100 m Q37853316 distance 195.348687259
distance higher than 100 m Q38046869 distance 0.188636777423
distance higher than 100 m Q36867293 distance 3.7798480811
distance higher than 100 m Q1353687 distance 0.115259599123
distance higher than 100 m Q12056648 distance 0.175307283301
distance higher than 100 m Q12054420 distance 4.93339288008
distance higher than 100 m Q12020562 distance 0.189168658224
distance higher than 100 m Q11170594 distance 0.13447747998
distance higher than 100 m Q30087103 distance 0.31334888208
distance higher than 100 m Q12030860 distance 0.122561719932
distance higher than 100 m Q15613871 distance 42.4446741522
distance higher than 100 m Q37302445 distance 24.5382200348
distance higher than 100 m Q21176332 distance 2.45440296698
distance higher than 100 m Q31447133 distance 0.85622288543
distance higher than 100 m Q38050948 distance 0.303269309116
distance higher than 100 m Q1014274 distance 0.524192606293
distance higher than 100 m Q695042 distance 1.63481395705
distance higher than 100 m Q31207883 distance 7.28939877546
distance higher than 100 m Q38095333 distance 0.643688572627
distance higher than 100 m Q12017905 distance 0.11550602684
distance higher than 100 m Q11450977 distance 0.717632689033
distance higher than 100 m Q28661255 distance 0.174203282267
distance higher than 100 m Q28741082 distance 0.311537234623
distance higher than 100 m Q1011905 distance 0.150892348081
distance higher than 100 m Q28736108 distance 35.4202574262
distance higher than 100 m Q1272650 distance 0.144930047492
distance higher than 100 m Q2293469 distance 0.439838225327
distance higher than 100 m Q37451545 distance 0.152904562115
distance higher than 100 m Q38139354 distance 27.9612644888
distance higher than 100 m Q12038432 distance 0.181119856248
distance higher than 100 m Q12030985 distance 2.13074269296
distance higher than 100 m Q12019284 distance 0.122153763719
distance higher than 100 m Q12042815 distance 0.151252712206
distance higher than 100 m Q38135133 distance 36.3127415261
distance higher than 100 m Q23656803 distance 0.72284775294
distance higher than 100 m Q24352602 distance 0.524271133439
distance higher than 100 m Q1951478 distance 0.130100794472
distance higher than 100 m Q37338977 distance 0.344033685339
distance higher than 100 m Q37466224 distance 0.641902203389
distance higher than 100 m Q37466267 distance 0.613180500021
distance higher than 100 m Q31208638 distance 0.674854415343
distance higher than 100 m Q21716061 distance 0.791931681569
distance higher than 100 m Q37150684 distance 0.209471038704
distance higher than 100 m Q26159295 distance 0.274429663357
distance higher than 100 m Q27659551 distance 0.261075739344
distance higher than 100 m Q12050580 distance 1.880116705
distance higher than 100 m Q37181523 distance 15.8861889523
distance higher than 100 m Q12024705 distance 0.345516264111
distance higher than 100 m Q31508960 distance 0.35982664087
distance higher than 100 m Q20428157 distance 0.173755298492
distance higher than 100 m Q12020831 distance 0.241998376349
distance higher than 100 m Q38234938 distance 0.11505969133
distance higher than 100 m Q37423095 distance 2.29280521416
distance higher than 100 m Q37022277 distance 1.17854281026
distance higher than 100 m Q1014360 distance 0.116888783037
distance higher than 100 m Q37026593 distance 0.63333291832
distance higher than 100 m Q37026962 distance 0.352497058271
distance higher than 100 m Q37011505 distance 0.928401855376
distance higher than 100 m Q36867211 distance 1.82435942048
distance higher than 100 m Q36867183 distance 2.04856577222
distance higher than 100 m Q36998417 distance 1.03238324149
distance higher than 100 m Q37177327 distance 0.246610860422
distance higher than 100 m Q37177350 distance 0.20962344143
distance higher than 100 m Q37422944 distance 0.546727130102
distance higher than 100 m Q37447497 distance 1.49935287698
distance higher than 100 m Q37447441 distance 1.5423388517
distance higher than 100 m Q37821027 distance 2.17170505717
distance higher than 100 m Q37306601 distance 0.662287367224
distance higher than 100 m Q37306578 distance 0.416336648949
distance higher than 100 m Q37821814 distance 0.122895920221
distance higher than 100 m Q37990451 distance 0.599111037284
distance higher than 100 m Q38047911 distance 3.71383491707
distance higher than 100 m Q38049631 distance 1.05000757942
distance higher than 100 m Q38092940 distance 1.190256045
distance higher than 100 m Q38096231 distance 2.37671381662
distance higher than 100 m Q38135806 distance 0.730868914611
distance higher than 100 m Q31146554 distance 0.117125927463
distance higher than 100 m Q31146543 distance 0.369403076473
distance higher than 100 m Q38193743 distance 0.340090124288
distance higher than 100 m Q38229249 distance 0.1289771357
distance higher than 100 m Q38228141 distance 0.853529811209
distance higher than 100 m Q31208389 distance 0.899576172447
distance higher than 100 m Q38036511 distance 0.411701889526
distance higher than 100 m Q38147951 distance 0.140212569656
distance higher than 100 m Q37271147 distance 0.474240038481
distance higher than 100 m Q19601829 distance 0.521094937195
distance higher than 100 m Q38486207 distance 0.184070800955
distance higher than 100 m Q28152342 distance 0.52746338178
distance higher than 100 m Q31207506 distance 0.125207242484
distance higher than 100 m Q31212557 distance 0.579364609697
distance higher than 100 m Q37025778 distance 0.25222371475
distance higher than 100 m Q37448773 distance 0.148731687956
distance higher than 100 m Q37336287 distance 0.518034913783
distance higher than 100 m Q30861431 distance 0.880387323538
distance higher than 100 m Q15703363 distance 0.13870243075
distance higher than 100 m Q31208034 distance 0.124098205349
distance higher than 100 m Q37029247 distance 0.207750227539
distance higher than 100 m Q38233269 distance 0.109648859228
distance higher than 100 m Q38038345 distance 0.5712954074
distance higher than 100 m Q18642619 distance 0.120409399013
distance higher than 100 m Q38093173 distance 0.795449303655
distance higher than 100 m Q38046513 distance 0.185010529145
distance higher than 100 m Q31737142 distance 0.464205554162
distance higher than 100 m Q31737177 distance 0.549682581404
distance higher than 100 m Q31953255 distance 0.695622461037
distance higher than 100 m Q1943317 distance 0.878635004536
distance higher than 100 m Q31464389 distance 0.780391085471
distance higher than 100 m Q31212593 distance 0.638944759704
distance higher than 100 m Q37015110 distance 0.119281443788
distance higher than 100 m Q12057695 distance 0.106970994792
distance higher than 100 m Q31208660 distance 1.86825355585
distance higher than 100 m Q37423673 distance 0.208512654004
distance higher than 100 m Q2083646 distance 36.6008818807
distance higher than 100 m Q11863216 distance 0.182192778241
distance higher than 100 m Q31208628 distance 0.307540247529
distance higher than 100 m Q37006412 distance 0.295809431845
distance higher than 100 m Q37006380 distance 1.13261358805
distance higher than 100 m Q37010960 distance 0.310421051384
distance higher than 100 m Q37179413 distance 0.411042911548
distance higher than 100 m Q36858032 distance 1.00046162416
distance higher than 100 m Q36864466 distance 0.13934619216
distance higher than 100 m Q30770141 distance 1.17185753184
distance higher than 100 m Q37172375 distance 0.277467192042
distance higher than 100 m Q37273711 distance 0.225765823027
distance higher than 100 m Q37274172 distance 0.133575351838
distance higher than 100 m Q37291043 distance 0.29886340843
distance higher than 100 m Q37029154 distance 0.484887942258
distance higher than 100 m Q37304271 distance 0.188945742248
distance higher than 100 m Q38091520 distance 0.244944374256
distance higher than 100 m Q37306233 distance 0.491518752302
distance higher than 100 m Q37343480 distance 0.256217488717
distance higher than 100 m Q37343457 distance 0.339421199983
distance higher than 100 m Q30856946 distance 0.891432608642
distance higher than 100 m Q38045712 distance 0.828184927379
distance higher than 100 m Q37451409 distance 0.172686626023
distance higher than 100 m Q37818456 distance 0.445110567768
distance higher than 100 m Q37268251 distance 4.81638226093
distance higher than 100 m Q38135473 distance 23.8388363168
distance higher than 100 m Q31431923 distance 24.0444242567
distance higher than 100 m Q31208742 distance 0.852280537003
distance higher than 100 m Q38042812 distance 0.425945302095
distance higher than 100 m Q38042832 distance 0.347471953717
distance higher than 100 m Q31449196 distance 0.32260792598
distance higher than 100 m Q38045323 distance 0.172232992037
distance higher than 100 m Q1074373 distance 1.49815545489
distance higher than 100 m Q31955657 distance 0.38271718702
distance higher than 100 m Q31448603 distance 0.443067922716
distance higher than 100 m Q11086332 distance 0.300426620349
distance higher than 100 m Q38188639 distance 0.27621945923
distance higher than 100 m Q38186113 distance 0.465833376678
distance higher than 100 m Q38197873 distance 0.203077057041
distance higher than 100 m Q38197879 distance 0.110181265244
distance higher than 100 m Q38227416 distance 1.00123114534
distance higher than 100 m Q19760530 distance 0.808611389554
distance higher than 100 m Q38138244 distance 0.674528762527
distance higher than 100 m Q12032324 distance 0.116677962677
distance higher than 100 m Q38044802 distance 0.310635483525
distance higher than 100 m Q38096238 distance 0.463403241338
distance higher than 100 m Q38136003 distance 0.273156280844
distance higher than 100 m Q38233443 distance 0.584506290575
distance higher than 100 m Q1014222 distance 0.356431085647
distance higher than 100 m Q37174270 distance 0.107392647796
distance higher than 100 m Q12030414 distance 2.39165064182
attribute err Q37342121
distance higher than 100 m Q31448788 distance 0.636244887011
distance higher than 100 m Q31431913 distance 0.512697441427
distance higher than 100 m Q12039513 distance 0.256586316452
distance higher than 100 m Q20428075 distance 0.172461875371
distance higher than 100 m Q30765830 distance 0.253009730806
distance higher than 100 m Q1534293 distance 7.5266310743
distance higher than 100 m Q12030607 distance 3.71058043417
distance higher than 100 m Q37457157 distance 0.106825874632
distance higher than 100 m Q37457182 distance 0.330423153684
distance higher than 100 m Q802798 distance 2.53534157814
distance higher than 100 m Q37818216 distance 0.265047669884
distance higher than 100 m Q27150250 distance 0.569327934462
distance higher than 100 m Q12030500 distance 0.342754105999
distance higher than 100 m Q37296235 distance 0.379047711906
distance higher than 100 m Q37821676 distance 1.41682897749
distance higher than 100 m Q20755327 distance 2.29767148361
distance higher than 100 m Q31144977 distance 0.135762228456
distance higher than 100 m Q31467112 distance 21.5679655855
distance higher than 100 m Q1013151 distance 0.191486431939
distance higher than 100 m Q37342218 distance 0.111815005161
distance higher than 100 m Q37342162 distance 0.380633054656
distance higher than 100 m Q37342259 distance 0.426079132104
distance higher than 100 m Q38229601 distance 0.682359639936
distance higher than 100 m Q474310 distance 0.249574112584
distance higher than 100 m Q12042816 distance 0.366953276199
distance higher than 100 m Q770940 distance 0.103050679417
distance higher than 100 m Q10292072 distance 1.16022310692
distance higher than 100 m Q10861651 distance 0.1236083185
distance higher than 100 m Q12042817 distance 0.54821261132
distance higher than 100 m Q38049555 distance 0.238489720064
distance higher than 100 m Q38490205 distance 1.84536788314
distance higher than 100 m Q1384201 distance 0.120160754171
distance higher than 100 m Q338691 distance 23.5499159365
distance higher than 100 m Q12056190 distance 0.307515377273
distance higher than 100 m Q38045436 distance 174.800764322
distance higher than 100 m Q1012308 distance 0.100244919281
distance higher than 100 m Q31212548 distance 0.173685631655
distance higher than 100 m Q37990197 distance 0.353157395545
distance higher than 100 m Q12031279 distance 0.466568252151
distance higher than 100 m Q12020674 distance 0.467409575991
distance higher than 100 m Q37422193 distance 0.241186300127
distance higher than 100 m Q30124847 distance 0.428528183571
distance higher than 100 m Q12049625 distance 0.119716309186
distance higher than 100 m Q12030967 distance 0.15584391159
distance higher than 100 m Q12020590 distance 0.224625531458
distance higher than 100 m Q30160594 distance 0.13660514167
distance higher than 100 m Q31463304 distance 0.756539278353
distance higher than 100 m Q31208067 distance 0.175371936255
distance higher than 100 m Q22694871 distance 0.199517556797
distance higher than 100 m Q38235059 distance 0.144390081195
distance higher than 100 m Q38193665 distance 0.129113611972
distance higher than 100 m Q11863138 distance 0.122551779976
distance higher than 100 m Q13433945 distance 0.101498893641
distance higher than 100 m Q18761838 distance 0.185442239564
distance higher than 100 m Q38488993 distance 0.408196983304
distance higher than 100 m Q38186805 distance 0.111855920268
distance higher than 100 m Q29950783 distance 0.138062945684
distance higher than 100 m Q36854486 distance 1.06326994317
distance higher than 100 m Q28758311 distance 0.288129627068
distance higher than 100 m Q37271676 distance 2.68597935132
distance higher than 100 m Q31783735 distance 2.55668960033
distance higher than 100 m Q31144962 distance 1.32360026629
distance higher than 100 m Q31148411 distance 0.131783078754
distance higher than 100 m Q30868741 distance 0.305029071886
distance higher than 100 m Q37426640 distance 98.9289473719
distance higher than 100 m Q37268273 distance 1.13013119009
distance higher than 100 m Q30857683 distance 1.19725277161
distance higher than 100 m Q30895092 distance 78.1244710156
distance higher than 100 m Q31846235 distance 0.258061209337
distance higher than 100 m Q31846222 distance 0.347966249572
distance higher than 100 m Q31846197 distance 0.331628153872
distance higher than 100 m Q38091117 distance 1.3120678277
distance higher than 100 m Q30868487 distance 0.681748769527
distance higher than 100 m Q31149328 distance 0.331955691985
distance higher than 100 m Q36867978 distance 0.726895321263
distance higher than 100 m Q36867960 distance 0.728347408946
distance higher than 100 m Q1012713 distance 0.125662922764
distance higher than 100 m Q10291524 distance 0.257671857079
distance higher than 100 m Q27634394 distance 0.132984700743
distance higher than 100 m Q37271703 distance 0.119691548085
distance higher than 100 m Q38094832 distance 0.290122923004
distance higher than 100 m Q37816666 distance 1.23097980913
distance higher than 100 m Q37816673 distance 1.19811707234
distance higher than 100 m Q750137 distance 0.267434129825
distance higher than 100 m Q1734234 distance 37.0460812306
distance higher than 100 m Q37273835 distance 0.12628274877
distance higher than 100 m Q38188793 distance 0.280371131435
distance higher than 100 m Q38096453 distance 2.02779713094
distance higher than 100 m Q38047751 distance 0.143119755872
distance higher than 100 m Q38186394 distance 2.02901843535
distance higher than 100 m Q38228642 distance 0.813893125903
distance higher than 100 m Q38228653 distance 0.836747702935
distance higher than 100 m Q38044713 distance 0.706697154128
distance higher than 100 m Q31432120 distance 0.817976521145
distance higher than 100 m Q30171287 distance 1.49980444139
distance higher than 100 m Q30171287 distance 1.49980444139
distance higher than 100 m Q30171287 distance 1.49980444139
distance higher than 100 m Q12030344 distance 11.5376091821
distance higher than 100 m Q33422799 distance 0.150457066252
distance higher than 100 m Q37273262 distance 2.42824423624
distance higher than 100 m Q21708030 distance 0.144978538097
distance higher than 100 m Q21693744 distance 0.270990716708
distance higher than 100 m Q38047303 distance 17.8405564731
distance higher than 100 m Q12049785 distance 0.28908017047
distance higher than 100 m Q11730782 distance 0.103169600825
distance higher than 100 m Q11871326 distance 0.289568881477
distance higher than 100 m Q37283565 distance 0.111025023163
distance higher than 100 m Q20182087 distance 0.165230553821
distance higher than 100 m Q36862731 distance 0.141969504928
distance higher than 100 m Q38036186 distance 11.0883577953
distance higher than 100 m Q37446534 distance 0.769488473839
distance higher than 100 m Q28064721 distance 0.144629005519
distance higher than 100 m Q38044883 distance 0.264611251475
distance higher than 100 m Q38047363 distance 1.44906031608
distance higher than 100 m Q38050562 distance 0.482874193751
distance higher than 100 m Q28060230 distance 0.572172837962
distance higher than 100 m Q31784488 distance 0.253922509043
distance higher than 100 m Q37293416 distance 0.511407371935
distance higher than 100 m Q37318952 distance 0.1192145013
distance higher than 100 m Q30903535 distance 0.143330786828
distance higher than 100 m Q38228493 distance 0.154956086579
distance higher than 100 m Q31957626 distance 0.110314171537
distance higher than 100 m Q37272206 distance 0.138441827138
distance higher than 100 m Q21150709 distance 0.265317113129
distance higher than 100 m Q31471226 distance 0.121634623347
distance higher than 100 m Q38232038 distance 0.335563461982
distance higher than 100 m Q31687712 distance 0.115572156375
distance higher than 100 m Q31747441 distance 0.279660911231
distance higher than 100 m Q30785527 distance 0.238034901326
distance higher than 100 m Q37282488 distance 0.245732407642
distance higher than 100 m Q21874589 distance 0.128506576157
distance higher than 100 m Q20057412 distance 3.49155953813
distance higher than 100 m Q12043817 distance 0.321942797579
distance higher than 100 m Q37424986 distance 0.195555553155
distance higher than 100 m Q12029882 distance 0.110920400903
distance higher than 100 m Q31706543 distance 1.00235094209
distance higher than 100 m Q31707986 distance 1.01437559603
distance higher than 100 m Q31706983 distance 0.164846470282
distance higher than 100 m Q31707041 distance 0.137659048681
distance higher than 100 m Q31707100 distance 0.119106118457
distance higher than 100 m Q23015269 distance 0.44799427545
distance higher than 100 m Q37425007 distance 0.398191559899
distance higher than 100 m Q31707492 distance 0.116135623006
distance higher than 100 m Q30134741 distance 0.735765134817
distance higher than 100 m Q24459609 distance 0.3155476744
distance higher than 100 m Q36863863 distance 0.477242297168
distance higher than 100 m Q31497215 distance 0.12634843662
distance higher than 100 m Q31497079 distance 0.125182882408
distance higher than 100 m Q31497369 distance 0.134680170135
distance higher than 100 m Q36863839 distance 0.107007756932
distance higher than 100 m Q36863589 distance 0.165592244967
distance higher than 100 m Q36863892 distance 0.543085029469
distance higher than 100 m Q36863656 distance 0.520141284599
distance higher than 100 m Q31495132 distance 0.325227638231
distance higher than 100 m Q31494964 distance 0.1108969341
distance higher than 100 m Q31494865 distance 0.160171258093
distance higher than 100 m Q31826852 distance 0.362537660793
distance higher than 100 m Q37805745 distance 88.5054738619
distance higher than 100 m Q31744964 distance 0.117241271144
distance higher than 100 m Q37805661 distance 0.408784621525
distance higher than 100 m Q11998527 distance 0.164004000277
distance higher than 100 m Q31744477 distance 0.208727265238
distance higher than 100 m Q37805722 distance 0.179216899433
distance higher than 100 m Q37805915 distance 0.105051271583
distance higher than 100 m Q37806221 distance 0.167310437882
distance higher than 100 m Q37806266 distance 0.116276040811
distance higher than 100 m Q37806033 distance 0.263341537984
distance higher than 100 m Q38232962 distance 0.148468542397
distance higher than 100 m Q38232649 distance 0.170419407943
distance higher than 100 m Q38232657 distance 1.10156054568
distance higher than 100 m Q38232663 distance 0.155472718136
distance higher than 100 m Q38232680 distance 0.183791346305
distance higher than 100 m Q31206326 distance 0.102100329759
distance higher than 100 m Q31206324 distance 0.226532036739
distance higher than 100 m Q31206315 distance 0.125795642013
distance higher than 100 m Q31206311 distance 0.137161141598
distance higher than 100 m Q31206299 distance 0.153054234693
distance higher than 100 m Q31206286 distance 0.111182888496
distance higher than 100 m Q37821249 distance 0.235014220665
distance higher than 100 m Q37821280 distance 0.10020463373
distance higher than 100 m Q31206291 distance 0.115363149727
distance higher than 100 m Q31206285 distance 0.125035107438
distance higher than 100 m Q31206301 distance 0.191712919155
distance higher than 100 m Q37821242 distance 0.163203853986
distance higher than 100 m Q37821274 distance 0.207335963226
distance higher than 100 m Q37304540 distance 0.181380995465
distance higher than 100 m Q31982193 distance 0.109811777607
distance higher than 100 m Q31982545 distance 0.142215257242
distance higher than 100 m Q31982591 distance 0.180612219029
distance higher than 100 m Q37334421 distance 0.119248483654
distance higher than 100 m Q26932985 distance 1.33769647747
distance higher than 100 m Q38233328 distance 0.132212583867
distance higher than 100 m Q38233341 distance 0.143263206768
distance higher than 100 m Q38233348 distance 5.35076332861
distance higher than 100 m Q20755273 distance 0.53006381836
distance higher than 100 m Q1749860 distance 0.139656014618
distance higher than 100 m Q31207067 distance 1.24716467773
distance higher than 100 m Q6277558 distance 0.330809502469
distance higher than 100 m Q31207276 distance 0.679977098171
distance higher than 100 m Q20851183 distance 0.532884376954
distance higher than 100 m Q12042817 distance 0.54821261132
distance higher than 100 m Q3069397 distance 1.86878853953
distance higher than 100 m Q12049623 distance 0.281154928515
distance higher than 100 m Q42797322 distance 0.373109570354
distance higher than 100 m Q38045923 distance 0.145965002457
distance higher than 100 m Q38094548 distance 0.264640208697
distance higher than 100 m Q12037681 distance 0.202275978665
distance higher than 100 m Q37820758 distance 0.70499924727
distance higher than 100 m Q37820781 distance 0.76801681005
distance higher than 100 m Q38089317 distance 0.509563557424
distance higher than 100 m Q37028617 distance 0.183147220025
distance higher than 100 m Q37169904 distance 2.00264774352
distance higher than 100 m Q11812561 distance 5.66280138623
distance higher than 100 m Q31843617 distance 1.36504855955
distance higher than 100 m Q37268787 distance 0.128910277814
distance higher than 100 m Q29856758 distance 0.505895383653
distance higher than 100 m Q38234282 distance 0.167225758583
distance higher than 100 m Q31479557 distance 0.142653488377
distance higher than 100 m Q31477804 distance 0.447369777281
distance higher than 100 m Q38234270 distance 0.483304027534
distance higher than 100 m Q38234255 distance 0.254783735863
distance higher than 100 m Q38234264 distance 0.491295120579
distance higher than 100 m Q15926154 distance 1.55836281155
distance higher than 100 m Q12054728 distance 0.118432431418
distance higher than 100 m Q38045472 distance 0.571550185751
distance higher than 100 m Q38490192 distance 0.314067675538
distance higher than 100 m Q38091800 distance 0.19641513276
distance higher than 100 m Q38093474 distance 0.414323344865
distance higher than 100 m Q38093440 distance 0.361627678179
distance higher than 100 m Q38093423 distance 0.807559459587
distance higher than 100 m Q37007992 distance 0.504403715153
distance higher than 100 m Q31828740 distance 0.116566678721
distance higher than 100 m Q31828834 distance 0.27986617307
distance higher than 100 m Q31828870 distance 0.108848873952
distance higher than 100 m Q38049702 distance 0.207405652927
distance higher than 100 m Q37266398 distance 8.96473386438
distance higher than 100 m Q30857763 distance 1.9075727982
distance higher than 100 m Q7458134 distance 0.116636004486
distance higher than 100 m Q12040558 distance 0.51141089324
distance higher than 100 m Q1389717 distance 0.21580129782
distance higher than 100 m Q12040558 distance 0.51141089324
distance higher than 100 m Q12019992 distance 0.419076315929
distance higher than 100 m Q12040558 distance 0.51141089324
distance higher than 100 m Q19971845 distance 0.578265095478
distance higher than 100 m Q193369 distance 0.466808752159
distance higher than 100 m Q38387744 distance 0.216345643491
distance higher than 100 m Q38387744 distance 0.216345643491
distance higher than 100 m Q31825140 distance 0.262971491243
distance higher than 100 m Q31825152 distance 0.281277890605
distance higher than 100 m Q31825170 distance 0.295109674298
distance higher than 100 m Q37290771 distance 0.2314545533
distance higher than 100 m Q24045117 distance 0.127784711931
distance higher than 100 m Q12040558 distance 0.51141089324
distance higher than 100 m Q17115638 distance 1.66181635599
distance higher than 100 m Q12040558 distance 0.51141089324
distance higher than 100 m Q38097033 distance 0.265176600322
distance higher than 100 m Q38097002 distance 0.94744301976
distance higher than 100 m Q38097044 distance 1.53540738598
distance higher than 100 m Q38353938 distance 0.150036753779
distance higher than 100 m Q38353938 distance 0.150036753779
distance higher than 100 m Q38097030 distance 0.217295748761
distance higher than 100 m Q549551 distance 0.639008959004
distance higher than 100 m Q38096964 distance 0.373402048723
distance higher than 100 m Q38096971 distance 0.354418352818
distance higher than 100 m Q38096985 distance 0.103962101887
distance higher than 100 m Q3069397 distance 1.86878853953
distance higher than 100 m Q127697 distance 1.81830448681
distance higher than 100 m Q2661974 distance 0.331875984397
distance higher than 100 m Q2661974 distance 0.331875984397
distance higher than 100 m Q932942 distance 0.293346583574
distance higher than 100 m Q12041555 distance 0.346638051006
distance higher than 100 m Q38486234 distance 0.116296415558
distance higher than 100 m Q31863044 distance 0.14113803521
distance higher than 100 m Q31863067 distance 0.132252344409
distance higher than 100 m Q31863111 distance 0.325185648618
distance higher than 100 m Q24877350 distance 0.123716477784
distance higher than 100 m Q31863165 distance 0.660750379184
distance higher than 100 m Q31862988 distance 0.51419210723
distance higher than 100 m Q36860157 distance 0.577634383721
distance higher than 100 m Q30896920 distance 0.544128929106
distance higher than 100 m Q23776832 distance 0.227366274028
distance higher than 100 m Q30721272 distance 0.115098812848
distance higher than 100 m Q29398688 distance 0.103856669539
distance higher than 100 m Q31854556 distance 0.211172526522
distance higher than 100 m Q16741369 distance 0.306580385744
distance higher than 100 m Q37179034 distance 0.150791625628
distance higher than 100 m Q30791342 distance 12.9572512968
distance higher than 100 m Q15208351 distance 1.80315598099
distance higher than 100 m Q38039736 distance 0.205043523493
distance higher than 100 m Q38094530 distance 0.406002102567
distance higher than 100 m Q15735267 distance 0.186976474407
distance higher than 100 m Q12030880 distance 3.57357585987
distance higher than 100 m Q26252885 distance 0.108784486973
distance higher than 100 m Q12042268 distance 0.129689447317
distance higher than 100 m Q37303430 distance 0.790932463011
distance higher than 100 m Q37432398 distance 0.882298678538
distance higher than 100 m Q37432645 distance 0.130145934334
distance higher than 100 m Q11773788 distance 0.118927292366
distance higher than 100 m Q19825741 distance 1.11585720344
distance higher than 100 m Q921344 distance 0.15434862478
distance higher than 100 m Q12327288 distance 0.201442767597
distance higher than 100 m Q37021008 distance 0.125901814954
distance higher than 100 m Q20755468 distance 0.981295003354
distance higher than 100 m Q37019684 distance 0.140406176501
distance higher than 100 m Q37019750 distance 0.281537254747
distance higher than 100 m Q37020141 distance 142.46282728
distance higher than 100 m Q37019870 distance 0.13882640434
distance higher than 100 m Q37019654 distance 0.123380153091
distance higher than 100 m Q37020106 distance 142.44852278
distance higher than 100 m Q37020045 distance 0.129713168235
distance higher than 100 m Q37020086 distance 0.144187959705
distance higher than 100 m Q37020124 distance 142.426522792
distance higher than 100 m Q37020789 distance 0.234530044863
distance higher than 100 m Q37020768 distance 0.249599962335
distance higher than 100 m Q37020880 distance 0.103892232536
distance higher than 100 m Q37425477 distance 1.29587437118
distance higher than 100 m Q37425461 distance 0.488712910647
distance higher than 100 m Q616334 distance 0.178377820793
distance higher than 100 m Q3935927 distance 2.4118355488
distance higher than 100 m Q12030948 distance 4.07510170783
distance higher than 100 m Q1570165 distance 0.106460376311
distance higher than 100 m Q3069397 distance 1.86878853953
distance higher than 100 m Q4110469 distance 0.499400004978
distance higher than 100 m Q38486639 distance 0.461018715379
distance higher than 100 m Q37324824 distance 0.715497370697
distance higher than 100 m Q11449045 distance 0.26269712607
distance higher than 100 m Q28151747 distance 0.406963465912
distance higher than 100 m Q38491967 distance 0.37204325446
distance higher than 100 m Q1014757 distance 1.06687960666
distance higher than 100 m Q37169420 distance 29.8191444232
distance higher than 100 m Q15273613 distance 0.12115162296
distance higher than 100 m Q30715034 distance 0.22498954455
distance higher than 100 m Q30714966 distance 0.261611142395
distance higher than 100 m Q30714890 distance 0.343677580682
distance higher than 100 m Q31846036 distance 0.179003084699
distance higher than 100 m Q10291955 distance 13.1909434319
distance higher than 100 m Q1171063 distance 0.129262291614
distance higher than 100 m Q37427176 distance 0.242758057809
distance higher than 100 m Q37813106 distance 26.5908021044
distance higher than 100 m Q31204162 distance 0.256068726814
distance higher than 100 m Q31453623 distance 0.114431508597
distance higher than 100 m Q31453443 distance 1.17972477288
distance higher than 100 m Q1014747 distance 0.661075771506
distance higher than 100 m Q20755277 distance 0.355680612797
distance higher than 100 m Q30726698 distance 0.629738004379
distance higher than 100 m Q38188850 distance 0.327991034043
distance higher than 100 m Q12039419 distance 0.321623319683
distance higher than 100 m Q12326652 distance 0.380723200193
distance higher than 100 m Q12039021 distance 0.160056421522
distance higher than 100 m Q31445651 distance 0.104145627326
distance higher than 100 m Q31207897 distance 0.101170088045
distance higher than 100 m Q38036279 distance 0.122988269274
distance higher than 100 m Q18534447 distance 39.581955988
distance higher than 100 m Q12029506 distance 0.350229209347
distance higher than 100 m Q31865236 distance 0.107461169787
distance higher than 100 m Q37006213 distance 0.156957547995
distance higher than 100 m Q31432480 distance 0.625327880398
distance higher than 100 m Q31704732 distance 0.464626545767
distance higher than 100 m Q31431821 distance 1.03538320707
distance higher than 100 m Q31431695 distance 0.285606045523
distance higher than 100 m Q31431719 distance 0.152921848726
distance higher than 100 m Q31431722 distance 0.194753879035
distance higher than 100 m Q31431716 distance 0.203867131707
distance higher than 100 m Q31206432 distance 0.848275479519
distance higher than 100 m Q12032265 distance 8.44967464901
distance higher than 100 m Q30724229 distance 0.177311690527
distance higher than 100 m Q33239322 distance 76.0475872778
distance higher than 100 m Q36857188 distance 0.159200392282
distance higher than 100 m Q18918908 distance 18.8801029334
distance higher than 100 m Q853424 distance 0.107773797908
distance higher than 100 m Q8079842 distance 0.133852412401
distance higher than 100 m Q1935013 distance 1.48100805447
distance higher than 100 m Q37853013 distance 0.228858822049
distance higher than 100 m Q23072043 distance 8.8023134647
distance higher than 100 m Q37339270 distance 15.1056522556
distance higher than 100 m Q37852860 distance 1.68210445017
distance higher than 100 m Q12032354 distance 0.457169911604
distance higher than 100 m Q37852896 distance 0.108026483757
distance higher than 100 m Q2390814 distance 0.150547003019
distance higher than 100 m Q37029096 distance 1.64693240478
distance higher than 100 m Q30730024 distance 0.187594986095
distance higher than 100 m Q38230953 distance 0.232010461948
distance higher than 100 m Q21384144 distance 0.203815806055
distance higher than 100 m Q12046031 distance 0.305002757784
distance higher than 100 m Q12041164 distance 0.867138393045
distance higher than 100 m Q37011987 distance 1.7845306436
distance higher than 100 m Q27554313 distance 0.110258985565
distance higher than 100 m Q37812570 distance 0.471233764315
distance higher than 100 m Q20755325 distance 0.246279548992
distance higher than 100 m Q12017836 distance 2.041373056
distance higher than 100 m Q334085 distance 1.3014612093
distance higher than 100 m Q20755467 distance 0.563102233902
distance higher than 100 m Q38035821 distance 0.142950872615
distance higher than 100 m Q30721991 distance 0.347189537027
distance higher than 100 m Q37342769 distance 0.350931146986
distance higher than 100 m Q31490086 distance 0.73599241907
distance higher than 100 m Q31489999 distance 0.296718829034
distance higher than 100 m Q20755370 distance 0.133745098473
distance higher than 100 m Q30724704 distance 0.314386149623
distance higher than 100 m Q27020527 distance 0.222591517903
distance higher than 100 m Q38093151 distance 0.874180608523
distance higher than 100 m Q30857348 distance 0.330423834419
distance higher than 100 m Q30857426 distance 0.400658351792
distance higher than 100 m Q38192662 distance 295.695484128
distance higher than 100 m Q37169082 distance 0.440542314925
distance higher than 100 m Q37282866 distance 0.166214317541
distance higher than 100 m Q37174781 distance 2.13683118185
distance higher than 100 m Q1982165 distance 0.116715919683
distance higher than 100 m Q38193055 distance 0.385179384924
distance higher than 100 m Q38193049 distance 0.384151743743
distance higher than 100 m Q31476624 distance 1.08035672472
distance higher than 100 m Q15735167 distance 0.399754006395
distance higher than 100 m Q18564623 distance 0.363471391025
distance higher than 100 m Q18523925 distance 0.153301618369
distance higher than 100 m Q1012520 distance 0.157409463937
distance higher than 100 m Q38190796 distance 0.358991395841
distance higher than 100 m Q37176374 distance 0.221391132398
distance higher than 100 m Q17486791 distance 0.142269228542
distance higher than 100 m Q12024644 distance 0.106308476291
distance higher than 100 m Q37322137 distance 0.348351160163
distance higher than 100 m Q11088399 distance 0.314387024166
distance higher than 100 m Q36857035 distance 16.0366659102
distance higher than 100 m Q36856902 distance 11.9137331565
distance higher than 100 m Q3489864 distance 0.549852900049
distance higher than 100 m Q31206403 distance 178.685545326
distance higher than 100 m Q31858646 distance 0.257784064698
distance higher than 100 m Q31147679 distance 2.14661286117
distance higher than 100 m Q31147658 distance 15.1998680275
distance higher than 100 m Q37820224 distance 0.330693132795
distance higher than 100 m Q19818138 distance 0.113002746351
distance higher than 100 m Q27049448 distance 0.3598726048
distance higher than 100 m Q38234104 distance 0.114785802437
distance higher than 100 m Q37273191 distance 4.55188522571
distance higher than 100 m Q20033809 distance 6.99585978825
distance higher than 100 m Q38045156 distance 0.148843719825
distance higher than 100 m Q12019709 distance 0.615938084542
distance higher than 100 m Q3890120 distance 0.848666296136
distance higher than 100 m Q37288549 distance 0.157887110711
distance higher than 100 m Q20755171 distance 0.147099897938
distance higher than 100 m Q31712231 distance 0.141882500747
distance higher than 100 m Q28920931 distance 0.694069683721
distance higher than 100 m Q38134691 distance 0.105065180679
distance higher than 100 m Q20755421 distance 0.315101986638
distance higher than 100 m Q31207969 distance 0.157642383332
distance higher than 100 m Q37009136 distance 0.119987373081
distance higher than 100 m Q12055297 distance 0.240711692689
distance higher than 100 m Q37008271 distance 0.209675434566
distance higher than 100 m Q14435168 distance 0.204342551491
distance higher than 100 m Q38135887 distance 0.381977946328
distance higher than 100 m Q38135851 distance 0.260580102195
distance higher than 100 m Q31466775 distance 0.470879168869
distance higher than 100 m Q33250300 distance 711.087563689
distance higher than 100 m Q12049784 distance 0.280492112487
distance higher than 100 m Q1433751 distance 1.6438236207
distance higher than 100 m Q36865477 distance 0.10569359601
distance higher than 100 m Q20428077 distance 0.185125287164
distance higher than 100 m Q12039121 distance 0.252432985214
distance higher than 100 m Q37025081 distance 0.171492912435
distance higher than 100 m Q38092242 distance 0.232077244758
distance higher than 100 m Q38090704 distance 0.117023434796
distance higher than 100 m Q37423959 distance 0.15739927451
distance higher than 100 m Q12027832 distance 0.142792285377
distance higher than 100 m Q30730826 distance 2.30222611548
distance higher than 100 m Q38047391 distance 0.227027718522
distance higher than 100 m Q12016587 distance 0.220294647053
distance higher than 100 m Q12016587 distance 0.220294647053
distance higher than 100 m Q1577660 distance 0.254647709202
distance higher than 100 m Q38039820 distance 0.613082841878
distance higher than 100 m Q37819971 distance 0.137285047922
distance higher than 100 m Q14806857 distance 205.302695712
distance higher than 100 m Q11831861 distance 0.114151953992
distance higher than 100 m Q37010042 distance 0.218274160289
distance higher than 100 m Q37819390 distance 1.20787705875
distance higher than 100 m Q19376301 distance 0.131012363652
distance higher than 100 m Q37820305 distance 1.89858472821
distance higher than 100 m Q31702421 distance 0.608551716077
distance higher than 100 m Q38048304 distance 0.125829428114
distance higher than 100 m Q38229400 distance 0.289373796392
distance higher than 100 m Q31203698 distance 36.257168335
distance higher than 100 m Q37818338 distance 2.39037864237
distance higher than 100 m Q20755466 distance 0.158008386325
distance higher than 100 m Q37284646 distance 0.923248916692
distance higher than 100 m Q38047123 distance 1.23979757469
distance higher than 100 m Q1776361 distance 0.125358711469
distance higher than 100 m Q31702359 distance 1.04131620041
distance higher than 100 m Q31170881 distance 0.131337782948
distance higher than 100 m Q20755468 distance 0.981295003354
distance higher than 100 m Q31519591 distance 0.322561117207
distance higher than 100 m Q38197586 distance 0.524659834439
distance higher than 100 m Q20058097 distance 1.02342249957
distance higher than 100 m Q2025010 distance 0.385949203421
distance higher than 100 m Q30726475 distance 0.167192791291
distance higher than 100 m Q38190808 distance 1.47866647859
distance higher than 100 m Q2003357 distance 0.148615871277
distance higher than 100 m Q37448746 distance 0.358276312153
distance higher than 100 m Q913185 distance 0.405121187633
distance higher than 100 m Q11731172 distance 0.112478249586
distance higher than 100 m Q37013942 distance 0.476137934778
distance higher than 100 m Q38228048 distance 0.192766831554
distance higher than 100 m Q38228055 distance 0.425074144259
distance higher than 100 m Q37424425 distance 3.47311086641
distance higher than 100 m Q27664958 distance 0.127031859356
distance higher than 100 m Q20755271 distance 0.62280845763
distance higher than 100 m Q11086025 distance 0.179665897137
distance higher than 100 m Q427604 distance 0.424825380865
distance higher than 100 m Q37818112 distance 0.18140673478
distance higher than 100 m Q37817946 distance 0.194833684401
distance higher than 100 m Q37818167 distance 0.125469857029
distance higher than 100 m Q31835977 distance 0.162047646221
distance higher than 100 m Q38035916 distance 1.59569533265
distance higher than 100 m Q38040120 distance 0.143340271342
distance higher than 100 m Q20428048 distance 0.131130129544
distance higher than 100 m Q10815806 distance 0.296065824515
distance higher than 100 m Q38093113 distance 1.08753561042
distance higher than 100 m Q37421420 distance 1.63319807465
distance higher than 100 m Q36861291 distance 0.46233660777
distance higher than 100 m Q36861629 distance 0.514865373419
distance higher than 100 m Q36861777 distance 0.846266670519
distance higher than 100 m Q36861674 distance 0.197366972179
distance higher than 100 m Q36861232 distance 0.13868502535
distance higher than 100 m Q20755282 distance 0.23728695739
distance higher than 100 m Q36862071 distance 1.44005135169
distance higher than 100 m Q36861576 distance 0.210182569143
distance higher than 100 m Q36861724 distance 0.16272918143
distance higher than 100 m Q11863314 distance 0.302572152039
distance higher than 100 m Q38137199 distance 0.110253040201
distance higher than 100 m Q38036820 distance 0.273611447831
distance higher than 100 m Q31832333 distance 0.659902080504
distance higher than 100 m Q38036685 distance 0.410818333063
distance higher than 100 m Q1514053 distance 0.136426532387
distance higher than 100 m Q38036693 distance 0.288741346784
distance higher than 100 m Q38036636 distance 0.228520269409
distance higher than 100 m Q38036678 distance 0.51039634037
distance higher than 100 m Q12030736 distance 0.116174323278
distance higher than 100 m Q38036641 distance 0.36146368743
distance higher than 100 m Q38036771 distance 0.307043590794
distance higher than 100 m Q38036776 distance 0.176716007354
distance higher than 100 m Q38036791 distance 1.9411405966
distance higher than 100 m Q38036799 distance 0.366586235461
distance higher than 100 m Q31852991 distance 0.140970369172
distance higher than 100 m Q934275 distance 0.578509415732
distance higher than 100 m Q30790174 distance 195.405234544
distance higher than 100 m Q12046894 distance 0.131371042823
distance higher than 100 m Q31882231 distance 0.606855820847
distance higher than 100 m Q30857064 distance 0.203637300606
distance higher than 100 m Q17138702 distance 1.38642474506
distance higher than 100 m Q33426623 distance 0.367794009472
distance higher than 100 m Q37175748 distance 0.114837124278
distance higher than 100 m Q17132243 distance 0.184665563327
distance higher than 100 m Q38142311 distance 0.525948791721
distance higher than 100 m Q38142301 distance 0.791026611428
distance higher than 100 m Q38142327 distance 0.516392601559
distance higher than 100 m Q38233291 distance 0.548929133826
distance higher than 100 m Q38233310 distance 0.103107736156
distance higher than 100 m Q37323132 distance 0.202929672049
distance higher than 100 m Q37323171 distance 0.484159871318
distance higher than 100 m Q37323416 distance 1.21872424364
distance higher than 100 m Q31830873 distance 0.587133545777
distance higher than 100 m Q38036852 distance 0.208860654834
distance higher than 100 m Q21704585 distance 0.227925138743
distance higher than 100 m Q1453777 distance 0.152826834112
distance higher than 100 m Q12054833 distance 0.122221601231
distance higher than 100 m Q23822663 distance 0.244663918702
distance higher than 100 m Q37011392 distance 0.310596874133
distance higher than 100 m Q37011420 distance 1.44688836812
distance higher than 100 m Q36864175 distance 0.732975580029
distance higher than 100 m Q31207835 distance 0.976495700803
distance higher than 100 m Q31148942 distance 1.50911153323
distance higher than 100 m Q31148930 distance 0.361814795727
distance higher than 100 m Q31148920 distance 1.57496434577
distance higher than 100 m Q38044783 distance 1.46482226054
distance higher than 100 m Q38044758 distance 1.11281066593
distance higher than 100 m Q38044770 distance 1.36776107218
distance higher than 100 m Q12020577 distance 0.137504568029
distance higher than 100 m Q38096644 distance 1.76675661091
distance higher than 100 m Q38141228 distance 0.848183589782
distance higher than 100 m Q38035451 distance 0.10859574035
distance higher than 100 m Q38035479 distance 0.29343276477
distance higher than 100 m Q4443275 distance 0.193261228994
distance higher than 100 m Q4456595 distance 0.440734522395
distance higher than 100 m Q30873189 distance 1.07762153776
distance higher than 100 m Q22035520 distance 1.43075031759
distance higher than 100 m Q38149861 distance 0.599640427933
