'name_wd';'name_external';'distance';'qid';'external_sochy_a_mesta_id';'wd_sochy_a_mesta_id';'polygon';'wd_instance_qid';'wd_place_name'
'Pomník osvobození';'Památník obětem druhé světové války';'5.257239422756316';'Q37421642';'22166';'';'49';'Q4989906';'Klimkovice'
'Pomník se sochou partyzána';'Pomník Rudoarmějců';'6.383519105936761';'Q38228188';'19718';'';'31';'Q4989906';'Zlín'
'Pomník Jana Amose Komenského';'Pomník J. A. Komenského';'0.7991427244123962';'Q38150985';'20852';'';'31';'Q4989906';'Uherský Brod'
'Koželuh';'Koželuh';'4.538948122531103';'Q98118964';'24866';'';'31';'Q179700';'Zlín'
'Pomník obětem 2. světové války v Kladně, ul. Amálská';'Pomník umučeným v koncentračních táborech';'1.1584966120105633';'Q66565143';'180';'';'56';'Q575759';'Kladno'
'Památník na vlakovém nádraží v Berouně';'Barevná vitráž v čelní stěně nádraží';'7.9434447089545035';'Q94440978';'680';'';'56';'Q5003624';'Beroun'
'Pomník bojovníkům za svobodu 1939-1945 v Berouně';'Pomník bojovníkům za svobodu';'0.5846610537786322';'Q66565798';'8389';'';'56';'Q179700';'Beroun'
'Váňův kámen';'Pomník hornictví';'1.6893275457689825';'Q64177698';'19744';'';'56';'Q22731';'Kladno'
'Socha Žena s dítětem v Lidicích';'Matka s dítětem';'0.5826182376619637';'Q66565207';'21054';'';'56';'Q179700';'Lidice'
'Socha Žena s růží v Lidicích';'Lidická žena s růží';'0.9873981581598752';'Q66565204';'21181';'';'56';'Q179700';'Lidice'
'Socha Plačící žena v Lidicích';'Plačící žena';'2.0495224244708523';'Q66565205';'21832';'';'56';'Q179700';'Lidice'
'Plastika Partyzánská Cararra v Lidicích';'Partyzánská Carrara mučednickým Lidicím';'0.24157810573302038';'Q66565214';'23274';'';'56';'Q860861';'Lidice'
'Bronzová plastika Mír v Lidicích';'Mír';'2.063751908165011';'Q66565215';'23275';'';'56';'Q860861';'Lidice'
'Sousoší "Mír" ve fontáně v Lidicích';'Mír';'0.5434185260672169';'Q66565548';'23277';'';'56';'Q179700';'Lidice'
'Kovová plastika "Člověk a vesmír" v Kladně-Kročehlavech';'Človek a vesmír';'0.24162944602011482';'Q66565186';'23357';'';'56';'Q860861';'Kladno'
'Pomník Rudé armádě ve Velké Dobré';'Pomník vojákům Rudé armády';'1.1921721594367087';'Q66565132';'23416';'';'56';'Q4989906';'Velká Dobrá'
'Památník bojovníků proti fašismu v Unhošti';'Památník bojovníků proti fašismu';'1.0631094659395177';'Q66565130';'23417';'';'56';'Q5003624';'Unhošť'
'Památník bojovníků proti fašismu';'Památník bojovníků proti fašismu';'1.0420230689930987';'Q84491302';'23417';'';'56';'Q5003624';''
'Fontána v ulici Václava Rabase';'Sídlištní plastika';'9.091219215292437';'Q56701848';'23428';'';'56';'Q483453';'Kladno'
'Kamenná plastika Ležící žena u polikliniky v Úvalech';'žena s květinou';'0.30920978313747016';'Q94433520';'2253';'';'58';'Q860861';'Úvaly'
'Pomník padlým v Brandýse nad Labem';'Památník obětem fašismu';'1.4455927645011615';'Q94444053';'10830';'';'58';'Q575759';'Brandýs nad Labem-Stará Boleslav'
'Plastika v areálu severně od Masarykova náměstí v Brandýse nad Labem';'Labe';'1.286013175494877';'Q94443282';'10970';'';'58';'Q860861';'Brandýs nad Labem-Stará Boleslav'
'Pomník osvobození v obci Lipany u Vitic';'Památník Rudé armády';'9.1158866671194';'Q66565953';'24668';'';'58';'Q4989906';'Vitice'
'Socha Letecký učeň u střední školy vedle Aera Vodochody';'Letecký učeň';'0.7568110590095183';'Q94447151';'6709';'';'57';'Q179700';'Odolena Voda'
'socha Antonína Zápotockého v Zákolanech';'Antonín Zápotocký';'2.514150597125344';'Q98134495';'8446';'';'57';'Q179700';'Zákolany'
'Sousoší severně od Rudné u dálnice D5';'Pamětní deska k uvedení dálnice D5 do provozu';'4.422552099182264';'Q66567091';'11219';'';'57';'Q179700';'Rudná'
'Památník dálnice D5 severně od Rudné';'Pamětní deska k uvedení dálnice D5 do provozu';'0.959237319170187';'Q66567094';'11219';'';'57';'Q5003624';'Rudná'
'Pamětní deska Bohumila Říhy u Národní ulice v Praze';'Pamětní deska Bohumila Říhy pro budovu Albatrosu';'6.950884102696023';'Q64816026';'13511';'';'57';'Q721747';'Staré Město'
'Alfa';'Alfa';'6.713537521769681';'Q97331612';'13600';'';'57';'Q860861';'Praha'
'Pamětní deska Pravoslava Kotíka na domě Schnirchova 1354/9 v Holešovicích';'Pamětní deska Pravoslava Kotíka';'5.535813261338489';'Q94442194';'13621';'';'57';'Q721747';'Praha'
'Alegorické busty Země a Soumrak na jižním schodišti Trojského zámku';'Mříže do provozního dvora v zámku Troja';'8.876519899180211';'Q64815241';'13633';'';'57';'Q179700';'Praha-Troja'
'Alegorické busty Vzduch a Jitro na jižním schodišti Trojského zámku';'Mříže do provozního dvora v zámku Troja';'6.800263638666974';'Q64814911';'13633';'';'57';'Q179700';'Praha-Troja'
'Alegorické busty Země a Soumrak na jižním schodišti Trojského zámku';'Tři desky z bronzu pro portály vstupů do areálu zámku Troja';'8.876519899180211';'Q64815241';'13638';'';'57';'Q179700';'Praha-Troja'
'Alegorické busty Vzduch a Jitro na jižním schodišti Trojského zámku';'Tři desky z bronzu pro portály vstupů do areálu zámku Troja';'6.800263638666974';'Q64814911';'13638';'';'57';'Q179700';'Praha-Troja'
'Sousoší Paridův soud v zahradě Trojského zámku';'Treláž v zahradním parteru zámku Troja';'9.261446482775902';'Q64815253';'13640';'';'57';'Q179700';'Praha-Troja'
'Kameraman';'Ocelová plastika Kameraman pro sídliště Barrandov';'5.162646498028227';'Q63246651';'13661';'';'57';'Q179700';'Praha'
'Obelisk pohybu';'Nerezová plastika Obelisk pro sídliště Barrandov';'3.998391044639271';'Q63246665';'13662';'';'57';'Q179700';'Praha'
'Socha dívky před nemocnicí Na Homolce';'Mladé děvče pro atrium Státního ústavu národního zdraví v Motole';'6.2293190233463775';'Q64815550';'13679';'';'57';'Q179700';'Motol'
'Plastika Volavky u školy v Brdičkově ulici v Lužinách';'Sousoší Ptáci před ZŠ';'3.532892398119909';'Q94443303';'13693';'';'57';'Q860861';'Praha'
'Socha Rusalka v jezírku v Kovářově ulici ve Stodůlkách';'Žena s květy';'3.617259035267781';'Q94447494';'13699';'';'57';'Q179700';'Praha'
'Umělé jezírko s kaskádou v Kovářově ulici ve Stodůlkách';'Žena s květy';'8.490154254879341';'Q94448713';'13699';'';'57';'Q1746392';'Praha'
'Pohyblivé sochy na Novodvorské v Praze';'Dálky';'4.802487219459394';'Q64816270';'14064';'';'57';'Q179700';'Lhotka'
'Památník běžeckého závodu v Praze Běchovicích v sadu Běžců';'Památník tradičního závodu Běchovice';'5.9028875997790395';'Q64816168';'14091';'';'57';'Q5003624';'Běchovice'
'Sousoší "Setkání u studny" v Praze-Dejvicích';'Sousoší pro Leninovu třídu';'1.5669842528464226';'Q64815948';'14095';'';'57';'Q179700';'Dejvice'
'Památník horolezecké výpravy z Peru v Praze';'Památník horolezců zahynulých v Peru';'6.144876403997135';'Q64816209';'14109';'';'57';'Q5003624';'Strašnice'
'Socha Violoncelista v atriu školy v ulici Na Planině';'Violoncellista';'7.823872322641981';'Q64815576';'14346';'';'57';'Q179700';'Krč'
'Plastika Matka s dítětem v Praze-Vokovicích';'Matka a dítě';'3.6171697917739096';'Q64815969';'14352';'';'57';'Q860861';'Vokovice'
'Socha Sedící žena u veterinární kliniky v Koněvově ulici';'Léto';'6.279945180954009';'Q64815734';'14497';'';'57';'Q179700';'Žižkov'
'plastika před Ústavem teorie informace a automatizace';'Plastika pro Ústav teorie a informací';'8.64091050322211';'Q87450745';'14550';'';'57';'Q860861';'Praha'
'Kamenná plastika Dvě ženy u nákupního centra Přemyšlenská';'Hodiny botaniky';'7.247070320984534';'Q64815878';'14552';'';'57';'Q860861';'Kobylisy'
'Sousoší Rodina mezi domy v Heldově ulici';'Rodina';'3.8265133206297306';'Q64815749';'14564';'';'57';'Q179700';'Malešice'
'Tři';'Fanda, Julie, Milouš';'0.6701694666428913';'Q64815816';'14647';'';'57';'Q2293362';'Vinohrady'
'Plastika ze žuly a skla u hotelu Artemis v Karlíně';'Plastika před hlavní hotelový vstup';'7.502440146693246';'Q64815328';'14719';'';'57';'Q860861';'Karlín'
'Sousoší v Nedvězské ulici v Praze';'Strom života';'5.3535324498032';'Q64816211';'14741';'';'57';'Q179700';'Strašnice'
'Kamenná plastika u knihovny v Rubensově ulici na Skalce';'Rozvíjející se květ';'1.3519348565465177';'Q64815759';'14742';'';'57';'Q860861';'Strašnice'
'Basketbalista';'Basketbalista';'1.217134966043142';'Q64815812';'14824';'';'57';'Q179700';'Vinohrady'
'Socha sedící ženy v parčíku na rohu ulic Točitá a Návršní';'Plastika sedící ženy';'1.7926063509345798';'Q64815577';'14906';'';'57';'Q179700';'Krč'
'Socha Alegorie Míru na náměstí Míru';'Radostný život';'4.700667081337596';'Q64815406';'15222';'';'57';'Q179700';'Vinohrady'
'Kamenná plastika u tržnice SAPA v Písnici';'Plastika před vstup do Masokombinátu v Písnici';'8.835497880647845';'Q94433590';'15259';'';'57';'Q860861';'Praha'
'Pamětní deska Alberta Einsteina na domě Lesnická 1215/7 na Smíchově';'Bronzová busta Alberta Einsteina s pamětní deskou pro dům v Lesnické ul.';'6.034394750414106';'Q94441155';'15278';'';'57';'Q721747';'Praha'
'Plastika Muž s kamenem na sídlišti Petřiny v Praze';'Muž s kamenem';'6.340559279021358';'Q64816085';'15286';'';'57';'Q860861';'Veleslavín'
'Socha Alegorie Mládí v Hnězdenské ulici v Bohnicích';'Mládí';'6.262121624228811';'Q64815466';'15297';'';'57';'Q179700';'Praha-Troja'
'Socha Pelikáni v jezírku v parku u ulice Taussigova';'Pelikáni';'0.6253889712969419';'Q64815877';'15301';'';'57';'Q179700';'Kobylisy'
'Plastika Sluneční hodiny v parku u ulice Chabařovická';'Sluneční hodiny';'5.188094116408037';'Q64815876';'15302';'';'57';'Q860861';'Kobylisy'
'Plastika Mostaři před autobusovým nádražím Florenc v Praze';'Mostaři';'1.4696341847510102';'Q64816286';'15374';'';'57';'Q860861';'Nové Město'
'Socha Budovatel metra u stanice Chodov';'Budovatel pro stanici metra Budovatelů (Chodov)';'9.941597284260565';'Q94444990';'15472';'';'57';'Q179700';'Praha'
'Pomník Pabla Nerudy v parku mezi ulicemi Donátova a Vrchlického';'Pamětní deska a busta Pabla Nerudy ve Vrchlického ul.';'3.45909202064784';'Q64815533';'15500';'';'57';'Q4989906';'Košíře'
'Pískovcová plastika na výstavišti v Holešovicích';'Růst';'4.1155529400829405';'Q94443197';'15527';'';'57';'Q860861';'Praha'
'Socha před poliklinikou v Plaňanské ulici';'Skulptura Oddych před vstupem do polikliniky';'1.7592743159031712';'Q64815752';'15596';'';'57';'Q179700';'Malešice'
'Socha Gymnastka v parku Folimanka';'Gymnastka';'8.162727288235567';'Q64815813';'15681';'';'57';'Q179700';'Vinohrady'
'Plastika Chlapec s vlašťovkou v Praze-Vokovicích';'Clapec s letadlem';'2.8955439710071316';'Q64815967';'15935';'';'57';'Q860861';'Vokovice'
'Socha matky s dětmi před nemocnicí v Motole';'Plastika Mateřství pro nemocnici v Motole';'8.011474882696303';'Q64815553';'16011';'';'57';'Q179700';'Motol'
'Plastika sedící dívky u školy, Praha-Veleslavín';'Sedící dívka';'3.2953944934154684';'Q64816057';'16036';'';'57';'Q860861';'Veleslavín'
'Kamenná plastika Tanec v atriu kulturního centra Novodvorská';'Tanec';'9.682851387848705';'Q94433556';'16585';'';'57';'Q860861';'Praha'
'Kamenná plastika v ulici Kuncova ve Stodůlkách';'Pískovcová kašna pro sídliště Stodůlky';'5.157798086126837';'Q94433631';'16609';'';'57';'Q860861';'Praha'
'Pomník padlým v květnu 1945 u mostu Barikádníků';'Bronzová a mramorová pamětní deska padlým na předmostí mostu Barikádníků';'0.2644862936317665';'Q64815774';'16632';'';'57';'Q575759';'Libeň'
'Fontána u křižovatky Vychovatelna';'Mozaiková dlažba v atriu křižovatky Vychovatelna';'4.112940498648502';'Q88275825';'16641';'';'57';'Q483453';'Praha'
'Fontána u křižovatky Vychovatelna';'Kašna s rostlinným motivem';'6.886705340920435';'Q88275825';'16642';'';'57';'Q483453';'Praha'
'Kovová plastika Křídla mezi ubytovnami Koněvova a Chmelnice';'Křídla';'5.457822011488106';'Q64815735';'16749';'';'57';'Q860861';'Žižkov'
'Plastika ve vnitrobloku ulice Na Rokytce';'Herní prvek';'5.856426027003244';'Q64815324';'16845';'';'57';'Q860861';'Libeň'
'Kovová plastika Ženy ve dvoře nemocnice Bubeneč';'Plastika pro léčebnu dlouhodobě nemocných';'4.5030766474650905';'Q64815713';'16860';'';'57';'Q860861';'Bubeneč'
'Plastika z kamene a kovu u hasičské stanice Chodov';'Geometrické tvary';'0.9050314752400462';'Q94443325';'16972';'';'57';'Q860861';'Praha'
'Kovová plastika na fasádě distribučního centra';'Kovová plastika na fasádě distribučního centra';'5.774407852000072';'Q97592203';'16985';'';'57';'Q860861';'Praha'
'Den, noc a čas';'Sousoší Den a noc';'4.110221061885264';'Q98092168';'16990';'';'57';'Q2293362';'Háje'
'Keramická plastika Klaun u kliniky v Tesaříkově ulici v Hostivaři';'Klaun pro mateřskou školu';'6.603937324840893';'Q94435765';'16996';'';'57';'Q860861';'Praha'
'Socha Muž s kvádrem v Cíglerově ulici na Černém Mostě';'Socha Kameník pro kulturní centrum sídliště Černý Most';'2.799231799787571';'Q64815311';'17021';'';'57';'Q179700';'Černý Most'
'Památník pražských barikádníků u Matematicko-fyzikální fakulty UK';'Barikádníci';'7.680289540445703';'Q64815778';'17031';'';'57';'Q5003624';'Libeň'
'Socha dívky s květinou u galerie Atrium v Čajkovského ulici';'Dva železné vlajkové stožáry před koncertní síní v Čajkovského ulici';'5.887246671527828';'Q64815346';'17173';'';'57';'Q179700';'Žižkov'
'Socha Jaro na rohu ulic V Zahrádkách a Koněvova';'Jaro';'8.00780178283842';'Q64815733';'17179';'';'57';'Q179700';'Žižkov'
'Socha Mládí u školy v ulici Květnového vítězství v Hájích';'Mládí';'2.3033127935952074';'Q94447220';'17182';'';'57';'Q179700';'Praha'
'Sova';'Plastika Sova před základní školou na Jižním Městě';'3.735397051218467';'Q65350395';'17188';'';'57';'Q860861';'Praha'
'Plastika Zeměkoule na Chodově';'Kvetoucí země';'5.679943881852344';'Q64816153';'17194';'';'57';'Q860861';'Chodov'
'Země (Josef Vajce)';'Kvetoucí země';'2.631834612717104';'Q65698237';'17194';'';'57';'Q860861';'Praha'
'Plastika u stanice metra Radlická';'Plastika Vztah přírody a techniky pro atrium stanice metra Radlická';'2.6733634597902327';'Q94443274';'17209';'';'57';'Q860861';'Praha'
'Symbol rozpuku a života';'Výtvarně pojaté vyložení dna fontány před nákupním střediskem Labe';'1.7762690687838054';'Q91072464';'17234';'';'57';'Q179700';'Praha'
'Symbol rozpuku a života';'Symbol rozpuku života';'5.06432194894367';'Q91072464';'17276';'';'57';'Q179700';'Praha'
'Socha Kočka v atriu mezi obchody v Angelovově ulici v Modřanech';'Keramická plastika Pes a kočka před nákupním střediskem na sídlišti v Modřanech';'5.724141916181508';'Q94447132';'17277';'';'57';'Q179700';'Praha'
'Kašna';'Bazének s mělkými mísami a vodotryskem - obchodní centrum sídliště Pankrác I';'2.664077379548368';'Q65640363';'17291';'';'57';'Q483453';'Praha'
'Plastika Ryby v ulici Pujmanové na Pankráci';'Bazének s mělkými mísami a vodotryskem - obchodní centrum sídliště Pankrác I';'0.7573969566792903';'Q64815584';'17291';'';'57';'Q860861';'Krč'
'Socha Schoulená v parku u ulice Frýdlantská';'Schoulená';'1.42950011927459';'Q64815875';'17334';'';'57';'Q179700';'Kobylisy'
'Socha Delfíni v parku v Kropáčkově ulici v Hájích';'Bronzová plastika Delfíni před nákupním střediskem na Jižním městě III.';'5.24062787675259';'Q91896584';'17425';'';'57';'Q179700';'Háje'
'Socha Země na Chodově';'Země';'2.9012133283068207';'Q64816152';'17434';'';'57';'Q179700';'Chodov'
'Kamenná plastika u polikliniky Stodůlky';'Plastika z vračanského vápence v exteriéru zdravotního střediska ve Stodůlkách';'5.054324710826256';'Q94433575';'17454';'';'57';'Q860861';'Praha'
'Vlny života';'Vlna života';'2.6815032550649596';'Q73599355';'17487';'';'57';'Q860861';'Praha'
'plastika na Klapálkově ulici';'Plastika Dynamický růst pro bytové jednotky na sídlišti Košík';'0.8920144780541438';'Q73599572';'17491';'';'57';'Q860861';'Praha'
'Dvojice dívek';'Sousoší dvou dívek pro obchodní centrum';'2.783481374318429';'Q98084727';'18504';'';'57';'Q2293362';'Čimice'
'Sousoší dívek u nákupního centra v Čimicích';'Sousoší dvou dívek pro obchodní centrum';'1.1683351605622834';'Q64815458';'18504';'';'57';'Q179700';'Čimice'
'Fontána v Roudnické ulici, Střížkov';'Fontána s pítkem pro sídliště';'2.4858874320667743';'Q97451423';'18507';'';'57';'Q483453';'Praha'
'Socha dětí s drakem v parku u křižovatky ulic Ďáblická a Vysočanská';'Děti s drakem';'2.1260137843460396';'Q64815873';'18508';'';'57';'Q179700';'Střížkov'
'Strom radosti';'Strom radosti';'4.144723811425264';'Q97451390';'18511';'';'57';'Q860861';'Praha'
'Abstraktní plastika';'Socha před objekt distribuce - OC Severka';'5.734824364585483';'Q64815872';'18522';'';'57';'Q860861';'Kobylisy'
'plastika s hodinami u Florence';'Hodiny před stanicí metra';'2.9542449526503707';'Q64816287';'18532';'';'57';'Q860861';'Karlín'
'Keramická plastika v atriu u obchodu Albert v Molákově ulici';'Keramické plastiky v bazénku pro obchodní středisko na sídlišti Invalidovna';'4.001357387173273';'Q64815327';'18536';'';'57';'Q860861';'Karlín'
'Socha husitského práčete v Karlíně v Praze';'Husitské práče';'1.7018756214891018';'Q64815884';'18540';'';'57';'Q179700';'Karlín'
'Fontána na Sídlišti Ďáblice';'Fontána při obchodním středisku';'1.9039598741046015';'Q86114128';'18545';'';'57';'Q483453';'Praha'
'Kovová plastika Fontána v parku u stanice metra Palmovka';'Kovová kašna';'1.0112534510001274';'Q64815321';'18562';'';'57';'Q860861';'Libeň'
'Socha před Libeňskou Synagogou';'Červený květ';'3.5534250870382844';'Q64816143';'18565';'';'57';'Q179700';'Libeň'
'Socha Anna Proletářka v parku v ulici Jana Želivského';'Anna Proletářka';'4.388038782890499';'Q64815352';'19189';'';'57';'Q179700';'Žižkov'
'Plastika Torzo ženy u prodejny Albert v Koněvově ulici';'Torzo ženy - sídliště Jarov';'0.7827765561222535';'Q64815736';'19442';'';'57';'Q860861';'Žižkov'
'Pomník Boženy Němcové';'Pomník Boženy Němcové';'2.7995805748073925';'Q21704581';'19733';'';'57';'Q4989906';'Nové Město'
'Sousoší severně od Rudné u dálnice D5';'Odpočinek';'2.484524214549314';'Q66567091';'20153';'';'57';'Q179700';'Rudná'
'Památník dálnice D5 severně od Rudné';'Odpočinek';'3.5543823998330075';'Q66567094';'20153';'';'57';'Q5003624';'Rudná'
'Socha ženy s dítětem v areálu Nemocnice Motol';'Socha Matka před Fakultní nemocnicí Motol';'3.9523295796524702';'Q64816227';'20504';'';'57';'Q179700';'Motol'
'Reliéf Země a Slunce';'Reliéf Země a Slunce';'2.044476167915988';'Q85611278';'20545';'';'57';'Q245117';'Praha'
'Kamenná plastika Matka v parku na rohu ulic Na Pankráci a Hvězdova';'Matka a dítě';'9.76308887442483';'Q64815588';'20563';'';'57';'Q860861';'Nusle'
'socha Jana Nerudy na Petříně';'Pomník Jana Nerudy na Petříně';'0.8550915592816108';'Q24883702';'20649';'';'57';'Q179700';'Malá Strana'
'Fontána u metra Kačerov';'Kašna u výstupu stanice metra Kačerov';'3.0555396314620875';'Q66201540';'20762';'';'57';'Q483453';'Praha'
'Kamenná plastika Mobilit u domu Na Pankráci 72';'Mobilit';'0.9309732966615218';'Q64815837';'20770';'';'57';'Q860861';'Nusle'
'Betonová plastika Rovnováha u nájezdu na Barrandovský most';'Plastika Rovnováha na úpatí Barrandovského mostu';'9.674332351343972';'Q64815566';'20827';'';'57';'Q860861';'Braník'
'Kamenná plastika Rytíř u domu pro seniory v Malešicích';'Rytíř - Domov důchodců Malešice';'6.972181903818409';'Q64815747';'20849';'';'57';'Q860861';'Malešice'
'Kamenná plastika Šťastný princ v parku v Rektorské ulici';'Šťastný princ - Domov důchodců Malešice';'0.6183364105405691';'Q64815746';'20850';'';'57';'Q860861';'Malešice'
'Socha Vesmírný pták v parku u školy ve Fingerově ulici v Nových Butovicích';'Plastika Ptáček před ZŠ Nové Butovice';'0.9377135892611861';'Q94448279';'20855';'';'57';'Q179700';'Praha'
'Fontána Faun a Vltava u metra Vltavská v Holešovicích';'Fontána s plastikami fauna a víly ve stanici metra Vltavská';'3.3725053471229502';'Q64816318';'20879';'';'57';'Q179700';'Holešovice'
'Malá tanečnice';'Malá tanečnice';'3.577325096145734';'Q64815417';'20949';'';'57';'Q179700';'Malá Strana'
'Jarmila';'Sedící dívka';'7.242735618364479';'Q64815416';'20950';'';'57';'Q179700';'Malá Strana'
'Socha Madony na průčelí domu Nerudova 219/32';'Pamětní deska V.V.Štecha';'7.368286856720737';'Q66050002';'21053';'';'57';'Q179700';'Praha'
'Plastika na průčelí budovy FEL ČVUT';'Emblém na průčelí Elektrotechnické fakulty ČVUT';'2.2990503918420147';'Q68453841';'21104';'';'57';'Q860861';'Praha'
'Nový věk';'Nový věk';'7.893568154574765';'Q30275872';'21236';'';'57';'Q860861';'Vinohrady'
'Socha Obyčejná Madona v ulici Pujmanové na Pankráci';'Obyčejná madona';'1.7640997995375909';'Q64815585';'21594';'';'57';'Q179700';'Krč'
'Kamenná plastika Pomona v ulici Pujmanové na Pankráci';'Pomona';'1.9526203139355196';'Q64815581';'21595';'';'57';'Q179700';'Krč'
'Sochy zvířat za dětským pavilonem nemocnice v Motole';'Zvířátka na hřišti dětského oddělení nemocnice Motol';'3.688016033397334';'Q64815551';'21698';'';'57';'Q179700';'Praha'
'Kašna';'Prostorový prvek pro sídliště Pankrác I';'9.311993113657115';'Q65640363';'21779';'';'57';'Q483453';'Praha'
'Plastika mezi domy v ulici Pujmanové na Pankráci';'Prostorový prvek pro sídliště Pankrác I';'9.460651991144339';'Q64815583';'21779';'';'57';'Q860861';'Krč'
'Fontána před Úřadem MČ Praha - Letňany';'Děti';'0.0';'Q66049983';'21792';'';'57';'Q483453';'Praha'
'Socha před pohřebním ústavem u Plzeňské ulice v Praze';'Socha Bol pro Krematorium Motol';'6.119343386234591';'Q64816226';'21920';'';'57';'Q179700';'Motol'
'Kamenná plastika v parku v Rektorské ulici';'Skála – Obr, velryba, žába pro domov důchodců';'9.458944768836346';'Q64815745';'21964';'';'57';'Q860861';'Malešice'
'Socha na dvoře u Národní třídy v Praze';'Snění';'4.103801725837955';'Q64816311';'22050';'';'57';'Q179700';'Staré Město'
'Sousoší dvou dívek u školky v Smolkově ulici v Kamýku';'Mládí';'2.124268592214271';'Q94448435';'22186';'';'57';'Q179700';'Praha'
'Pomník maršála Koněva v Praze';'Pomník Ivana Štěpanoviče Koněva';'0.9348005035366186';'Q45118284';'22192';'';'57';'Q179700';'Praha'
'Kamenný květ';'Kamenný květ';'1.1448903613426737';'Q64816089';'22209';'';'57';'Q860861';'Liboc'
'Socha Mír';'Mír';'1.3071030231001968';'Q37023906';'22215';'';'57';'Q179700';'Bubeneč'
'socha Dívka s amforou';'Dívka s amfórou';'4.618237398132634';'Q64532119';'22216';'';'57';'Q179700';'Malá Strana'
'Socha Slévač v zahradě školky v Teplické ulici ve Střížkově';'Umírající';'7.579135742606693';'Q64815295';'22221';'';'57';'Q179700';'Střížkov'
'Socha Sedící dívka v Letenských sadech';'Sedící žena';'2.963999002268086';'Q64815943';'22223';'';'57';'Q179700';'Holešovice'
'Dvě sochy u vchodu do ZŠ v Albrechtické ulici v Praze-Kbelích';'Matka a dcera, Otec a syn';'8.179175919028498';'Q64816124';'22246';'';'57';'Q179700';'Kbely'
'Plastika Ležící žena v Praze-Vokovicích';'Ležící žena';'3.1439136417707645';'Q64815968';'22255';'';'57';'Q860861';'Vokovice'
'Plastika Rychlost u školy V Rybníčkách';'Rychlost';'7.290784408262447';'Q64815754';'22963';'';'57';'Q860861';'Strašnice'
'Socha Kosmonauti u stanice metra Háje';'Kosmonauti';'4.253645283048085';'Q91899706';'23269';'';'57';'Q179700';'Háje'
'Socha Jakuba Arbese v Praze';'Bronzová socha Jakuba Arbese';'7.181202595476674';'Q64816036';'23373';'';'57';'Q179700';'Smíchov'
'Socha ležící ženy na náměstí Jiřího Berana v Čakovicích';'Odpočívající dívka';'5.431854355003108';'Q64815375';'23780';'';'57';'Q179700';'Praha-Čakovice'
'Kašna';'Ryby';'2.664077379548368';'Q65640363';'23964';'';'57';'Q483453';'Praha'
'Plastika Ryby v ulici Pujmanové na Pankráci';'Ryby';'0.7573969566792903';'Q64815584';'23964';'';'57';'Q860861';'Krč'
'Plastika "Möbiovy pásky" za domem Pod Dálnicí 1281/1 v na Kačerově';'Plastika v zadním traktu výškového domu';'4.547798576170945';'Q94443205';'24073';'';'57';'Q860861';'Praha'
'Plastika ženy v parku Pilská v Hostavicích';'Sedící dívka';'4.643463998239009';'Q64816108';'24667';'';'57';'Q860861';'Hostavice'
'Dívka s holubicí';'Dívka a holubice';'5.7573748978742865';'Q53709905';'24834';'';'57';'Q179700';'Praha 1'
'Socha Venuše a Merkura ve stanici metra Malostranská';'Bronzový nápis u vstupu do stanice metra';'9.901870073799232';'Q94448272';'25127';'';'57';'Q179700';'Praha'
'Socha Venuše před Valdštejnskou jízdárnou v Praze';'Bronzový nápis u vstupu do stanice metra';'6.467238602623627';'Q94448273';'25127';'';'57';'Q179700';'Praha'
'Socha Bakcha před Valdštejnskou jízdárnou v Praze';'Bronzový nápis u vstupu do stanice metra';'7.098425704782151';'Q94444979';'25127';'';'57';'Q179700';'Praha'
'Plastika v Praze-Dejvicích v Banskobystrické ulici ("Ležící žena")';'Dekorativní stěny vstupů do obytného domu';'7.069537629434732';'Q64816147';'25141';'';'57';'Q860861';'Dejvice'
'Plastika v Praze-Dejvicích v Banskobystrické ulici ("Ležící žena")';'Ležící dívka';'5.911661715175798';'Q64816147';'25142';'';'57';'Q860861';'Dejvice'
'Plastika na průčelí budovy FS ČVUT';'Emblém na průčelí Strojní fakulty ČVUT';'1.2883268115801623';'Q68460868';'25143';'';'57';'Q860861';'Praha'
'Fontána před hotelem Diplomat';'Fontána pro hotel';'9.298605318917636';'Q66121191';'25145';'';'57';'Q483453';'Praha'
'Pomník padlých';'Dva kamenné bloky pro památník padlých';'0.6713921101644177';'Q38046610';'1086';'';'41';'Q4989906';'Pacov'
'Památník na konec druhé světové války v Táboře';'Památník odboje - výtvarně řešený nástupní prostor v areálu bývalého popraviště';'1.9554534418755107';'Q80459419';'5434';'';'41';'Q5003624';'Tábor'
'Plastika v parku v Táboře';'Tradice a současnost';'1.016099412156954';'Q80458573';'11530';'';'41';'Q860861';'Tábor'
'Pomník Rudé armády';'Pomník Rudé armády';'0.8752347659676988';'Q38150241';'19726';'';'41';'Q4989906';'Tábor'
'Palcát ve Vančurově ulici v Táboře';'Palcát';'1.73737371110225';'Q80458858';'23451';'';'41';'Q860861';'Tábor'
'Památník ukončení II. světové války';'Památník posledních bojů II. sv. války';'4.552108894908761';'Q38096484';'21238';'';'39';'Q5003624';'Slivice'
'Socha Mládež s holubicí u školy v ulici Na Valech v Poděbradech';'Děti s holubicí';'1.8924127452229644';'Q94447218';'374';'';'59';'Q179700';'Poděbrady'
'Žena s osuškou';'Žena v lázni';'2.3547538517124105';'Q66565942';'9284';'';'59';'Q179700';'Poděbrady'
'Malá tanečnice';'Malá tanečnice';'7.1735057257691475';'Q98211723';'20948';'';'59';'Q179700';'Poděbrady'
'Mateřská láska';'Mateřská láska';'5.763602958948673';'Q89784760';'21722';'';'59';'Q179700';'Poděbrady'
'Alegorie Země';'Alegorie země';'7.878431171658519';'Q89789096';'23845';'';'59';'Q179700';'Poděbrady'
'Pamětní deska Matěje Rösslera na domě Palackého 72/23 v Poděbradech';'Pamětní deska s bustou Matěje Rösslera';'6.273225806142981';'Q94441920';'23848';'';'59';'Q721747';'Poděbrady'
'Socha Klečící dívka v lázeňském parku v Poděbradech';'Na vlnách';'6.014665762771314';'Q66565372';'23968';'';'59';'Q179700';'Poděbrady'
'Pamětní deska Ludvíka Kuby na domě Palackého 43/13 v Poděbradech';'Pamětní deska Ludvíka Kuby';'7.350826948089316';'Q94441894';'23973';'';'59';'Q721747';'Poděbrady'
'Sousoší Mládí-zdraví-krása u penzionu Mír v Poděbradech';'Mládí - zdraví - krása';'2.617588099585173';'Q94448495';'23980';'';'59';'Q179700';'Poděbrady'
'Žena v lázni';'Žena s osuškou';'0.7821856884861542';'Q94448353';'23984';'';'59';'Q179700';'Poděbrady'
'Sousoší v Třemošné';'Dělnická síla';'9.882440720584324';'Q66053922';'21339';'';'55';'Q179700';'Třemošná'
'Pomník padlým v Kolešovicích';'Pomník padlým ve II. světové válce';'1.5637942988880715';'Q66566960';'23130';'';'55';'Q575759';'Kolešovice'
'Pomník obětem v Horní Bříze v Tovární ulici';'Památník obětem 2. světové války';'4.399673910845907';'Q66055212';'24874';'';'55';'Q575759';'Horní Bříza'
'Socha dívky před kulturním domem v Horní Bříze';'Dívka s vázou';'7.127551819185004';'Q66055211';'24876';'';'55';'Q179700';'Horní Bříza'
'Pomník obětí II. světové války';'Památník obětem pochodu smrti';'2.75843886960338';'Q37282681';'24878';'';'55';'Q4989906';'Horní Bříza'
'Pomník padlým v Kaznějově';'Pomník padlým v I. a II. světové válce';'2.709090328514081';'Q66055222';'24904';'';'55';'Q575759';'Kaznějov'
'Kamenná plastika u školy Generála Klapálka v Mikovicích';'Škola a praxe';'4.272668474028984';'Q94433587';'203';'';'74';'Q860861';'Kralupy nad Vltavou'
'Kovová plastika u hřiště v Kravařích';'Plastika před budovou základní školy';'4.633576977759484';'Q94435827';'6339';'';'74';'Q860861';'Kravaře'
'Kovová plastika v ulici Generála Klapálka v Kralupech nad Vltavou';'Plamen';'3.0573115399740614';'Q66564805';'9266';'';'74';'Q860861';'Kralupy nad Vltavou'
'Kamenná plastika Plavkyně u plavecké haly v Neratovicích';'Plavec';'0.668685762421095';'Q66564876';'9278';'';'74';'Q860861';'Neratovice'
'Plastika před školou v Liběšicích';'Plastika pro ZDŠ';'2.9525697505253223';'Q78791581';'9334';'';'74';'Q860861';'Liběšice'
'Socha Prometheus v hale nádraží v Kralupech nad Vltavou';'Hodiny na budově vlakového nádraží';'7.071750562653995';'Q66564804';'12855';'';'74';'Q179700';'Kralupy nad Vltavou'
'Pomník v místě pohřbu pruských vojáků v parku Josefa Hory v Roudnici nad Labem';'Busta Josefa Hory';'6.622092633539725';'Q78792013';'22650';'';'74';'Q575759';'Roudnice nad Labem'
'Keramická plastika v atriu nákupního střediska Kochmanka';'Plastika pro nákupní středisko Kochmanka';'2.8226700363734483';'Q94435784';'23690';'';'74';'Q860861';'Kralupy nad Vltavou'
'Pomník  Antonína Dvořáka v Nelahozevsi';'Antonín Dvořák';'1.6845406213857665';'Q66566628';'23696';'';'74';'Q4989906';'Nelahozeves'
'Pomník Bedřicha Smetany v parku v Smetanově ulici v Neratovicích';'Pomník Bedřicha Smetany';'0.13212799470958309';'Q66564878';'23698';'';'74';'Q4989906';'Neratovice'
'Socha matky s dítětem v parku na Náměstí Jaroslava Seiferta v Lobečku';'Matka s dítětem';'0.8898705367875609';'Q94447194';'23719';'';'74';'Q179700';'Kralupy nad Vltavou'
'pomník pěti armád';'Památník míru';'6.656990804442175';'Q97361229';'11611';'';'22';'Q5003624';'Vitějovice'
'Pomník F. L. Čelakovského od Břetislava Bendy';'Pomník F. L. Čelakovského';'1.365910835209545';'Q38139074';'20652';'';'22';'Q4989906';'Strakonice II'
'Reliéf s listy a klasy v Sukoradech';'Znak JZD Sukorady';'7.8693199238766915';'Q95722681';'20029';'';'75';'Q245117';'Sukorady'
'Pamětní deska Karla Mattuše na domě Palackého 38 v Mnichově Hradišti';'Pamětní deska Jana Švermy';'8.11131801635551';'Q94441834';'23473';'';'75';'Q721747';'Mnichovo Hradiště'
'Vítězství Stalingradu';'Vítězství';'5.875839976509054';'Q57412626';'265';'';'23';'Q179700';'České Budějovice 7'
'památník Pařížské komuny v Českých Budějovicích';'Symbol pařížské komuny';'2.667583701759114';'Q57441810';'719';'';'23';'Q4989906';'České Budějovice 3'
'Socha dělníka šamotáře ve Zlivu';'Dělník';'1.0008988308805205';'Q94444999';'1130';'';'23';'Q179700';'Zliv'
'Boulder u knihovny';'Památník dělnického revolučního hnutí';'7.787816251591334';'Q57412408';'9308';'';'23';'Q4989906';'České Budějovice 7'
'Odpočívající plavec';'Odpočívající plavec';'2.4956874368041877';'Q57499313';'21656';'';'23';'Q179700';'České Budějovice 1'
'fontána se sochami labutí v Českých Budějovicích';'Labutě';'2.247363405462275';'Q57436625';'23851';'';'23';'Q483453';'České Budějovice 7'
'Pomník u bývalého mlýna v ulici Pod Kamenem v Českém Krumlově';'Domovní značení pro Vošáhlíkův mlýn';'1.7467411447321206';'Q80456500';'474';'';'6';'Q4989906';'Český Krumlov'
'Socha Rodina v ulici Za Nádražím v Českém Krumlově';'Sousoší Rodina';'5.560131896763691';'Q80456403';'1033';'';'6';'Q179700';'Český Krumlov'
'Pomník Obětem 1. a 2. světové války a komunismu v Humpolci';'Pomník Antonína Zápotockého';'4.233696497188341';'Q67180996';'484';'';'42';'Q575759';'Humpolec'
'socha ve Smetanově ulici';'Tři generace';'1.047023555807864';'Q95949156';'9431';'';'42';'Q179700';'Humpolec'
'Socha Jaroslava Haška jižně od náměstí v Lipnici nad Sázavou';'Bronzová plastika Jaroslava Haška';'4.482155320719033';'Q67183317';'18992';'';'42';'Q179700';'Lipnice nad Sázavou'
'Památník u Pelhřimovské lípy';'Alegorie filmu';'8.006878971578374';'Q67183983';'24760';'';'42';'Q5003624';'Pelhřimov'
'Socha u Třídy Legií v Pelhřimově';'Rodina';'0.9608324032561837';'Q67183987';'24763';'';'42';'Q179700';'Pelhřimov'
'Pomník Františka Hrubína u knihovny na Náměstí v Chlumu u Třeboně';'Památník Františka Hrubína';'1.8756742361803516';'Q80456008';'1038';'';'24';'Q4989906';'Chlum u Třeboně'
'Plastika na budově v Choutníku';'Tepaná mříž pro JZD';'8.019489884181485';'Q80456157';'1040';'';'24';'Q860861';'Choustník'
'Pomník osvobození v osadě Na Kopečku';'Památník osvobození';'7.521410063602787';'Q80455980';'6572';'';'24';'Q4989906';'Třeboň'
'Socha ženy v parku pod nádražím Třeboň lázně';'Koupel';'3.3370982975258063';'Q80455876';'22138';'';'24';'Q179700';'Třeboň'
'Socha matky s děckem na Masarykově náměstí v Aši';'Matka s dítětem';'9.920699019438958';'Q78781210';'6578';'';'52';'Q179700';'Aš'
'Socha ležící ženy v parku v Májové ulici v Chebu';'Ležící žena';'1.2368098754234547';'Q78781283';'20206';'';'52';'Q179700';'Cheb'
'Socha v parku u pavilonu Natálie ve Františkových Lázních';'Matka s dítětem';'1.3186806064178027';'Q78781147';'24854';'';'52';'Q179700';'Františkovy Lázně'
'Socha Dvě ženy v Nádražní ulici ve Františkových Lázních';'Ženy';'3.7845721188703485';'Q78781168';'24856';'';'52';'Q179700';'Františkovy Lázně'
'Pomník Rudé armádě';'Pomník osvobození Loun';'5.135696193967367';'Q37805686';'526';'';'73';'Q4989906';'Louny'
'Socha Šťastné mládí v Husově ulici v Lounech';'Šťastné mládí';'6.5990062246612124';'Q94448248';'3251';'';'73';'Q179700';'Louny'
'Socha Léto v Litoměřické ulici v Bílině';'Léto';'0.5739758010838594';'Q94447153';'4048';'';'73';'Q179700';'Bílina'
'Kamenná plastika ženy u domu Komenského 449 v Peruci';'Ležící žena';'0.6781985605186154';'Q94433635';'4341';'';'73';'Q860861';'Peruc'
'Pomník Benedikta Rejta na Náměstí Benedikta Rejta v Lounech';'Pomník Benedikta Rejta';'0.21348308215106304';'Q78794586';'5357';'';'73';'Q4989906';'Louny'
'Kamenná plastika na křižovatce ulic Na Kocandě a Na Valech v Litoměřicích';'Úlomek z velké abecedy';'2.2230277672343495';'Q94433525';'7603';'';'73';'Q860861';'Litoměřice'
'Socha dětí s holubicí před školou v Plynárenské ulici v Teplicích';'Poselství';'1.3576010437016603';'Q78793357';'8265';'';'73';'Q179700';'Teplice'
'Betonová plastika s mozaikami u obchodů v Stránského ulici v Litoměřicích';'Čtvero ročních období';'5.11594864276909';'Q94430906';'10079';'';'73';'Q860861';'Litoměřice'
'Kamenná plastika v ulici Jiřího z Poděbrad v Litoměřicích';'"Socha ""Pramen"" pro sídliště Kocanda"';'4.089240406766717';'Q94433628';'12771';'';'73';'Q860861';'Litoměřice'
'Socha sedící ženy ve Sportovní ulici v Lounech';'Žena';'1.4155301769222703';'Q94447523';'13046';'';'73';'Q179700';'Louny'
'Socha před branou Zahrady Čech v Litoměřicích';'Skulptura při vstupu do areálu Zahrady Čech';'1.231820762030786';'Q78794791';'19704';'';'73';'Q179700';'Litoměřice'
'Pomník padlým rudoarmějcům na hřbitově v Litoměřicích';'Památník obětem 2. světové války';'0.8979013784168403';'Q78793283';'19993';'';'73';'Q575759';'Litoměřice'
'Mramorová plastika v atriu areálu Perla v Řetenicích';'Skulptura v atriu střediska občanské vybavenosti';'2.9000504448422832';'Q78790490';'20686';'';'73';'Q860861';'Teplice'
'Kamenná plastika u restaurace Jiskra v sídlišti Za Chlumem v Bílině';'Skulptura v atriu Domu služeb';'8.353129959092575';'Q94433580';'21370';'';'73';'Q860861';'Bílina'
'Plastika Strom života u školky ve Vítězné ulici v Slaném';'Strom';'3.595348306216384';'Q66564737';'22283';'';'73';'Q860861';'Slaný'
'Socha Poutník u Domu kultury v Litoměřicích';'Poutník';'6.177030510068356';'Q78794810';'22321';'';'73';'Q179700';'Litoměřice'
'Pomník padlým rudoarmějcům na hřbitově v Lounech';'Pomník obětem 2. světové války';'4.211281413983765';'Q94443943';'22879';'';'73';'Q575759';'Louny'
'Socha alegorie Podzimu nad severovýchodním rohem Zahradního domu v Teplicích';'Pomník Klementa Gottwalda';'9.166875110847483';'Q78790497';'22911';'';'73';'Q179700';'Teplice'
'Kamenná plastika mezi domy v ulici Tomanova ve Slaném';'Skulptura s reliéfem s motivem rodiny';'3.1835306382426882';'Q66564715';'23478';'';'73';'Q860861';'Slaný'
'Pomník obětem nacistické okupace 1939-45 na Hlaváčkově náměstí ve Slaném';'Pomník obětem 2. světové války';'0.24122232534239077';'Q66564730';'23479';'';'73';'Q4989906';'Slaný'
'Kamenná plastika v parku na sídlišti Za Chlumem v Bílině';'Skulptura před Domem služeb';'0.45056735897879857';'Q94433620';'25106';'';'73';'Q860861';'Bílina'
'Pomník koncentračních táborů v Malé pevnosti Terezín';'Pomník k připomínce deportací';'1.7350905056697143';'Q78782719';'25219';'';'73';'Q4989906';'Terezín'
'Plastika Stíny popravených u průchodu k IV. dvoru Malé pevnosti Terezín';'Pomník k připomínce deportací';'6.313495503591894';'Q78782716';'25219';'';'73';'Q860861';'Terezín'
'Pomník koncentračních táborů v Malé pevnosti Terezín';'Stíny popravených';'9.182830883847776';'Q78782719';'25221';'';'73';'Q4989906';'Terezín'
'Plastika Stíny popravených u průchodu k IV. dvoru Malé pevnosti Terezín';'Stíny popravených';'1.9276573400661536';'Q78782716';'25221';'';'73';'Q860861';'Terezín'
'Socha dívky v parku Terezínských dětí v Terezíně';'Symbol života';'7.3021136692119795';'Q78794399';'25224';'';'73';'Q179700';'Terezín'
'Socha Násilí v parku před muzeem v Malé pevnosti Terezín';'Násilí';'9.271981986199647';'Q78782703';'25229';'';'73';'Q179700';'Terezín'
'Pomník obětem války v Jiráskových sadech v Terezíně';'Pomník mučedníkům';'9.809818405973672';'Q78794410';'25231';'';'73';'Q4989906';'Terezín'
'Socha ležícího koně v Teplicích';'Kůň';'6.323433589005482';'Q78796199';'25249';'';'73';'Q179700';'Teplice'
'Poslední srp a kladivo';'Keramický reliéf';'3.321089730137857';'Q85338495';'1204';'';'38';'Q860861';''
'Socha v Plzni u Sokolovské ulice';'Život v míru';'8.365313791987845';'Q66051968';'1311';'';'38';'Q179700';'Plzeň'
'Život v míru';'Život v míru';'6.674133111394245';'Q85338232';'1311';'';'38';'Q860861';''
'Socha na Borech ve Skupově ulici';'Probuzení';'7.109700409198676';'Q66054034';'2104';'';'38';'Q179700';'Plzeň'
'Plastika v Plzni u Karlovarské ulice';'Čtyři školy';'1.7155748877005554';'Q66051871';'3983';'';'38';'Q860861';'Plzeň'
'Plastika v Plzni v Bolevecké ulici';'Kamenná plastika s lékařskou symbolikou před vysokoškolskými kolejemi';'5.48605287804159';'Q66053822';'4030';'';'38';'Q860861';'Plzeň'
'Sousoší v Plzni u Kaznějovské ulice';'Památník budovatelům';'1.4727956697781346';'Q66053827';'5549';'';'38';'Q179700';'Plzeň'
'Socha u bazénu v Plzni na Slovanech';'Plavec';'1.5886909675595835';'Q66055659';'5551';'';'38';'Q179700';'Plzeň'
'Plastika v Rokycanech na Nerudově náměstí';'Poselství míru';'6.81251164290646';'Q66052299';'6197';'';'38';'Q860861';'Rokycany'
'Socha v areálu nemocnice Plzeň - Lochotín nedaleko hlavní brány';'Pozdrav životu';'9.987795259994524';'Q66053402';'6357';'';'38';'Q179700';'Plzeň'
'Památník československo-sovětského přátelství';'Žena s drapérií';'2.178073777181018';'Q85338198';'6372';'';'38';'Q860861';''
'Památník Československo - Sovětské smlouvy v Plzni u Anglického nábřeží';'Žena s drapérií';'1.5017563812849002';'Q66055672';'6372';'';'38';'Q5003624';'Plzeň'
'Označení a emblém Západočeské plynárny';'Kovové označení a emblém na fasádě ředitelství Západočeských plynáren';'4.623452514975656';'Q85338338';'8670';'';'38';'Q860861';''
'Rudá hvězda nad Plzní';'Kovové reliéfy Moderní výroba, Říjnová revoluce';'3.29284338457735';'Q66050666';'11457';'';'38';'Q15893266';'Plzeň'
'Moderní výroba a Říjnová revoluce/ Programátor a Internacionála';'Kovové reliéfy Moderní výroba, Říjnová revoluce';'4.885308412851323';'Q85338275';'11457';'';'38';'Q860861';''
'Sousoší v Plzni v Manětínské ulici';'Život v míru';'1.4404586667166401';'Q66053525';'11459';'';'38';'Q179700';'Plzeň'
'Jaro - Léto - Podzim - Zima';'Jaro, Léto, Podzim, Zima';'3.7879538875949645';'Q66053527';'11469';'';'38';'Q179700';'Bolevec'
'Socha v Plzni u Gerské ulice';'Matka s dítětem (Sedící žena a dítě)';'4.147284378733259';'Q66053523';'11843';'';'38';'Q179700';'Plzeň'
'Plastika v Plzni na Bolevci u Nýřanské ulice';'Hrající si děti';'9.677629091854767';'Q66053409';'11846';'';'38';'Q860861';'Plzeň'
'Socha v Rokycanech u Třebízského ulice';'Revoluční píseň';'2.293093008373794';'Q66054192';'11863';'';'38';'Q179700';'Rokycany'
'Květ';'Reliéf na fasádě Centra Doubravka';'6.034822904910243';'Q85338237';'12610';'';'38';'Q860861';''
'Plastika v Plzni u Mohylové ulice';'Amfora';'6.5332998595246865';'Q66054178';'21394';'';'38';'Q860861';'Plzeň'
'Klíčení';'Klíčení';'3.6880450552001607';'Q85339094';'21399';'';'38';'Q860861';''
'Plastika u Jitřenky v Plzni na Doubravce';'Vzrůst';'7.486960711051075';'Q66051146';'21400';'';'38';'Q860861';'Plzeň'
'Sousoší v Plzni v ulici Na Dlouhých';'Radost';'1.191704577400773';'Q66054175';'21401';'';'38';'Q179700';'Plzeň'
'Socha u školy ve Strašicích';'Dívka s knihou';'7.649252699559758';'Q66052240';'21410';'';'38';'Q179700';'Strašice'
'Sousoší Hokejisté u Doudlevecké ulice v Plzni';'Hokejisté';'2.7319280217343205';'Q66051196';'21465';'';'38';'Q179700';'Plzeň'
'Domovní znamení Veverka';'Domovní znamení Veverka a Beránek';'6.83484204227098';'Q85338675';'21466';'';'38';'Q5915691';''
'Domovní znamení Raci';'Domovní znamení Raci';'8.078957373185832';'Q85338800';'21467';'';'38';'Q5915691';''
'Dělící stěny na budově restaurace Sputnik (dnes budova Policie ČR)';'Keramická dekorativní stěna';'4.477363672730516';'Q85338273';'21469';'';'38';'Q860861';''
'Druhá část památníků obětem válek';'Pomník obětem fašismu a válek';'7.0257664657698475';'Q85339011';'21473';'';'38';'Q5003624';''
'Matka s dětmi a houslemi';'Reliéfy rodičů s dětmi';'0.26509167691754926';'Q85338547';'21475';'';'38';'Q4989906';''
'Figurální reliéf nad vstupem do budovy Fakulty elektrotechnické VŠSE';'Figurální reliéf';'4.362587378196234';'Q85338318';'21478';'';'38';'Q4989906';''
'Označení prodejny Samoobsluha';'Světelný poutač Samoobsluha';'8.151289483897582';'Q85339006';'21479';'';'38';'Q860861';''
'Pamětní deska Ladislavu Lábkovi';'Označení Národopisného muzea';'7.4963303520984566';'Q85338111';'21480';'';'38';'Q721747';''
'Sousoší v Plzni v Kopeckého sadech';'Matka s dítětem';'6.984253322804032';'Q66055673';'21481';'';'38';'Q179700';'Plzeň'
'Fontána (2)';'Fontána';'4.404845070617846';'Q85396047';'21482';'';'38';'Q860861';''
'busta Dr. Karla Farského';'Kruhový panel a nápis Strom života';'0.8930365330148281';'Q85338578';'21549';'';'38';'Q17489160';''
'Strom života';'Kruhový panel a nápis Strom života';'8.617482915967607';'Q85338941';'21549';'';'38';'Q860861';''
'Památník v Plzni u autobusového nádraží';'Poutač Škoda';'4.666667738610532';'Q66053771';'21551';'';'38';'Q5003624';'Plzeň'
'Socha v Plzni u Francouzské třídy před poliklinikou';'Uzdravená';'4.506567647216942';'Q66053760';'21555';'';'38';'Q179700';'Plzeň'
'Socha v Plzni - Lobzech v areálu střelnice';'Plastika s oslavou práce';'6.400255885560228';'Q66055162';'21573';'';'38';'Q179700';'Plzeň'
'Socha v Plzni - Lobzech před budovou střelnice';'Plastika s budovatelskou tematikou';'1.2409696327014277';'Q66055164';'21575';'';'38';'Q179700';'Plzeň'
'Socha v Plzni - Lobzích u rohu budovy střelnice';'Plastika První Máj';'1.0010159738844187';'Q66055163';'21576';'';'38';'Q179700';'Plzeň'
'Domovní znamení Mír';'Dvě domovní znamení Domov, Mír';'3.770960931000162';'Q85338732';'21650';'';'38';'Q5915691';''
'Alegorie vyučování';'Pamětní deska s bustou Karla Farského';'5.190627788979166';'Q85339130';'21840';'';'38';'Q860861';''
'Domovní znamení Kohout';'Domovní znamení Tučňáci, Kohout, Beran, Páv';'6.359561223868731';'Q85338742';'21853';'';'38';'Q5915691';''
'Ornamentální růžice';'Reliéfní výzdoba a domovní znamení';'6.46547429945423';'Q85338954';'21857';'';'38';'Q4989906';''
'Domovní znamení Kohout (2)';'Reliéfní výzdoba a domovní znamení';'9.206256024200442';'Q85396230';'21858';'';'38';'Q5915691';''
'Pomník obětem z let 1939-1945 v Rokycanech';'Památník obětem války';'4.663659660135127';'Q66050257';'24941';'';'38';'Q575759';'Rokycany'
'Pomník padlým v Rokycanech';'Pomník obětem fašismu';'3.2543625885800465';'Q66055319';'24942';'';'38';'Q575759';'Rokycany'
'Socha Matka čte synovy u ulice Terezie Brzkové v Plzni';'Žena a dítě';'7.704241225404908';'Q66051201';'2105';'';'37';'Q179700';'Plzeň'
'Sousoší Věda a Technika v Plzni na Skvrňanech u ulice Terezie Brzkové';'Věda a technika';'1.9482127623907495';'Q66052387';'2480';'';'37';'Q179700';'Plzeň'
'Socha Strážce v Plánické ulici v Klatovech';'Kovová plastika se symboly KSČ před budovou OV KSČ';'2.7422076979675385';'Q66050344';'3792';'';'37';'Q179700';'Klatovy'
'Květuška a její zahrádka';'Květuška a její zahrádka';'4.12672039218461';'Q85338240';'5818';'';'37';'Q860861';''
'Socha u křižovatky v Přešticích';'Úroda';'2.0126609151603447';'Q66050584';'6196';'';'37';'Q179700';'Přeštice'
'Sousoší v Gagarinově ulici v Přešticích';'Matka s dětmi';'5.459134487941947';'Q66050585';'6201';'';'37';'Q179700';'Přeštice'
'Sousoší v Nýřanech';'Žena s dítětem';'0.9107321940302686';'Q94448587';'11811';'';'37';'Q179700';'Nýřany'
'Sousoší kosmonautů v Přešticích';'Památník Družby';'1.8907554484193296';'Q66050588';'11860';'';'37';'Q179700';'Přeštice'
'Sousoší přeštických černostrakatých prasat';'Přeštická černostrakatá prasata';'3.232887207067162';'Q66051211';'19015';'';'37';'Q2293362';'Přeštice'
'Plastika v Plzni na Vinicích u Brněnské ulice';'Kašna (Pítko)';'2.7771736484384766';'Q66052738';'21391';'';'37';'Q860861';'Plzeň'
'Pomník padlým v Horšovském Týně';'Pomník osídlencům';'9.111253760912119';'Q66050526';'24916';'';'37';'Q575759';'Horšovský Týn'
'Pomník padlým v Horšovském Týně (2)';'Pomník osídlencům';'9.649501540810258';'Q66057773';'24916';'';'37';'Q575759';'Horšovský Týn'
'Pomník Boženy Němcové ve středu Mrákova';'Pamětní deska připomínající pobyt Boženy Němcové v Mrákově';'6.283822033289277';'Q66050097';'24982';'';'37';'Q4989906';'Mrákov'
'Kovová plastika Spirála ve Studentské ulici v Litvínově';'Kovová plastika pro ubytovnu';'3.824357115004382';'Q78791345';'489';'';'72';'Q860861';'Litvínov'
'Památník duchcovského viaduktu';'Žardiniéry v prostoru památníku Duchcovského viaduktu';'5.284708804183959';'Q12043652';'1867';'';'72';'Q5003624';'Duchcov'
'Socha školačky u školy v Zlatnické ulici v Mostě';'Školačka';'6.918145333380153';'Q78792007';'1891';'';'72';'Q179700';'Most'
'Pomník Antonína Sochora před školou v Osecké ulici v Duchcově';'Busta pro pomník generálmajora A. Sochora';'2.7569521428311137';'Q78793992';'2023';'';'72';'Q4989906';'Duchcov'
'Socha Niké u školy v ulici Akademika Heyrovského v Chomutově';'Niké';'1.3206880401285301';'Q94447267';'2026';'';'72';'Q179700';'Chomutov'
'Socha Odpočívající žena v areálu bývalého koupaliště v Žižkově údolí v Bílině';'Odpočívající žena';'2.9589049012118736';'Q94447278';'2160';'';'72';'Q179700';'Bílina'
'Pomník padlým letcům v Plzeňské ulici v Žatci';'Architektonické řešení Památníku osvobození';'8.39553095742862';'Q78788213';'2751';'';'72';'Q575759';'Žatec'
'Dvě mytologické sochy';'Kované mříže na státním zámku';'2.0124568571703954';'Q37266460';'3951';'';'72';'Q179700';'Duchcov'
'Památník duchcovského viaduktu';'Pamětní deska z plexiskla pro Památník duchcovského viaduktu';'2.3270567010861565';'Q12043652';'4074';'';'72';'Q5003624';'Duchcov'
'Socha Interkosmos před kinem Kosmos v Mostě';'Interkosmos';'7.931628917803127';'Q78794281';'4349';'';'72';'Q179700';'Most'
'Socha Tajemství u školy v Písečné ulici v Chomutově';'Tajemství';'5.267076497073565';'Q94448253';'5836';'';'72';'Q179700';'Chomutov'
'Kovová plastika před domem Zahradní 5305 v Chomutově';'"Fontána s plastikou ""Květ"""';'2.91611221425584';'Q94435818';'5837';'';'72';'Q860861';'Chomutov'
'Sousoší Děti u školy v Studentské ulici v Jirkově';'"Sousoší ""Děti"" před základní školou"';'1.7063395380886976';'Q94448427';'5884';'';'72';'Q179700';'Jirkov'
'Socha před školou v Meziboří';'Píseň';'0.4389314798723202';'Q78790668';'8862';'';'72';'Q179700';'Meziboří'
'Keramické plastiky v atriu Magistrátu v Mostě';'Země';'8.300571049108283';'Q78789797';'8922';'';'72';'Q860861';'Most'
'Socha Dialog v parku nad sportovní halou v Mostě';'Léda s labutí';'5.141857739541198';'Q78790080';'8928';'';'72';'Q179700';'Most'
'Bronzová plastika v atriu školy v Hornické ulici v Chomutově';'Bronzová plastika pro ZDŠ';'0.61001436936089';'Q94432316';'9792';'';'72';'Q860861';'Chomutov'
'Kamenná plastika u sportovní haly v Mostě';'Skulptura pro sportovní halu';'1.8044890844691992';'Q78791986';'10096';'';'72';'Q860861';'Most'
'Socha Dvojice v parku v Topolové ulici v Mostě';'Dvojice';'0.46703621199352857';'Q78792003';'10099';'';'72';'Q179700';'Most'
'Socha Satyr u školy v ulici U Stadionu v Mostě';'Satyr';'2.161189737313395';'Q78790288';'10100';'';'72';'Q179700';'Most'
'Socha Fotbalisté před fotbalovým stadionem v Mostě';'Fotbalisté';'4.16860081361068';'Q78792774';'10105';'';'72';'Q179700';'Most'
'Socha Dary přírody v sídlišti Liščí vrch v Mostě';'Dary přírody';'3.5400300022742823';'Q78794277';'10107';'';'72';'Q179700';'Most'
'Socha Dívka s motýlem v Hamerské ulici v Janově u Litvínova';'Dívka s motýlem';'7.970143713252531';'Q78790436';'11893';'';'72';'Q179700';'Litvínov'
'Pomník obětem nacizmu 1939-1945 v Ruské ulici v Horním Litvínově';'Památník obětem II. světové války';'6.032607937088373';'Q78791371';'12777';'';'72';'Q4989906';'Litvínov'
'Dioritová plastika Biologické těleso v parku nad sportovní halou v Mostě';'Biologické těleso';'1.3517232515291089';'Q78790085';'12781';'';'72';'Q860861';'Most'
'Socha Dětské hry u školy v ulici Budovatelů v Jirkově';'Dětské hry';'1.191046857819126';'Q94445006';'12850';'';'72';'Q179700';'Jirkov'
'Sousoší Píseň života u domu seniorů v ulici U Dubu v Jirkově';'Píseň života';'2.145021302182399';'Q94448541';'12851';'';'72';'Q179700';'Jirkov'
'Keramická plastika Tři květy na náměstí 8.května v Meziboří';'Květy';'1.348277676372617';'Q78790674';'13188';'';'72';'Q860861';'Meziboří'
'Kamenná plastika v parku v Svatováclavské ulici v Žatci';'Chmel  (Morový sloup III)';'8.056460106405593';'Q78788206';'19231';'';'72';'Q860861';'Žatec'
'';'Postava';'0.8047128664503409';'Q79419710';'19914';'';'72';'Q838948';'Chomutov'
'Socha Školáci u školy v ulici 17.listopadu v Chomutově';'Děti';'1.3195504843191777';'Q78788885';'20216';'';'72';'Q179700';'Chomutov'
'Socha Českého lva u Magistrátu v Mostě';'Symbol státnosti';'1.4889741090909059';'Q78789792';'20871';'';'72';'Q179700';'Most'
'Socha Matka a dítě u školky v ulici Antonína Sochora v Mostě';'Mateřství';'3.419478539019496';'Q78791994';'20922';'';'72';'Q179700';'Most'
'Keramická plastika Mušle v parku v ulici Josefa Skupy v Mostě';'Lastura';'8.938441994506794';'Q78790091';'21359';'';'72';'Q860861';'Most'
'Socha Staroslovanská modla v parku v ulici Jaroslava Ježka v Mostě';'Symbol starých Slovanů';'4.331816567322302';'Q78792948';'22652';'';'72';'Q179700';'Most'
'Socha Budovatelé stavby mládeže u Citadely v Litvínově';'Památník staveb mládeže';'1.619620506239651';'Q78790664';'22680';'';'72';'Q179700';'Litvínov'
'Pomník Julia Fučíka před školou v ulici U Stadionu v Mostě';'Busta J. Fučíka';'3.0860853826772496';'Q78794341';'22760';'';'72';'Q4989906';'Most'
'Památník duchcovského viaduktu';'Památník duchcovského viaduktu';'5.008912988306365';'Q12043652';'24484';'';'72';'Q5003624';'Duchcov'
'Socha Ležící žena naproti domu Cihlářská 4092 v Chomutově';'Ležící žena';'5.269905453859349';'Q94447156';'24870';'';'72';'Q179700';'Chomutov'
'Kamenná plastika u domu Václavská 4185 v Chomutově';'Skulptura před budovou bývalých jeslí';'4.802168216092351';'Q94433565';'24887';'';'72';'Q860861';'Chomutov'
'Socha Dvojice v parku před 15.základní školou v Mostě';'Dvojice';'3.451399746713036';'Q78792957';'25086';'';'72';'Q179700';'Most'
'Socha Kamarádi u domu Kamenný vrch 5307 v Chomutově';'Kamarádi';'2.961604994646994';'Q94446097';'25104';'';'72';'Q179700';'Chomutov'
'Socha matky s dítětem u školy v Březenecké ulici v Chomutově';'Matka s dítětem';'0.5092079304723602';'Q94447192';'25105';'';'72';'Q179700';'Chomutov'
'Kamenná plastika Kopretiny u nákupního centra v Jižní ulici v České Lípě';'"Skulptura ""Kopretiny"""';'3.1538223613193392';'Q94433516';'2177';'';'91';'Q860861';'Česká Lípa'
'Kamenná plastika Šnek u školky v Jižní ulici v České Lípě';'"Skulptura ""Šnek"""';'5.093189690039554';'Q94433553';'2179';'';'91';'Q860861';'Česká Lípa'
'Socha Žena s kyticí v Městském parku v České Lípě';'"Skulptura ""Žena s kyticí"" v městském parku"';'1.0111070500039627';'Q80438573';'2180';'';'91';'Q179700';'Česká Lípa'
'Pomník Jana Amose Komenského na Komenského náměstí v Děčíně';'Pomník J. A. Komenského';'3.1052463097717022';'Q78792789';'2201';'';'91';'Q4989906';'Děčín'
'Socha dětí u školy v Tylově ulici v Děčíně';'Mládí';'5.798750246791111';'Q78792575';'3889';'';'91';'Q179700';'Děčín'
'Socha Máchovská variace v parku před restaurací Střelnice v Labské ulici v Děčíně';'Máchovské variace';'5.998453980670593';'Q78792578';'5300';'';'91';'Q179700';'Děčín'
'Kamenná plastika v Mistrovicích';'Rostlinný motiv';'8.67608939057086';'Q94433614';'6216';'';'91';'Q860861';'Nový Oldřichov'
'Sousoší Koupel u plavecké haly v Rumburku';'Koupel';'1.011042248852417';'Q94448482';'6408';'';'91';'Q179700';'Rumburk'
'Socha Dívky s drapérií u obchodu v ulici V Podhájí v Rumburku';'Kamenná figurální plastika pro sídliště Rumburk III/2';'0.14055402419956456';'Q94446025';'8188';'';'91';'Q179700';'Rumburk'
'Kovová plastika v ulici Pískovec I v Kamenickém Šenově';'Volná plastika před nákupním střediskem';'3.4744291020775275';'Q94435835';'8808';'';'91';'Q860861';'Kamenický Šenov'
'Plastika Lipový list u sportovní haly v České Lípě';'"Plastika ""Lipový květ"" ve sportovním areálu"';'3.2058334073222756';'Q80438598';'11044';'';'91';'Q860861';'Česká Lípa'
'Socha Dívky v ulici 28.října v České Lípě';'Děti';'4.787540340212236';'Q80437406';'11050';'';'91';'Q179700';'Česká Lípa'
'Kovová plastika v ulici U Spojů v České Lípě';'"Plastika ""Prstenec"" před telekomunikační budovou"';'1.0440847416693577';'Q80438557';'11879';'';'91';'Q860861';'Česká Lípa'
'Socha Medvědi ve vnitrobloku v ulici Jiráskova v Novém Boru';'Medvíďata';'1.6173607166828112';'Q80437574';'11929';'';'91';'Q179700';'Nový Bor'
'Kamenná plastika v centru Stružnice';'Rostlinný motiv';'3.6043580144265484';'Q80438703';'11946';'';'91';'Q860861';'Stružnice'
'Kovová plastika Pocta architektuře u zimního stadionu v České Lípě';'Pocta architektuře';'0.7195050930133075';'Q80438596';'15383';'';'91';'Q860861';'Česká Lípa'
'Socha Ležící žena před kinem Crystal v České Lípě';'Socha ženy před Kulturním domem Krystal';'0.9956535457874836';'Q80438589';'19621';'';'91';'Q179700';'Česká Lípa'
'Kamenná plastika v Železničářské ulici v České Lípě';'Skulptura s železničářskou tematikou';'2.7679451501690915';'Q80437788';'19622';'';'91';'Q860861';'Česká Lípa'
'Betonová plastika u domu Antonína Sovy 3009 v České Lípě';'Plastika u nákupního střediska';'5.750801090916611';'Q94430908';'19623';'';'91';'Q860861';'Česká Lípa'
'Kamenná plastika v Městském parku v České Lípě';'"Sousoší  ""Geologie"" v městském parku"';'0.7552079160556372';'Q80438575';'20033';'';'91';'Q860861';'Česká Lípa'
'Socha Poutník v ulici Karla Čapka v Děčíně';'Poutník';'6.658227968388348';'Q78792782';'20923';'';'91';'Q179700';'Děčín'
'Plastika Léto v parku v ulici Aloisina výšina';'Květ';'7.7304224604129255';'Q80437902';'589';'';'93';'Q860861';'Liberec'
'Kamenná plastika Květ na rohu ulic Ruská a Ruprechtická v Liberci';'Kamenný květ';'8.66999522004353';'Q94433518';'2248';'';'93';'Q860861';'Liberec'
'Pomník padlým vojákům Ukrajinské haličské armády na vojenském hřbitově v Ruprechticích';'Památník padlým na vojenském hřbitově';'4.463286256049152';'Q94444267';'2660';'';'93';'Q575759';'Liberec'
'Žulová plastika Květ ve Vrchlického ulici v Ruprechticích';'Květ';'1.8144977926348154';'Q80438619';'6344';'';'93';'Q860861';'Liberec'
'Kovová plastika Rodina na rohu ulic Dvorská a Vojtěšská';'Rodina';'2.3961721034734844';'Q80437925';'9332';'';'93';'Q860861';'Liberec'
'Socha Voda před domem Aloisina výšina 54';'Voda';'6.781283458573695';'Q80437906';'10072';'';'93';'Q179700';'Liberec'
'Kamenná plastika Prameník u vysokoškolských kolejí v Starém Harcově';'Prameník před areálem Vysoké školy strojní a textilní';'1.2196914783995123';'Q94433538';'11898';'';'93';'Q860861';'Liberec'
'Kovová plastika Kapka na Tržním náměstí v Liberci';'Plastika před plaveckým stadionem';'5.42039944133665';'Q80438669';'11901';'';'93';'Q860861';'Liberec'
'Plastika Kamenné ořechy v parku v Kmochově ulici v Ruprechticích';'Exteriérová výzdoba pro bytové družstvo Sever';'3.2750358028129924';'Q80438610';'12767';'';'93';'Q860861';'Liberec'
'Figurální plastika u vysokoškolských kolejí ve Starém Harcově';'Figurální plastika před kolejemi Vysoké školy strojní a textilní';'1.896401426363521';'Q94433387';'12959';'';'93';'Q860861';'Liberec'
'Plastika Křídla u minigolfu v Masarykově ulici v Liberci';'Motýlí křídla';'3.877242983326103';'Q80438629';'15817';'';'93';'Q860861';'Liberec'
'Kamenná plastika Brána snů u minigolfu v Masarykově ulici v Liberci';'Brána snů';'6.470761415407201';'Q80438631';'15818';'';'93';'Q860861';'Liberec'
'Kamenná plastika Dvojice v parku v Třešňové ulici v Ruprechticích';'Dvojice';'2.884832384050403';'Q80438622';'15820';'';'93';'Q860861';'Liberec'
'Betonová plastika Rodina v Ruprechtické ulici v Liberci';'Pletence milenců';'9.251302787713104';'Q80438603';'16320';'';'93';'Q860861';'Liberec'
'Kovová plastika Fontány v parku v Rychtářské ulici v Ruprechticích';'Vlajková fontána';'6.080019270453389';'Q80438625';'16322';'';'93';'Q860861';'Liberec'
'Plastika Bitva v parku v Bezové ulici v Nových Pavlovicích';'Bitva';'1.8710134329724057';'Q94443208';'16325';'';'93';'Q860861';'Liberec'
'Kovová plastika Racek u střední školy v Dvorské ulici';'Racek';'3.0044108922001844';'Q80437911';'16328';'';'93';'Q860861';'Liberec'
'Kovová plastika Dobývání kosmu u nákupního centra Luna v ulici Aloisina výšina';'Pocta kosmu';'6.8093015412409175';'Q80437899';'16331';'';'93';'Q860861';'Liberec'
'Kamenná plastika Žena s ratolestí v parku Clam-Gallasů v Liberci';'Žena s ratolestí';'4.991935896411435';'Q80438689';'16333';'';'93';'Q860861';'Liberec'
'Kovová plastika Páv na rohu ulic Vrchlického a Světlá v Ruprechticích';'Páv';'6.453963415513313';'Q94435810';'16335';'';'93';'Q860861';'Liberec'
'Kamenná plastika 12 měsíců v parku Gutenbergova v Liberci';'Dvanáct měsíců';'7.41161552276141';'Q80438646';'16337';'';'93';'Q860861';'Liberec'
'Socha vojáka na vojenském hřbitově v Ruprechticích';'Osvobození';'1.5618631600547044';'Q94448298';'16612';'';'93';'Q179700';'Liberec'
'Kamenná plastika ve Vojtěšské ulici';'Slepička';'2.8009495921890957';'Q80437913';'16616';'';'93';'Q860861';'Liberec'
'Sochy svatého Petra a svatého Pavla na bráně do Zahrady vzpomínek v Liberci';'Medvěd';'8.398323953670257';'Q80438667';'16661';'';'93';'Q179700';'Liberec'
'Soška medvěda v Zahradě vzpomínek v Liberci';'Medvěd';'3.282327404941237';'Q80438665';'16661';'';'93';'Q179700';'Liberec'
'Kamenná plastika Květ na Šaldově náměstí v Liberci';'Mír národům celého světa';'9.246133809897904';'Q80438683';'16663';'';'93';'Q860861';'Liberec'
'Kamenná plastika Květ na Šaldově náměstí v Liberci';'Květ';'8.223986609478946';'Q80438683';'17267';'';'93';'Q860861';'Liberec'
'Pomník Boženy Němcové na náměstí Českých bratří v Liberci';'Pomník Boženy Němcové';'2.4033313489870767';'Q80438691';'18975';'';'93';'Q4989906';'Liberec'
'Kamenná plastika Tři koule v parku v ulici Na Bídě v Liberci';'Exteriérové výzdoba pro bytové domy';'1.0236138182830559';'Q80438644';'18978';'';'93';'Q860861';'Liberec'
'Měděná plastika v Rumjancevově ulici v Liberci';'Abstraktní plastika';'5.584622091609084';'Q80438675';'18981';'';'93';'Q860861';'Liberec'
'Kamenná plastika Stéla v parku ve Školní ulici';'Stéla';'4.023052430618868';'Q80437919';'18982';'';'93';'Q860861';'Liberec'
'Pomník skautingu v Lidových sadech v Liberci';'Kámen vítězů';'2.022170748160938';'Q80438635';'18984';'';'93';'Q4989906';'Liberec'
'Sochy před kinem Hvězda v Kadani';'Rodina';'0.9869238725712921';'Q78794958';'560';'';'71';'Q179700';'Kadaň'
'Socha Budovatelé u nemocnice v Kadani';'Budovatelé';'1.6393691010042244';'Q94444989';'563';'';'71';'Q179700';'Kadaň'
'Keramická plastika Květy městu v ulici 17. listopadu v Klášterci nad Ohří';'"Plastika ""Květy městu"" před nákupním střediskem"';'4.254308532117057';'Q94435769';'1283';'';'71';'Q860861';'Klášterec nad Ohří'
'Socha dívek se slunečnicí u školy v Školní ulici v Kadani';'Skulptura s hrajícími si dětmi ve vstupním prostoru ZDŠ';'0.7464705929462021';'Q94445008';'2237';'';'71';'Q179700';'Kadaň'
'Plastika Věčná píseň mládí u školy v Petlérské ulici v Klášterci nad Ohří';'"Plastika ""Věčná píseň mládí"" před vstupem do základní školy"';'4.507335065428239';'Q94443287';'2244';'';'71';'Q860861';'Klášterec nad Ohří'
'Plastika Jabloňhj s jablky u školky v Olšové ulici v Klášterci nad Ohří';'Strom s jablky v zahradě mateřské školy';'3.3950581432348423';'Q94443218';'4184';'';'71';'Q860861';'Klášterec nad Ohří'
'Socha Rodina v Družební ulici v Ostrově nad Ohří';'Nový život';'1.0408751596556347';'Q78780813';'8643';'';'71';'Q179700';'Ostrov'
'Socha Zlatá brána u školy Na Podlesí v Kadani';'Zlatá brána';'1.501266876845314';'Q94448346';'9053';'';'71';'Q179700';'Kadaň'
'Památník osvobození v roce 1945 ve středu obce Kyselka';'Památník obětem druhé světové války';'5.617922847766761';'Q78780783';'10809';'';'71';'Q5003624';'Kyselka'
'Socha dětí u školy v Krátké ulici v Klášterci nad Ohří';'Děti';'3.431727578682841';'Q94445004';'13921';'';'71';'Q179700';'Klášterec nad Ohří'
'Sousoší nad štítem Domu kultury v Ostrově nad Ohří';'Horník, žnečka a student';'1.9273990742016829';'Q78780810';'17694';'';'71';'Q179700';'Ostrov'
'Sousoší dětí v parku v Klínovecké ulici v Ostrově nad Ohří';'Děti';'1.8493103013606256';'Q78780806';'20147';'';'71';'Q179700';'Ostrov'
'pomník Marie a Petra Curierových';'Památník objevu radia';'9.018411746635119';'Q62273731';'25061';'';'71';'Q4989906';'Jáchymov'
'Sousoší Rodina v Husově ulici v Mimoni';'"Sousoší ""Rodina"" před Domem družby"';'7.869374752165766';'Q80438272';'2096';'';'92';'Q179700';'Mimoň'
'Socha matky s dítětem u nákupního centra v Ještědské ulici';'Matka';'5.123949572418597';'Q80437946';'6019';'';'92';'Q179700';'Liberec'
'Pomník stávek textilních dělníků Schmidtovy továrny';'Na paměť stávek textilních dělníků';'3.007810789396513';'Q36860873';'11072';'';'92';'Q4989906';'Český Dub'
'Kamenná plastika Lidé v parku v Růžodolské ulici';'Lidé';'0.5268863867147552';'Q94433521';'16324';'';'92';'Q860861';'Liberec'
'Lidé bez domova';'Lidé bez domova';'3.87049066196244';'Q96855619';'8465';'';'40';'Q2293362';'Sedlčany'
'Pomník revoluce 1945 s kašnou';'Vítězství revoluce';'4.7563772903810495';'Q37820462';'20653';'';'40';'Q4989906';'Milevsko'
'Socha matky s dítětem v ulici Na Trávníku v Rychnově nad Kněžnou';'Plastika pro sídliště Trávník I';'0.6253090125082107';'Q66220060';'2889';'';'61';'Q179700';'Rychnov nad Kněžnou'
'Socha múzy na Poláčkově náměstí v Rychnově nad Kněžnou';'Sedící žena';'0.36300645460126396';'Q66220127';'7537';'';'61';'Q179700';'Rychnov nad Kněžnou'
'Socha Zdeňka Nejedlého';'Pomník Zdeňka Nejedlého';'4.72509301454927';'Q37464992';'9538';'';'61';'Q179700';'Litomyšl-Město'
'Socha Hudba';'"Socha ""Hudba"" před podnikem Oseva"';'4.520129797463627';'Q65665613';'11314';'';'61';'Q179700';'Litomyšl'
'Pomník padlým v Týništi nad Orlicí';'Pomník osvobození';'1.5653757121626375';'Q94444400';'19023';'';'61';'Q575759';'Týniště nad Orlicí'
'Pomník padlým v Kostelci nad Orlicí';'Památník obětem světových válek';'8.02907175801471';'Q66219941';'21802';'';'61';'Q575759';'Kostelec nad Orlicí'
'Plastika v Javornici';'Plastika před ZDŠ';'0.24146603839773972';'Q94443292';'21801';'';'62';'Q860861';'Javornice'
'Pomník padlým 9 května 1945 v Letohradě';'Pomník sovětských hrdinů';'4.534710145719101';'Q94443872';'23365';'';'62';'Q575759';'Letohrad'
'Pamětní deska Augusta Seydlera na Masarykově náměstí v Žamberku';'Pamětní deska dr. Augustina Seydlera';'8.234656583094477';'Q66106058';'23370';'';'62';'Q721747';'Žamberk'
'Pamětní deska Marie Hübnerové ve Slatině nad Zdobnicí';'Pamětní deska Marie Hübnerové';'6.678856169204803';'Q66219994';'24768';'';'62';'Q721747';'Slatina nad Zdobnicí'
'Kamenná plastika u katastrálního úřadu v Havlíčkově Brodě';'Plastika před budovou Geodézie';'5.918433940573014';'Q67180578';'963';'';'43';'Q860861';'Havlíčkův Brod'
'Pomník padlých';'Památník padlým';'7.152697877650857';'Q37272355';'2422';'';'43';'Q4989906';'Havlíčkův Brod'
'Dívka z pískovce';'Pískovcová skulptura v prostoru před nádražím';'3.9179002790026165';'Q98224676';'7536';'';'43';'Q179700';'Přibyslav'
'Pomník padlých';'Reliéfy pro památník padlým';'7.152697877650857';'Q37272355';'9221';'';'43';'Q4989906';'Havlíčkův Brod'
'Sloupová plastika s keramickým reliéfem u nádraží v Havlíčkově Brodě';'Keramický sloup před budovou nádraží';'7.394437811083129';'Q67180611';'12706';'';'43';'Q860861';'Havlíčkův Brod'
'Památník vojákům Rudé armády na Náměstí Svobody v Jihlavě';'Pomník vítězství rudé armády';'2.5092749832409096';'Q67180754';'16692';'';'43';'Q5003624';'Jihlava'
'Památník padlých partyzánů';'Památník padlých partyzánů';'2.490986143829042';'Q37453923';'24613';'';'43';'Q5003624';'Leškovice'
'pamětní deska na č.p. 6';'Pamětní desky popravených rukojmí z Rohozné';'4.110031073775945';'Q62075650';'24720';'';'43';'Q721747';'Trhová Kamenice'
'Pomník-deska padlým v 1.světové válce na muzeu v Bystřici nad Pernštejnem';'Pamětní deska Rudolfa Vaška';'4.576921499821337';'Q67180533';'3263';'';'44';'Q575759';'Bystřice nad Pernštejnem'
'Pamětní deska obětem komunismu na muzeu v Bystřici nad Pernštejnem';'Pamětní deska Rudolfa Vaška';'8.130847334774987';'Q67180531';'3263';'';'44';'Q721747';'Bystřice nad Pernštejnem'
'Pamětní deska Edmunda Fišy na muzeu v Bystřici nad Pernštejnem';'Pamětní deska Rudolfa Vaška';'2.1623143438531263';'Q67180532';'3263';'';'44';'Q721747';'Bystřice nad Pernštejnem'
'Kovová plastika u Komerční banky na Havlíčkově náměstí ve Žďáru nad Sázavou';'Plastika před budovou banky';'0.7918739766894701';'Q67180466';'3418';'';'44';'Q860861';'Žďár nad Sázavou'
'Socha ženy před poliklinikou v Žďáru nad Sázavou';'Socha před zdravotnickým střediskem';'0.9356338743192114';'Q67180465';'6756';'';'44';'Q179700';'Žďár nad Sázavou'
'Reliéf na průčelí Městského divadla v Žďáru nad Sázavou';'Můzy';'2.444151886443135';'Q67180429';'7221';'';'44';'Q245117';'Žďár nad Sázavou'
'Pomník obětem 2. světové války v Křižanově';'Památník obětem II. světové války';'5.662310091862435';'Q94443713';'7745';'';'44';'Q5003624';'Křižanov'
'Socha Vysočina ve vnitrobloku u náměstí Republiky v Žďáru nad Sázavou';'Vysočina II';'0.8262805162072631';'Q67180443';'8150';'';'44';'Q179700';'Žďár nad Sázavou'
'Socha Úroda před zemědělskou školou v Bystřici nad Pernštejnem';'Úroda';'1.4035544623067802';'Q67180543';'12164';'';'44';'Q179700';'Bystřice nad Pernštejnem'
'Socha Rudoarmějce';'Pomník Rudé armády';'1.8029070960596487';'Q68360482';'20267';'';'44';'Q4989906';'Žďár nad Sázavou'
'Pamětní deska Ivana Sekaniny na domě Vratislavovo náměstí 119 v Novém Městě na Moravě';'Portrét Dr. Ivana Sekaniny pro pamětní desku';'8.535147204380547';'Q67180515';'21452';'';'44';'Q721747';'Nové Město na Moravě'
'partyzánský památník';'Partyzánský památník';'3.829359298149431';'Q97319721';'23290';'';'44';'Q5003624';'Cikháj'
'Památník partyzánů u vrcholku Metodka severně od Koníkova';'Pomník partyzánům';'6.3499163394360885';'Q67180626';'23296';'';'44';'Q5003624';'Věcov'
'Socha Děvče z Vysočiny u staré radnice na náměstí Republiky v Žďáru nad Sázavou';'Děvčátko z Vysočiny';'6.704925252431411';'Q67180447';'23909';'';'44';'Q179700';'Žďár nad Sázavou'
'Socha Dívka s holubicí u městské knihovny v Žďáru nad Sázavou';'Dívka s holubicí';'4.784070072921003';'Q67180452';'23910';'';'44';'Q179700';'Žďár nad Sázavou'
'Socha Delfín na náměstí Republiky v Žďáru nad Sázavou';'Delfín';'1.1077298494649972';'Q67180444';'23911';'';'44';'Q179700';'Žďár nad Sázavou'
'Socha hutníka vlevo před průmyslovou školou v Studentské ulici v Žďáru nad Sázavou';'Hutník a strojník';'6.887227062007978';'Q67180462';'23912';'';'44';'Q179700';'Žďár nad Sázavou'
'Socha svářeče vpravo před průmyslovou školou v Studentské ulici v Žďáru nad Sázavou';'Hutník a strojník';'5.958271180655345';'Q67180460';'23912';'';'44';'Q179700';'Žďár nad Sázavou'
'Pomník osvobození na Masarykově náměstí v Bystřici nad Pernštejnem';'Památník osvobození';'0.7890081844605342';'Q67180523';'23923';'';'44';'Q4989906';'Bystřice nad Pernštejnem'
'Socha Matka s dítětem u školy v Nádražní ulici v Bystřici nad Pernštejnem';'Matka s dítětem';'0.901466474737816';'Q67180520';'23924';'';'44';'Q179700';'Bystřice nad Pernštejnem'
'Pomník-deska padlým v 1.světové válce na muzeu v Bystřici nad Pernštejnem';'Pamětní deska obětem II. světové války';'6.452415651642113';'Q67180533';'24289';'';'44';'Q575759';'Bystřice nad Pernštejnem'
'Pamětní deska obětem komunismu na muzeu v Bystřici nad Pernštejnem';'Pamětní deska obětem II. světové války';'8.02382867912613';'Q67180531';'24289';'';'44';'Q721747';'Bystřice nad Pernštejnem'
'Pamětní deska Edmunda Fišy na muzeu v Bystřici nad Pernštejnem';'Pamětní deska obětem II. světové války';'4.491528048982735';'Q67180532';'24289';'';'44';'Q721747';'Bystřice nad Pernštejnem'
'Socha ženy s dítětem v Hořicích';'Mládí';'7.54847195040015';'Q94448361';'3757';'';'77';'Q179700';'Hořice'
'Sousoší sestry s dítětem, Dětská léčebna Vesna';'Zdraví dětem';'6.06646239515503';'Q80025400';'5566';'';'77';'Q2293362';'Janské Lázně'
'Pamětní deska J. Hanuše';'Pamětní deska s bustou Josefa Hanuše';'0.633323903651872';'Q37323767';'7477';'';'77';'Q721747';'Jilemnice'
'Dívka s chlebem';'Dívka s chlebem';'7.970780579146125';'Q84030031';'9226';'';'77';'Q179700';'Hostinné'
'Pamětní deska Karla Klíče v Hostinném';'Pamětní deska K. V. Klíče';'4.2449731362755525';'Q94441825';'19306';'';'77';'Q721747';'Hostinné'
'Sousoší sestry s dítětem, Dětská léčebna Vesna';'Pamětní deska pro léčebnu Vesna';'6.197234147622927';'Q80025400';'20090';'';'77';'Q2293362';'Janské Lázně'
'Socha motocyklového závodníka v Hořicích';'Motocyklista';'7.00186481694305';'Q94447232';'22885';'';'77';'Q179700';'Hořice'
'Busta Eduarda Štorcha v Ostroměři';'Busta Eduarda Štorcha';'0.18059639644704928';'Q66221539';'22910';'';'77';'Q5003624';'Ostroměř'
'Kamenná plastika v parku u autobusového nádraží v Jilemnici';'Socha pro objekt občanské vybavenosti';'7.077894941962851';'Q80436890';'23253';'';'77';'Q860861';'Jilemnice'
'Pomník letce Františka Truhláře u autobusového nádraží v Lomnici nad Popelkou';'Matka';'9.568944370203374';'Q80439025';'2808';'';'76';'Q4989906';'Lomnice nad Popelkou'
'Kovová plastika v Městském parku v Turnově';'Ruce s krystalem';'2.8974521553319112';'Q94435831';'10004';'';'76';'Q860861';'Turnov'
'Kovová plastika před školou v Jizerské ulici v Semilech';'Plastika pro ZŠ Kolora';'5.19213191903782';'Q80438521';'12069';'';'76';'Q860861';'Semily'
'Pamětní deska Vratislava Šantrocha na budově radnice v Rovensku pod Troskami';'Pamětní desky obětem fašismu';'9.674336028455254';'Q80437488';'13770';'';'76';'Q721747';'Rovensko pod Troskami'
'Socha dr. Františka Ladislava Riegra';'Pamětní desky pro pomník Fr. L. Riegra';'1.154148353301479';'Q38094944';'13787';'';'76';'Q179700';'Semily'
'Sousoší Ivana Olbrachta a Antala Staška v Bítouchovské ulici v Semilech';'Pomník Ivana Olbrachta a Antala Staška';'2.738159425135795';'Q80438529';'19500';'';'76';'Q179700';'Semily'
'Sousoší Antala Staška a Ivana Olbrachta';'Pomník Ivana Olbrachta a Antala Staška';'1.3854973584577672';'Q38094974';'19500';'';'76';'Q2293362';'Semily'
'Pomník padlým rudoarmějcům u hřbitova v Sobotce';'Pomník padlým Rudoarmějcům';'1.9199965843321323';'Q66221284';'20857';'';'76';'Q575759';'Sobotka'
'Busta Fráni Šrámka';'Busta Fráni Šrámka';'1.6721083116585935';'Q38134768';'20858';'';'76';'Q860861';'Sobotka'
'Pamětní deska Fráni Šrámka na náměstí Míru v Sobotce';'busta Fráni Šrámka';'8.285981460251948';'Q66221271';'20859';'';'76';'Q721747';'Sobotka'
'Pomník padlým rudoarmějcům v parku pod vrchem Čeřovka v Jičíně';'Pomník padlým Rudoarmějcům';'1.4737383293364898';'Q66219411';'21212';'';'76';'Q575759';'Jičín'
'Foersterův pomník v ulici pod Čeřovkou v Jičíně';'Busta J. B. Foerstera';'4.12307556738192';'Q66219408';'21216';'';'76';'Q4989906';'Jičín'
'Socha Matka a dítě v parku Ostrov v Semilech';'Matka s dítětem';'2.7118284035822784';'Q80438543';'23091';'';'76';'Q179700';'Semily'
'Socha rebela - rychtář Nývlt';'Pomník k 200. výročí selského povstání';'4.3254911719186975';'Q38092875';'2887';'';'78';'Q179700';'Rtyně v Podkrkonoší'
'Pomník padlým 1938-1945 v Albieriho ulici v Jaroměři';'Rudoarmějec';'0.9756778381099653';'Q66220459';'5567';'';'78';'Q575759';'Jaroměř'
'Pomník obětem fašismu';'Památník obětem 2. světové války';'0.7356940377072886';'Q37001918';'14247';'';'78';'Q4989906';'Batňovice'
'';'Socha Bedřicha Smetany';'1.0457717125140618';'Q98150655';'20424';'';'78';'Q179700';'Nové Město nad Metují'
'Plastika před obchodním domem v České Skalici';'Abstraktní plastika před nákupním centrem';'9.75930711996922';'Q66226125';'21685';'';'78';'Q860861';'Česká Skalice'
'Pomník Františka Kupky na Kupkově náměstí v Opočně';'Pomník dělnického a revolučního hnutí';'3.3197591078437236';'Q66221430';'21805';'';'78';'Q4989906';'Opočno'
'Plastika v areálu MŠ v Pardubicích na sídlišti Dubina';'Strom';'9.7265216755814';'Q66106638';'986';'';'60';'Q860861';'Pardubice'
'Socha ženy s košem ovoce před hotelem Černigov v Hradci Králové';'Plastika před hotel Černigov';'6.343871710630051';'Q66220928';'2616';'';'60';'Q179700';'Hradec Králové'
'socha Loutkáře';'Pomník českého loutkářství';'1.0709152711957066';'Q33659169';'2640';'';'60';'Q179700';'Chrudim IV'
'Plastika Nový život v Pardubicích v ulici Na Třísle';'Nový život';'2.7838380228829758';'Q66106649';'2673';'';'60';'Q860861';'Pardubice'
'Socha Vítěze před budovou gymnázia Josefa Kajetána Tyla v Hradci Králové';'Pamětní deska na budově Gymnázia J. K. Tyla';'7.063534992878311';'Q66220915';'4060';'';'60';'Q179700';'Hradec Králové'
'Pomník Osvobození';'Pomník obětem I. a II. světové války';'5.042898924959837';'Q38227895';'16342';'';'60';'Q4989906';'Zelené Předměstí'
'Socha Hokejista v Pardubicích před zimním stadionem';'Hokejista';'9.387996270723901';'Q66106743';'16344';'';'60';'Q179700';'Pardubice'
'Pomník obětem první a druhé světové války Pěsti a květy v Pardubicích za Wonkovým mostem';'Pěsti a květiny';'5.877120541425221';'Q66106724';'16556';'';'60';'Q575759';'Pardubice'
'Plastika Pupeny v Pardubicích v ulici Kosmonautů';'Pupeny – plody hojnosti';'0.1432393115898719';'Q66106744';'16557';'';'60';'Q860861';'Pardubice'
'Pomník Václava Bubeníka v Pardubicích v Bubeníkových sadech';'Den a noc';'3.5773316335105747';'Q66106648';'16802';'';'60';'Q4989906';'Pardubice'
'Pomník Václava Bubeníka v Pardubicích v Bubeníkových sadech';'Prolézačka pro Sady pionýrů';'3.5773316335105747';'Q66106648';'16803';'';'60';'Q4989906';'Pardubice'
'umělecká plastika kočky před Dětským denním rehabilitačním stacionářem v Hradci Králové';'Kočka';'2.934898381572843';'Q66221054';'18170';'';'60';'Q860861';'Hradec Králové'
'Pomník šesti rudoarmějcům';'Pomník padlým Rudoarmějcům';'9.895977497806165';'Q37447526';'18184';'';'60';'Q4989906';'Kukleny'
'Plastika Milenci u Klicperova divadla v Hradci Králové';'Milenci';'6.495197252259552';'Q66220949';'18195';'';'60';'Q860861';'Hradec Králové'
'Socha Květ Polabí na třídě SNP v Hradci Králové';'Květ Polabí';'3.342524026428475';'Q66221072';'18223';'';'60';'Q860861';'Hradec Králové'
'Betonový monument s nápisem "Lid je hlavním tvůrcem dějin" v Sukových sadech v Hradci Králové';'Galerie cti';'7.476847477803897';'Q66220923';'18345';'';'60';'Q5003624';'Hradec Králové'
'Pamětní deska s bustou prof. Jiřího Purkyně';'Pamětní deska prof. Jiřího Purkyně';'4.082654151033939';'Q37291225';'21039';'';'60';'Q721747';'Hradec Králové'
'Pomník protifašistických bojovníků';'Socha dívky z památníku obětem II. sv. války';'5.199997311986834';'Q37461005';'24729';'';'60';'Q4989906';'Licoměřice'
'Transport síly';'Transport síly';'8.109571523028919';'Q33656729';'24738';'';'60';'Q860861';'Chrudim IV'
'Pomník obětem II. světové války';'Památník padlým ve 2. světové válce';'4.359942652324501';'Q37026376';'2412';'';'45';'Q4989906';'Bystré'
'pomník obětem fašismu';'Památník obětem boje proti fašismu';'5.23195973418266';'Q51526058';'3276';'';'45';'Q4989906';'Doubravník'
'Pomník obětem fašismu';'Pamětní deska na památníku obětem fašismu';'6.431754394370523';'Q37322065';'5867';'';'45';'Q4989906';'Jevíčko'
'Socha ženy u obchodního domu v Nedvědicích';'Energie života';'1.0875127827382742';'Q69311320';'13233';'';'45';'Q179700';'Nedvědice'
'Pomník Osvobození v Moravské Třebové v parku U muzea';'Pomník Osvobození s plastikou Rudoarmejce';'2.9941926696205416';'Q94443836';'21170';'';'45';'Q5003624';'Moravská Třebová'
'Pomník padlým na náměstí v Lomnici';'Památník obětem světových válek';'3.4854843869421552';'Q94443896';'24340';'';'45';'Q575759';'Lomnice'
'pomník obětem světových válek';'Památník obětem světových válek';'8.997024433810305';'Q56025283';'24340';'';'45';'Q4989906';'Lomnice'
'pamětní deska Josefa Uhra';'Pamětní deska Josefa Uhra';'8.644727549951096';'Q51664470';'25068';'';'45';'Q721747';'Borač'
'Socha Karla Klostermanna u parkoviště ve středu Javorníku';'Socha Karla Klostermanna';'5.048127447449585';'Q80457234';'23446';'';'21';'Q179700';'Vacov'
'pomník Jurije Gagarina';'Pomník Jurije Gagarina';'1.4764198826971617';'Q89255094';'1150';'';'53';'Q5003624';'Karlovy Vary'
'Sloup s plastikou Myšlenka a hmota před chemičkou v Sokolově';'Myšlenka a hmota';'0.6177582242650057';'Q78780603';'6792';'';'53';'Q38395546';'Sokolov'
'památník padlým';'Pomník obětem 1. a 2. světové války';'4.652256481624861';'Q97385611';'10092';'';'53';'Q575759';'Dolní Žandov'
'Pomník ženského koncentračního tábora';'Památník obětem ženského koncentračního tábora Svatava';'8.687589667870794';'Q38141044';'13416';'';'53';'Q4989906';'Svatava'
'Kamenná plastika Holubice v ulici Spartakiádní v Sokolově';'Holubice';'6.75530013107774';'Q78780620';'13981';'';'53';'Q860861';'Sokolov'
'Kamenná plastika II v zahradě u kina Alfa v Sokolově';'Organický tvar II před kinem Karpinsk';'3.1998585166892846';'Q78780610';'14042';'';'53';'Q860861';'Sokolov'
'Kamenná plastika v zahradě u kina Alfa v Sokolově';'Organický tvar II před kinem Karpinsk';'9.738974670849098';'Q78780613';'14042';'';'53';'Q860861';'Sokolov'
'Památník bitvy u Sokolova na křižovatce ulic Rokycanova a Rooseweltova v Sokolově';'Pomník bitvy u Sokolova';'8.610748999838295';'Q78780670';'14134';'';'53';'Q5003624';'Sokolov'
'Památník osvobození v Pernarci';'Památník osvobození';'5.012645448092727';'Q66054873';'1176';'';'54';'Q5003624';'Pernarec'
'Socha Rodina v parku u kostela Povýšení svatého Kříže v čtvrti Rybáře';'Rodina';'5.192496494095172';'Q94447492';'5910';'';'70';'Q179700';'Karlovy Vary'
'Hrob obětí 2. světové války';'Pietní pomník v areálu hřbitova';'2.1767048656683836';'Q23929360';'12756';'';'70';'Q4989906';'Jáchymov'
'Socha Dvě ženy před knihovnou v čtvrti Rybáře';'Pokrok a mír';'3.836060853427383';'Q94446032';'13914';'';'70';'Q179700';'Karlovy Vary'
'Pomník Karla Marxe';'Karel Marx';'2.607715939878337';'Q89325994';'21338';'';'70';'Q5003624';'Karlovy Vary'
'Socha Karla Marxe v ulici Petra Velikého v Karlových Varech';'Karel Marx';'0.0';'Q78780487';'21338';'';'70';'Q179700';'Karlovy Vary'
'Památník tankové operace z 16.4.1945 u Staroviček';'Památník družby s nápisovými deskami';'1.966038129783798';'Q69312999';'3620';'';'12';'Q5003624';'Starovičky'
'Pomník padlým při bojích o Podivín';'Pomník obětem 2. světové války';'4.462943362358946';'Q69312275';'23616';'';'12';'Q575759';'Podivín'
'Socha rudoarmějce';'Památník osvobození';'4.619713966300009';'Q37453220';'24433';'';'12';'Q179700';'Lanžhot'
'památník obětem salašské tragédie';'Památník partyzánskému oddílu Olga';'2.6240504479382456';'Q97143028';'11503';'';'30';'Q5003624';'Salaš'
'Pomník obětem II. světové války';'Památník osvobození';'0.06730844280101664';'Q38150780';'21019';'';'30';'Q4989906';'Uherské Hradiště'
'Pomník Rudé armády';'Pomník obětem II. světové války';'1.4233008204731488';'Q37448698';'23529';'';'30';'Q4989906';'Kunovice'
'';'Pomník Jana Amose Komenského';'0.18982483420539722';'Q98150810';'8831';'';'13';'Q179700';'Strážnice'
'pomník Eduarda Urxe';'Pomník Eduarda Urxe';'5.265311736668931';'Q46996058';'10690';'';'13';'Q4989906';'Velká nad Veličkou'
'Pomník Rudé armády';'Pomník Rudé armády';'1.7968599137464263';'Q38193197';'3177';'';'29';'Q4989906';'Vyškov'
'Rodina';'"Sousoší ""Rodina"" pro centrum sídliště"';'8.189715191385487';'Q64131038';'24204';'';'29';'Q179700';'Mokrá'
'Socha Rudoarmějce';'Rudoarmějec';'1.625397835048775';'Q58079286';'2133';'';'28';'Q179700';'Adamov'
'Socha Rudoarmějce';'Deska se znakem Adamova';'1.5027753260801975';'Q58079286';'4298';'';'28';'Q179700';'Adamov'
'Socha Rudoarmějce';'Pamětní deska zaměstnanců strojíren';'1.3279975882858326';'Q58079286';'7650';'';'28';'Q179700';'Adamov'
'Plastika Otec s dítětem v Adamově';'Otec a děvčátko';'1.3996264670300749';'Q69312302';'8711';'';'28';'Q860861';'Adamov'
'pomník vítězství Rudé armády nad nacismem';'Pomník sovětské armády';'1.19695312559926';'Q29963847';'19721';'';'28';'Q5003624';'Brno-město'
'Růže';'Růže k poctě sochaři Vincenci Makovskému';'3.1188219990723907';'Q29963997';'20873';'';'28';'Q860861';'Žabovřesky'
'Socha rudoarmějce';'Památník osvobození';'0.3074073707940358';'Q38049196';'21086';'';'28';'Q179700';'Pohořelice'
'Socha Rudoarmějce';'Rudoarmějec';'5.738666060870312';'Q38230122';'23092';'';'28';'Q179700';'Šlapanice'
'Socha Poezie na Bakalově nábřeží v Brně';'Poezie';'1.1234996497344192';'Q94447464';'23782';'';'28';'Q179700';'Brno'
'Památník dělnického hnutí';'Památník založení dělnického hnutí';'5.756768015611331';'Q13407891';'23783';'';'28';'Q4989906';'Brno-Židenice'
'pomník vojákům Rudé armády';'Památník Osvobození';'2.696393693508391';'Q57197915';'24056';'';'28';'Q4989906';'Kuřim'
'pamětní deska Adolfa Tesaře';'"Pamětní	deska Adolfa Tesaře"';'6.886700810408392';'Q51954359';'24958';'';'28';'Q721747';'Ivančice'
'Busta Josefa Hybeše';'Busta Josefa Hybeše';'7.3476133625881275';'Q38042651';'24971';'';'28';'Q860861';'Oslavany'
'pomník vojákům Rudé armády';'Pomník vojákům Rudé armády';'2.2250708689741105';'Q51367419';'25070';'';'28';'Q4989906';'Čebín'
'pomník vojákům Rudé armády';'Památník osvobození';'5.248731484480537';'Q57262419';'25071';'';'28';'Q4989906';'Lažánky'
'Pomník osvoboditelům na náměstí Na Městečku ve Veverské Bítýšce';'Památník osvobození';'1.4523693709331469';'Q69311399';'25098';'';'28';'Q4989906';'Veverská Bítýška'
'Pomník padlým v Mohelnici na hřbitově';'Památník obětem fašismu';'3.7298121106078144';'Q94444235';'5376';'';'46';'Q575759';'Mohelnice'
'Socha Jiřího Wolkera';'Pomník Jiřího Wolkera';'9.115491216435588';'Q38051260';'19732';'';'46';'Q179700';'Prostějov'
'Sousoší v Uničově na ulici Dukelská';'Letní podvečer';'0.546033091553271';'Q94448595';'20981';'';'46';'Q179700';'Uničov'
'Pomník T. G. Masaryka v Uničově na Masarykově náměstí';'Busta T. G. Masaryka';'7.5055392893753785';'Q72738825';'20986';'';'46';'Q4989906';'Uničov'
'Pomník osvoboditelům v Mohelnici na Okružní ulici';'Památník osvobození města Mohelnice';'0.8904693562388534';'Q72738835';'23127';'';'46';'Q575759';'Mohelnice'
'Socha Jana Amose Komenského v Mohelnici na Mlýnské ulici';'Pomník J. A. Komenského';'1.2424060038881255';'Q72738838';'23129';'';'46';'Q179700';'Mohelnice'
'Pomník obětem fašismu';'Pomník obětem fašismu';'8.49363690310651';'Q37853386';'23216';'';'46';'Q4989906';'Mírov'
'Památník Agrostroje v Prostějově';'Kašna';'6.123905256514526';'Q72742008';'23724';'';'46';'Q5003624';'Prostějov'
'Socha Petra Bezruče v Kostelci na Hané v Tyršově ulici';'Pomník Petra Bezruče';'1.1472107152877509';'Q72741204';'23725';'';'46';'Q179700';'Kostelec na Hané'
'Památník obětem okupace Varšavskou smlouvou v Prostějově';'"Plastika ""Sputnik"""';'4.02600829963568';'Q72742015';'23726';'';'46';'Q5003624';'Prostějov'
'Pomník';'Památník československo-sovětského přátelství';'4.217990277385613';'Q38228425';'13160';'';'10';'Q4989906';'Znojmo'
'Socha rudoarmějce';'Pomník Rudé armády ve Znojmě';'1.1249840592272669';'Q38228331';'19730';'';'10';'Q179700';'Znojmo'
'Pomník Osvobození';'Památník osvobození';'2.8388226891064785';'Q38046427';'24425';'';'10';'Q4989906';'Přímětice'
'památník všem obětem hornické práce';'Havíř s kvádrem';'8.737267647709746';'Q98184129';'21885';'';'67';'Q5003624';'Karviná'
'Památník životické tragedie v Životicích';'Památník životické tragédie';'1.060124961773444';'Q72850025';'19660';'';'50';'Q5003624';'Havířov'
'Noční přechod, památník partyzánského hnutí';'Noční přechod';'2.18033470867305';'Q37852734';'20782';'';'50';'Q4989906';'Morávka'
'Socha Nová Opava';'Nová Opava';'4.346175994751983';'Q38040885';'5092';'';'65';'Q179700';'Opava'
'Sousoší Radost ze života v Krnově v ulici Svatého Ducha';'Radost ze života';'1.3366867171995633';'Q94448548';'23332';'';'65';'Q179700';'Krnov'
'Pomník 1. československé smíšené letecké divize';'Památník 1. československé smíšené letecké divize v SSSR';'8.248545930350781';'Q37851952';'18125';'';'66';'Q4989906';'Moravská Ostrava'
'Pomník osvobození Rudou armádou';'Památník osvobození';'8.221587562934266';'Q20479896';'18702';'';'66';'Q4989906';'Ostrava'
'Plastika v parku nad pitným pavilonem v Karlově Studánce';'Bílá Opava';'0.7952615780025979';'Q72850085';'3461';'';'64';'Q860861';'Karlova Studánka'
'Socha ženy v ulici Úvoz v Rýmařově';'Karyatida míru';'5.812292598021072';'Q94448377';'9886';'';'64';'Q179700';'Rýmařov'
'Plastika Chráněné krajinné oblasti Jeseníky u Pitného pavilonu v Karlově Studánce';'Památník chráněné oblasti Jeseníky';'1.5150540416129588';'Q72850038';'19650';'';'64';'Q860861';'Karlova Studánka'
'Plastika před kinem Cíl na náměstí svatého Michaela v Bruntálu';'Památník obětem komunismu';'6.862812004461846';'Q94443247';'20407';'';'64';'Q860861';'Bruntál'
'Pomník osvoboditelům v Rýmařově v ulici Julia Sedláka v Rýmařově';'Památník Osvoboditelům';'6.582768273970695';'Q72850092';'23337';'';'64';'Q575759';'Rýmařov'
'Pomník Františka Rasche';'Pomník Františka Rasche';'1.9202873822204671';'Q42191076';'10803';'';'47';'Q4989906';'Přerov I-Město'
'Pomník Lenina a Stalina';'Sousoší V. I. Lenina a J. V. Stalina';'6.436144497753604';'Q12046319';'18239';'';'47';'Q4989906';'Olomouc'
'Pomník popraveným účastníkům přerovského povstání';'Pomník popraveným účastníkům Přerovského povstání';'3.5777753543486734';'Q38040277';'24583';'';'47';'Q4989906';'Olomouc'
'Busta Tomáše Garrigua Masaryka v Šumperku na Masarykově náměstí';'Výtvarně architektonické řešení busty T.G.M';'6.528666036458483';'Q72738214';'20491';'';'63';'Q4989906';'Šumperk'
'Plastika ženy na okraji Zábřeha';'"Mozaika ""Probuzený kraj"""';'3.7423715804445186';'Q94443331';'20566';'';'63';'Q860861';'Zábřeh'
'Pomník padlým v Postřelmově';'Atypická výplň dveří pro místní národní výbor';'5.587092095740696';'Q72741343';'20596';'';'63';'Q575759';'Postřelmov'
'Skřítek v sedle Skřítek';'Skřítek';'2.5313868294043993';'Q72740902';'23356';'';'63';'Q860861';'Sobotín'
'Pomník padlým v Zábřehu na Postřelmovské ulici';'Pomník padlým';'1.7624228250221134';'Q72738793';'25281';'';'63';'Q575759';'Zábřeh'
'Socha Mateřství u školky v Kollárově ulici v Bohosudově';'Mateřství';'8.613043349947544';'Q94447188';'4314';'';'90';'Q179700';'Krupka'
'Socha Dar přírody v ulici V Závětří v Trnovanech';'Dar přírody';'0.719858486976961';'Q94444996';'6834';'';'90';'Q179700';'Teplice'
'Betonová plastika Ježek v parku Republiky v Ústí nad Labem';'Dětská prolézačka';'3.1155735501732025';'Q78782014';'6900';'';'90';'Q860861';'Ústí nad Labem'
'Kamenná plastika v Alešově ulici v Klíši';'"Plastika ""Klíčení"" ve vstupním prostoru samoobsluhy"';'9.327499969949802';'Q78790542';'7058';'';'90';'Q860861';'Ústí nad Labem'
'Socha Ležící žena před vysokoškolskými kolejemi na Klíši';'Ležící žena';'3.123058923877308';'Q78792494';'9136';'';'90';'Q179700';'Ústí nad Labem'
'Travertinová plastika Ráno u domova pro seniory Na Výšině v Dubí';'Ráno';'0.8070504809717528';'Q78782017';'9177';'';'90';'Q860861';'Dubí'
'Sochy dětí u dětského hřiště v Malátově ulici v Ústí nad Labem';'Sousoší pro Sad míru';'4.754390687509329';'Q78792488';'9204';'';'90';'Q179700';'Ústí nad Labem'
'Sousoší Přátelství v ulici Dukelských hrdinů v Maršově';'Přátelství';'0.8459583298814537';'Q94448545';'9924';'';'90';'Q179700';'Krupka'
'Plastika Labe u obchodního domu Labe v Ústí nad Labem';'Plastika před obchodní dům Labe';'1.7989824860797692';'Q78790231';'9954';'';'90';'Q860861';'Ústí nad Labem'
'Sousoší v Ústí nad Labem u Lidického náměstí';'Rodina';'2.03332391983127';'Q78796317';'11581';'';'90';'Q179700';'Ústí nad Labem'
'Betonová plastika Strom poznání u školy Kamenný vrch na Střekově';'Strom poznání';'3.9339802882879216';'Q78789219';'11964';'';'90';'Q860861';'Ústí nad Labem'
'Socha Žena s růží v Truhlářově ulici na Střekově';'Léto';'4.161478054343455';'Q78792295';'11965';'';'90';'Q179700';'Ústí nad Labem'
'Socha Klukovská rvačka v parku Severní Terasa v Ústí nad Labem';'Hra dětí';'2.2995023260455407';'Q78792414';'11967';'';'90';'Q179700';'Ústí nad Labem'
'Socha Hudba v parku Severní Terasa v Ústí nad Labem';'Hudba';'1.891115984410031';'Q78792408';'11968';'';'90';'Q179700';'Ústí nad Labem'
'Kamenné plastiky v parku v ulici Vojanova v Krásném Březně';'Odpočívadlo a rozcestník';'0.3073734502421209';'Q78794055';'13865';'';'90';'Q860861';'Ústí nad Labem'
'Keramická plastika u domu Teplická 186 v Bynově';'Keramický sloup pro nákupní středisko - Bynov II';'3.6387180627381426';'Q94435781';'20096';'';'90';'Q860861';'Děčín'
'Socha ženy na terase u pošty v Bynově';'Žena';'0.9545836789782155';'Q94448358';'20098';'';'90';'Q179700';'Děčín'
'Sochy v dolní části průčelí kostela svatého Vojtěcha v Ústí nad Labem';'Vyřezávaná vrata kostela sv. Vojtěcha';'0.623993310026566';'Q78790156';'21271';'';'90';'Q179700';'Ústí nad Labem'
'Sochy v horní části průčelí kostela svatého Vojtěcha v Ústí nad Labem';'Vyřezávaná vrata kostela sv. Vojtěcha';'3.062225964259279';'Q78790160';'21271';'';'90';'Q179700';'Ústí nad Labem'
'Kamenná plastika Zákon před Krajským soudem v Ústí nad Labem';'Skulptura před Palácem Justice';'6.079939702315643';'Q78792350';'21574';'';'90';'Q860861';'Ústí nad Labem'
'Socha Mateřství v parku Severní Terasa v Ústí nad Labem';'Mateřství';'1.5008681804862856';'Q78790544';'21660';'';'90';'Q179700';'Ústí nad Labem'
'Betonové plastiky s mozaikami pohádek u školy v Edisonově ulici v Trnovanech';'Pohádky – pět figurálních panelů s mozaikovou výzdobou';'4.348072054423491';'Q78790541';'22298';'';'90';'Q860861';'Teplice'
'Sousoší Dětský karneval u školy v Maršovské ulici v Trnovanech';'Dětský karneval';'3.8248629917188404';'Q94448430';'22621';'';'90';'Q179700';'Teplice'
'Mozaiková plastika u školky v ulici Větrná v Ústí nad Labem';'České a ruské pohádky';'4.118872036515354';'Q78790357';'22692';'';'90';'Q860861';'Ústí nad Labem'
'Betonové stély s mozaikami u zdravotního střediska v Kmochově ulici v Ústí nad Labem';'Čtyři figurální panely s mozaikovou výzdobou';'3.179085166300551';'Q78790540';'23289';'';'90';'Q860861';'Ústí nad Labem'
'Keramická plastika Páv v zahradě školy v Školní ulici na Bukově';'Soubor zahradních plastik v mateřské škole';'2.098216911900896';'Q78790311';'24863';'';'90';'Q860861';'Ústí nad Labem'
'Pomník Obětem 1. a 2. světové války v Žirovnici';'Památník obětem světových válek';'1.4476223480139965';'Q67181069';'9495';'';'25';'Q575759';'Žirovnice'
'Památník K. H. Borovského v Batelově';'Pomník Karla Havlíčka Borovského';'0.9710471130028079';'Q67181124';'21205';'';'25';'Q5003624';'Batelov'
'Pomník Kostky cukru v Dačicích';'Kostka cukru';'3.225954593692996';'Q80458868';'23162';'';'25';'Q4989906';'Dačice'
'Plastika před obchodním domem v Třešti';'Skulptura pro obchodní středisko';'1.8453971254631338';'Q88013124';'3139';'';'26';'Q12045520';'Třešť'
'Keramická plastika';'Keramická plastika do atria obchodního střediska sídliště Nové Dvory';'0.3978922943598946';'Q65038290';'4835';'';'26';'Q860861';'Třebíč'
'Plastika Růže';'Růže';'1.7823039235302625';'Q58827606';'4842';'';'26';'Q860861';'Třebíč'
'Věda a technika ve službách pokroku a míru';'Pokrok vědy a techniky v dobývání kosmického prostoru';'3.3131634329623316';'Q52182222';'8287';'';'26';'Q860861';'Třebíč'
'Skleněný reliéf';'Reliéf a nápis na obchodním středisku sídliště Hájek';'4.945336920010343';'Q65038345';'8958';'';'26';'Q245117';'Třebíč'
'Kosmický motiv - keramický glazovaný reliéf na čelní stěně vstupního prostoru kulturního střediska sídliště Hájek';'Kosmický motiv';'1.2234329021914496';'Q65038344';'8960';'';'26';'Q245117';'Třebíč'
'Děti';'Děti';'0.9330714952606086';'Q65096221';'12274';'';'26';'Q860861';'Třebíč'
'Plynutí';'Plynutí';'0.06672836055347209';'Q57443064';'13831';'';'26';'Q860861';'Třebíč'
'Pamětní deska Otokara Březiny na budově úřadu městyse v Nové Říši';'Pamětní deska Otokara Březiny s bronzovou plastikou';'9.237840836381';'Q67180728';'21223';'';'26';'Q721747';'Nová Říše'
'Gymnastka';'"""Gymnastka"" sportovní hala Třebíč"';'5.81853438773933';'Q65038291';'22376';'';'26';'Q860861';'Třebíč'
'Matka Vysočiny';'Žena z Vysočiny';'1.6327708289756204';'Q12036068';'7145';'';'27';'Q4989906';'Velké Meziříčí'
'sloup u Jaderné elektrárny Dukovany';'Československo-sovětská spolupráce';'0.6917681837787814';'Q66457015';'12566';'';'27';'Q860861';'Dukovany'
